USERCODE,TRAN_ID,AMOUNT,TRAN_STATUS,PAY_MODE,TRAN_DATE,SETTLEMENT_STATUS,SETTLEMENT_DT
INNCINEMALIV,INNCINEMALIVNK1486568409,360,S,OTHERNETBANKPAYU,08-FEB-2017,S,12-FEB-2017
INNCINEMALIV,INNCINEMALIVME1486619680,360,S,PG,09-FEB-2017,,
INNCINEMALIV,INNCINEMALIVFU1486619922,240,S,PG,09-FEB-2017,,
INNCINEMALIV,INNCINEMALIVLC1486620148,240,S,PG,09-FEB-2017,,
INNCINEMALIV,INNCINEMALIVVP1486638030,840,S,OTHERNETBANKPAYU,09-FEB-2017,,
INNCINEMALIV,INNCINEMALIVVX1486638445,240,S,PG,09-FEB-2017,,
INNCINEMALIV,INNCINEMALIVCH1486569613,600,S,PG,08-FEB-2017,S,12-FEB-2017
INNCINEMALIV,INNCINEMALIVFA1486604567,120,S,PG,09-FEB-2017,S,13-FEB-2017
INNCINEMALIV,INNCINEMALIVOS1486571972,480,S,OTHERNETBANKPAYU,08-FEB-2017,S,12-FEB-2017
INNCINEMALIV,INNCINEMALIVNO1486620258,240,S,PG,09-FEB-2017,,
INNCINEMALIV,INNCINEMALIVMQ1486654698,120,S,OTHERNETBANKPAYU,09-FEB-2017,,
INNCINEMALIV,INNCINEMALIVHI1486655068,720,S,OTHERNETBANKPAYU,09-FEB-2017,,
INNCINEMALIV,INNCINEMALIVUG1486655543,240,S,PG,09-FEB-2017,,
INNCINEMALIV,INNCINEMALIVUG1486657235,480,S,PG,09-FEB-2017,,
INNCINEMALIV,INNCINEMALIVFG1486657364,600,S,PG,09-FEB-2017,,
INNCINEMALIV,INNCINEMALIVLX1486661097,480,S,OTHERNETBANKPAYU,09-FEB-2017,,
INNCINEMALIV,INNCINEMALIVGM1486661153,240,S,PG,09-FEB-2017,,
INNCINEMALIV,INNCINEMALIVKZ1486661548,240,S,PG,09-FEB-2017,,
INNCINEMALIV,INNCINEMALIVTI1486572370,360,S,PG,08-FEB-2017,S,12-FEB-2017
INNCINEMALIV,INNCINEMALIVTY1486572746,840,S,PG,08-FEB-2017,S,12-FEB-2017
INNCINEMALIV,INNCINEMALIVXD1486621038,240,S,PG,09-FEB-2017,,
INNCINEMALIV,INNCINEMALIVSJ1486621164,120,S,FEDNET,09-FEB-2017,S,09-FEB-2017
INNCINEMALIV,INNCINEMALIVUJ1486621289,360,S,PG,09-FEB-2017,,
INNCINEMALIV,INNCINEMALIVZH1486621381,480,S,PG,09-FEB-2017,,
INNCINEMALIV,INNCINEMALIVJN1486621404,360,S,PG,09-FEB-2017,,
INNCINEMALIV,INNCINEMALIVND1486621422,480,S,PG,09-FEB-2017,,
INNCINEMALIV,INNCINEMALIVGF1486658796,240,S,PG,09-FEB-2017,,
INNCINEMALIV,INNCINEMALIVYC1486700847,240,S,PG,10-FEB-2017,,
INNCINEMALIV,INNCINEMALIVSY1486700926,120,S,OTHERNETBANKPAYU,10-FEB-2017,,
INNCINEMALIV,INNCINEMALIVRM1486621472,240,S,PG,09-FEB-2017,,
INNCINEMALIV,INNCINEMALIVPI1486627457,240,S,PG,09-FEB-2017,,
INNCINEMALIV,INNCINEMALIVDR1486702994,240,S,FEDNET,10-FEB-2017,S,10-FEB-2017
INNCINEMALIV,INNCINEMALIVLF1486703773,360,S,OTHERNETBANKPAYU,10-FEB-2017,,
INNCINEMALIV,INNCINEMALIVVD1486708402,600,S,OTHERNETBANKPAYU,10-FEB-2017,,
INNCINEMALIV,INNCINEMALIVHF1486708467,120,S,PG,10-FEB-2017,,
INNCINEMALIV,INNCINEMALIVKP1486458987,240,S,PG,07-FEB-2017,S,11-FEB-2017
INNCINEMALIV,INNCINEMALIVOS1486574573,720,S,PG,08-FEB-2017,S,12-FEB-2017
INNCINEMALIV,INNCINEMALIVIM1486628299,1200,S,OTHERNETBANKPAYU,09-FEB-2017,,
INNCINEMALIV,INNCINEMALIVHN1486703961,360,S,PG,10-FEB-2017,,
INNCINEMALIV,INNCINEMALIVFY1486704089,240,S,FEDNET,10-FEB-2017,S,10-FEB-2017
INNCINEMALIV,INNCINEMALIVSZ1486704198,240,S,PG,10-FEB-2017,,
INNCINEMALIV,INNCINEMALIVSA1486704229,120,S,OTHERNETBANKPAYU,10-FEB-2017,,
INNCINEMALIV,INNCINEMALIVDL1486704392,120,S,FEDNET,10-FEB-2017,S,10-FEB-2017
INNCINEMALIV,INNCINEMALIVNW1486700330,240,S,OTHERNETBANKPAYU,10-FEB-2017,,
INNCINEMALIV,INNCINEMALIVTF1486705018,120,S,FEDNET,10-FEB-2017,S,10-FEB-2017
INNCINEMALIV,INNCINEMALIVQN1486705008,720,S,PG,10-FEB-2017,,
INNCINEMALIV,INNCINEMALIVKA1486705174,360,S,PG,10-FEB-2017,,
INNCINEMALIV,INNCINEMALIVTR1486613320,240,S,PG,09-FEB-2017,,
INNCINEMALIV,INNCINEMALIVJM1486613288,360,S,OTHERNETBANKPAYU,09-FEB-2017,,
INNCINEMALIV,INNCINEMALIVOT1486577258,120,S,OTHERNETBANKPAYU,08-FEB-2017,S,12-FEB-2017
INNCINEMALIV,INNCINEMALIVPF1486578939,360,S,PG,09-FEB-2017,S,13-FEB-2017
INNCINEMALIV,INNCINEMALIVSE1486622312,240,S,OTHERNETBANKPAYU,09-FEB-2017,,
INNCINEMALIV,INNCINEMALIVIJ1486622755,120,S,OTHERNETBANKPAYU,09-FEB-2017,,
INNCINEMALIV,INNCINEMALIVYH1486622757,480,S,PG,09-FEB-2017,,
INNCINEMALIV,INNCINEMALIVYK1486622803,480,S,PG,09-FEB-2017,,
INNCINEMALIV,INNCINEMALIVXG1486705859,240,S,PG,10-FEB-2017,,
INNCINEMALIV,INNCINEMALIVCE1486705860,240,S,OTHERNETBANKPAYU,10-FEB-2017,,
INNCINEMALIV,INNCINEMALIVJA1486706032,840,S,PG,10-FEB-2017,,
INNCINEMALIV,INNCINEMALIVYS1486706055,480,S,OTHERNETBANKPAYU,10-FEB-2017,,
INNCINEMALIV,INNCINEMALIVTI1486706269,240,S,OTHERNETBANKPAYU,10-FEB-2017,,
INNCINEMALIV,INNCINEMALIVHQ1486706881,480,S,PG,10-FEB-2017,,
INNCINEMALIV,INNCINEMALIVEI1486706920,360,S,OTHERNETBANKPAYU,10-FEB-2017,,
INNCINEMALIV,INNCINEMALIVGN1486707105,360,S,PG,10-FEB-2017,,
INNCINEMALIV,INNCINEMALIVNF1486708529,600,S,PG,10-FEB-2017,,
INNCINEMALIV,INNCINEMALIVKY1486708961,120,S,PG,10-FEB-2017,,
INNCINEMALIV,INNCINEMALIVNN1486709036,360,S,PG,10-FEB-2017,,
INNCINEMALIV,INNCINEMALIVWD1486690039,240,S,PG,10-FEB-2017,,
INNCINEMALIV,INNCINEMALIVTC1486691347,240,S,PG,10-FEB-2017,,
INNCINEMALIV,INNCINEMALIVMW1486691694,360,S,PG,10-FEB-2017,,
INNCINEMALIV,INNCINEMALIVPA1486615048,120,S,PG,09-FEB-2017,,
INNCINEMALIV,INNCINEMALIVZA1486624137,240,S,PG,09-FEB-2017,,
INNCINEMALIV,INNCINEMALIVRD1486630117,120,S,OTHERNETBANKPAYU,09-FEB-2017,,
INNCINEMALIV,INNCINEMALIVQC1486692632,120,S,OTHERNETBANKPAYU,10-FEB-2017,,
INNCINEMALIV,INNCINEMALIVVS1486693158,480,S,PG,10-FEB-2017,,
INNCINEMALIV,INNCINEMALIVII1486646835,600,S,OTHERNETBANKPAYU,09-FEB-2017,,
INNCINEMALIV,INNCINEMALIVRF1486648462,240,S,PG,09-FEB-2017,,
INNCINEMALIV,INNCINEMALIVEQ1486648752,360,S,OTHERNETBANKPAYU,09-FEB-2017,,
INNCINEMALIV,INNCINEMALIVSN1486649420,240,S,OTHERNETBANKPAYU,09-FEB-2017,,
INNCINEMALIV,INNCINEMALIVIO1486624698,480,S,OTHERNETBANKPAYU,09-FEB-2017,,
INNCINEMALIV,INNCINEMALIVKL1486624715,360,S,PG,09-FEB-2017,,
INNCINEMALIV,INNCINEMALIVWM1486630495,600,S,PG,09-FEB-2017,,
INNCINEMALIV,INNCINEMALIVOD1486630809,240,S,OTHERNETBANKPAYU,09-FEB-2017,,
INNCINEMALIV,INNCINEMALIVXR1486631211,240,S,PG,09-FEB-2017,,
INNCINEMALIV,INNCINEMALIVCP1486647536,1200,S,PG,09-FEB-2017,,
INNCINEMALIV,INNCINEMALIVOI1486663105,240,S,PG,09-FEB-2017,,
INNCINEMALIV,INNCINEMALIVQQ1486694705,120,S,PG,10-FEB-2017,,
INNCINEMALIV,INNCINEMALIVML1486695064,360,S,PG,10-FEB-2017,,
INNCINEMALIV,INNCINEMALIVHU1486695207,240,S,OTHERNETBANKPAYU,10-FEB-2017,,
INNCINEMALIV,INNCINEMALIVFU1486695502,480,S,OTHERNETBANKPAYU,10-FEB-2017,,
INNCINEMALIV,INNCINEMALIVRR1486695666,240,S,PG,10-FEB-2017,,
INNCINEMALIV,INNCINEMALIVNF1486695716,120,S,OTHERNETBANKPAYU,10-FEB-2017,,
INNCINEMALIV,INNCINEMALIVIV1486695554,960,S,PG,10-FEB-2017,,
INNCINEMALIV,INNCINEMALIVEQ1486695751,600,S,PG,10-FEB-2017,,
INNCINEMALIV,INNCINEMALIVZG1486625047,360,S,PG,09-FEB-2017,,
INNCINEMALIV,INNCINEMALIVBS1486625334,240,S,PG,09-FEB-2017,,
INNCINEMALIV,INNCINEMALIVMB1486625380,480,S,PG,09-FEB-2017,,
INNCINEMALIV,INNCINEMALIVMX1486625435,360,S,PG,09-FEB-2017,,
INNCINEMALIV,INNCINEMALIVRE1486631565,240,S,PG,09-FEB-2017,,
INNCINEMALIV,INNCINEMALIVJP1486631600,720,S,PG,09-FEB-2017,,
INNCINEMALIV,INNCINEMALIVIH1486631811,240,S,OTHERNETBANKPAYU,09-FEB-2017,,
INNCINEMALIV,INNCINEMALIVBB1486696052,240,S,OTHERNETBANKPAYU,10-FEB-2017,,
INNCINEMALIV,INNCINEMALIVFG1486699152,240,S,PG,10-FEB-2017,,
INNCINEMALIV,INNCINEMALIVOI1486699359,240,S,PG,10-FEB-2017,,
INNCINEMALIV,INNCINEMALIVLW1486706314,360,S,PG,10-FEB-2017,,
INNCINEMALIV,INNCINEMALIVVR1486649038,480,S,PG,09-FEB-2017,,
INNCINEMALIV,INNCINEMALIVVA1486649737,600,S,PG,09-FEB-2017,,
INNCINEMALIV,INNCINEMALIVOO1486632360,240,S,PG,09-FEB-2017,,
INNCINEMALIV,INNCINEMALIVNK1486707706,240,S,PG,10-FEB-2017,,
INNCINEMALIV,INNCINEMALIVPL1486708082,840,S,PG,10-FEB-2017,,
INNCINEMALIV,INNCINEMALIVGK1486709534,240,S,PG,10-FEB-2017,,
INNCINEMALIV,INNCINEMALIVMZ1486709553,240,S,PG,10-FEB-2017,,
INNCINEMALIV,INNCINEMALIVAD1486666209,1200,S,FEDNET,10-FEB-2017,S,10-FEB-2017
INNCINEMALIV,INNCINEMALIVQB1486709633,480,S,PG,10-FEB-2017,,
INNCINEMALIV,INNCINEMALIVFV1486651284,120,S,PG,09-FEB-2017,,
INNCINEMALIV,INNCINEMALIVSV1486615874,120,S,PG,09-FEB-2017,,
INNCINEMALIV,INNCINEMALIVCR1486616215,240,S,PG,09-FEB-2017,,
INNCINEMALIV,INNCINEMALIVVK1486633574,120,S,PG,09-FEB-2017,,
INNCINEMALIV,INNCINEMALIVAI1486701529,240,S,PG,10-FEB-2017,,
INNCINEMALIV,INNCINEMALIVTT1486702139,240,S,PG,10-FEB-2017,,
INNCINEMALIV,INNCINEMALIVXB1486702424,120,S,PG,10-FEB-2017,,
INNCINEMALIV,INNCINEMALIVLG1486702585,240,S,PG,10-FEB-2017,,
INNCINEMALIV,INNCINEMALIVPH1486651836,360,S,PG,09-FEB-2017,,
INNCINEMALIV,INNCINEMALIVAS1486638774,360,S,FEDNET,09-FEB-2017,S,09-FEB-2017
INNCINEMALIV,INNCINEMALIVXO1486638848,120,S,OTHERNETBANKPAYU,09-FEB-2017,,
INNCINEMALIV,INNCINEMALIVIP1486616671,720,S,PG,09-FEB-2017,,
INNCINEMALIV,INNCINEMALIVWS1486634752,240,S,PG,09-FEB-2017,,
INNCINEMALIV,INNCINEMALIVDK1486634931,840,S,PG,09-FEB-2017,,
INNCINEMALIV,INNCINEMALIVHH1486629915,360,S,PG,09-FEB-2017,,
INNCINEMALIV,INNCINEMALIVYM1486651982,600,S,OTHERNETBANKPAYU,09-FEB-2017,,
INNCINEMALIV,INNCINEMALIVKJ1486652018,360,S,OTHERNETBANKPAYU,09-FEB-2017,,
INNCINEMALIV,INNCINEMALIVNY1486652312,600,S,PG,09-FEB-2017,,
INNCINEMALIV,INNCINEMALIVCQ1486652342,480,S,PG,09-FEB-2017,,
INNCINEMALIV,INNCINEMALIVHG1486652921,120,S,PG,09-FEB-2017,,
INNCINEMALIV,INNCINEMALIVUR1486639841,120,S,PG,09-FEB-2017,,
INNCINEMALIV,INNCINEMALIVYH1486642586,240,S,PG,09-FEB-2017,,
INNCINEMALIV,INNCINEMALIVSX1486642683,720,S,PG,09-FEB-2017,,
INNCINEMALIV,INNCINEMALIVZU1486642817,480,S,OTHERNETBANKPAYU,09-FEB-2017,,
INNCINEMALIV,INNCINEMALIVPO1486617388,480,S,OTHERNETBANKPAYU,09-FEB-2017,,
INNCINEMALIV,INNCINEMALIVKU1486635130,840,S,PG,09-FEB-2017,,
INNCINEMALIV,INNCINEMALIVFX1486653791,240,S,PG,09-FEB-2017,,
INNCINEMALIV,INNCINEMALIVJD1486625634,240,S,PG,09-FEB-2017,,
INNCINEMALIV,INNCINEMALIVJU1486643147,840,S,OTHERNETBANKPAYU,09-FEB-2017,,
INNCINEMALIV,INNCINEMALIVCJ1486644451,480,S,FEDNET,09-FEB-2017,S,09-FEB-2017
INNCINEMALIV,INNCINEMALIVCC1486655692,240,S,PG,09-FEB-2017,,
INNCINEMALIV,INNCINEMALIVNL1486656082,120,S,PG,09-FEB-2017,,
INNCINEMALIV,INNCINEMALIVCO1486566339,240,S,PG,08-FEB-2017,S,12-FEB-2017
INNCINEMALIV,INNCINEMALIVGC1486618580,240,S,FEDNET,09-FEB-2017,S,09-FEB-2017
INNCINEMALIV,INNCINEMALIVMO1486636573,240,S,OTHERNETBANKPAYU,09-FEB-2017,,
INNCINEMALIV,INNCINEMALIVYU1486640685,360,S,OTHERNETBANKPAYU,09-FEB-2017,,
INNCINEMALIV,INNCINEMALIVIE1486656473,240,S,PG,09-FEB-2017,,
INNCINEMALIV,INNCINEMALIVSQ1486656755,240,S,OTHERNETBANKPAYU,09-FEB-2017,,
INNCINEMALIV,INNCINEMALIVLW1486567475,240,S,OTHERNETBANKPAYU,08-FEB-2017,S,12-FEB-2017
INNCINEMALIV,INNCINEMALIVON1486567483,600,S,PG,08-FEB-2017,S,12-FEB-2017
INNCINEMALIV,INNCINEMALIVXS1486567774,1200,S,PG,08-FEB-2017,S,12-FEB-2017
INNCINEMALIV,INNCINEMALIVDY1486567939,720,S,OTHERNETBANKPAYU,08-FEB-2017,S,12-FEB-2017
INNCINEMALIV,INNCINEMALIVDN1486618801,240,S,PG,09-FEB-2017,,
INNCINEMALIV,INNCINEMALIVCZ1486618957,120,S,PG,09-FEB-2017,,
INNCINEMALIV,INNCINEMALIVIQ1486636980,240,S,OTHERNETBANKPAYU,09-FEB-2017,,
INNCINEMALIV,INNCINEMALIVRE1486647318,960,S,OTHERNETBANKPAYU,09-FEB-2017,,
INNCINEMALIV,INNCINEMALIVFQ1486654243,480,S,PG,09-FEB-2017,,
INNCINEMALIV,INNCINEMALIVBO1486654409,480,S,PG,09-FEB-2017,,
INNCINEMALIV,INNCINEMALIVPR1486654536,360,S,PG,09-FEB-2017,,
INNCINEMALIV,INNCINEMALIVWC1486659989,600,S,PG,09-FEB-2017,,
INNCINEMALIV,INNCINEMALIVFY1486660141,240,S,PG,09-FEB-2017,,
INNCINEMALIV,INNCINEMALIVSO1486660344,480,S,PG,09-FEB-2017,,
INNCINEMALIV,INNCINEMALIVBG1486652226,360,S,PG,09-FEB-2017,,
INNCINEMALIV,INNCINEMALIVBJ1486700147,360,S,PG,10-FEB-2017,,
INNCINEMALIV,INNCINEMALIVFV1486700628,240,S,PG,10-FEB-2017,,
INNCINEMALIV,INNCINEMALIVLS1486446893,240,S,PG,07-FEB-2017,S,11-FEB-2017
INNCINEMALIV,INNCINEMALIVME1486441132,240,S,OTHERNETBANKPAYU,07-FEB-2017,S,11-FEB-2017
INNCINEMALIV,INNCINEMALIVMJ1486441611,240,S,PG,07-FEB-2017,S,11-FEB-2017
INNCINEMALIV,INNCINEMALIVWF1486444325,720,S,PG,07-FEB-2017,S,11-FEB-2017
INNCINEMALIV,INNCINEMALIVVD1486536678,240,S,PG,08-FEB-2017,S,12-FEB-2017
INNCINEMALIV,INNCINEMALIVLK1486474650,480,S,PG,07-FEB-2017,S,11-FEB-2017
INNCINEMALIV,INNCINEMALIVMU1486561204,360,S,OTHERNETBANKPAYU,08-FEB-2017,S,12-FEB-2017
INNCINEMALIV,INNCINEMALIVRI1486561692,360,S,OTHERNETBANKPAYU,08-FEB-2017,S,12-FEB-2017
INNCINEMALIV,INNCINEMALIVRR1486563934,120,S,PG,08-FEB-2017,S,12-FEB-2017
INNCINEMALIV,INNCINEMALIVSK1486541215,480,S,OTHERNETBANKPAYU,08-FEB-2017,S,12-FEB-2017
INNCINEMALIV,INNCINEMALIVHG1486543101,240,S,PG,08-FEB-2017,S,12-FEB-2017
INNCINEMALIV,INNCINEMALIVKX1486544492,480,S,OTHERNETBANKPAYU,08-FEB-2017,S,12-FEB-2017
INNCINEMALIV,INNCINEMALIVBG1486479906,480,S,FEDNET,07-FEB-2017,S,07-FEB-2017
INNCINEMALIV,INNCINEMALIVTS1486545881,600,S,PG,08-FEB-2017,S,12-FEB-2017
INNCINEMALIV,INNCINEMALIVRY1486454842,720,S,FEDNET,07-FEB-2017,S,07-FEB-2017
INNCINEMALIV,INNCINEMALIVAH1486560196,120,S,PG,08-FEB-2017,S,12-FEB-2017
INNCINEMALIV,INNCINEMALIVTB1486469202,360,S,OTHERNETBANKPAYU,07-FEB-2017,S,11-FEB-2017
INNCINEMALIV,INNCINEMALIVZR1486533295,600,S,OTHERNETBANKPAYU,08-FEB-2017,S,12-FEB-2017
INNCINEMALIV,INNCINEMALIVNR1486563549,480,S,PG,08-FEB-2017,S,12-FEB-2017
INNCINEMALIV,INNCINEMALIVFK1486470040,360,S,PG,07-FEB-2017,S,11-FEB-2017
INNCINEMALIV,INNCINEMALIVBN1486470989,360,S,PG,07-FEB-2017,S,11-FEB-2017
INNCINEMALIV,INNCINEMALIVAW1486713294,600,S,OTHERNETBANKPAYU,10-FEB-2017,,
INNCINEMALIV,INNCINEMALIVMF1486713830,360,S,OTHERNETBANKPAYU,10-FEB-2017,,
INNCINEMALIV,INNCINEMALIVUK1486713749,240,S,PG,10-FEB-2017,,
INNCINEMALIV,INNCINEMALIVLH1486714316,360,S,PG,10-FEB-2017,,
INNCINEMALIV,INNCINEMALIVRB1486714393,480,S,PG,10-FEB-2017,,
INNCINEMALIV,INNCINEMALIVIO1486714454,960,S,OTHERNETBANKPAYU,10-FEB-2017,,
INNCINEMALIV,INNCINEMALIVCQ1486714855,120,S,PG,10-FEB-2017,,
INNCINEMALIV,INNCINEMALIVLK1486714953,240,S,FEDNET,10-FEB-2017,S,10-FEB-2017
INNCINEMALIV,INNCINEMALIVGM1486731696,360,S,OTHERNETBANKPAYU,10-FEB-2017,,
INNCINEMALIV,INNCINEMALIVMU1486716163,240,S,PG,10-FEB-2017,,
INNCINEMALIV,INNCINEMALIVDM1486716551,480,S,OTHERNETBANKPAYU,10-FEB-2017,,
INNCINEMALIV,INNCINEMALIVCU1486732000,240,S,PG,10-FEB-2017,,
INNCINEMALIV,INNCINEMALIVBM1486792891,360,S,PG,11-FEB-2017,,
INNCINEMALIV,INNCINEMALIVSU1486717022,720,S,PG,10-FEB-2017,,
INNCINEMALIV,INNCINEMALIVTT1486717068,240,S,OTHERNETBANKPAYU,10-FEB-2017,,
INNCINEMALIV,INNCINEMALIVUD1486717226,120,S,PG,10-FEB-2017,,
INNCINEMALIV,INNCINEMALIVDI1486793174,240,S,PG,11-FEB-2017,,
INNCINEMALIV,INNCINEMALIVDY1486793171,240,S,OTHERNETBANKPAYU,11-FEB-2017,,
INNCINEMALIV,INNCINEMALIVPX1486717811,240,S,PG,10-FEB-2017,,
INNCINEMALIV,INNCINEMALIVWN1486717891,120,S,PG,10-FEB-2017,,
INNCINEMALIV,INNCINEMALIVUL1486718387,240,S,PG,10-FEB-2017,,
INNCINEMALIV,INNCINEMALIVHZ1486793868,720,S,PG,11-FEB-2017,,
INNCINEMALIV,INNCINEMALIVSI1486793885,120,S,PG,11-FEB-2017,,
INNCINEMALIV,INNCINEMALIVSH1486794024,240,S,PG,11-FEB-2017,,
INNCINEMALIV,INNCINEMALIVUJ1486880685,360,S,OTHERNETBANKPAYU,12-FEB-2017,,
INNCINEMALIV,INNCINEMALIVOO1486880700,480,S,FEDNET,12-FEB-2017,S,12-FEB-2017
INNCINEMALIV,INNCINEMALIVLG1486880993,120,S,OTHERNETBANKPAYU,12-FEB-2017,,
INNCINEMALIV,INNCINEMALIVRZ1486881053,840,S,OTHERNETBANKPAYU,12-FEB-2017,,
INNCINEMALIV,INNCINEMALIVVG1486718588,240,S,PG,10-FEB-2017,,
INNCINEMALIV,INNCINEMALIVQV1486718925,240,S,OTHERNETBANKPAYU,10-FEB-2017,,
INNCINEMALIV,INNCINEMALIVRT1486719006,480,S,PG,10-FEB-2017,,
INNCINEMALIV,INNCINEMALIVWM1486719089,120,S,OTHERNETBANKPAYU,10-FEB-2017,,
INNCINEMALIV,INNCINEMALIVFA1486881238,480,S,OTHERNETBANKPAYU,12-FEB-2017,,
INNCINEMALIV,INNCINEMALIVDO1486881429,240,S,OTHERNETBANKPAYU,12-FEB-2017,,
INNCINEMALIV,INNCINEMALIVSI1486881629,240,S,OTHERNETBANKPAYU,12-FEB-2017,,
INNCINEMALIV,INNCINEMALIVCW1486881796,360,S,OTHERNETBANKPAYU,12-FEB-2017,,
INNCINEMALIV,INNCINEMALIVMV1486719286,480,S,PG,10-FEB-2017,,
INNCINEMALIV,INNCINEMALIVSZ1486881962,240,S,OTHERNETBANKPAYU,12-FEB-2017,,
INNCINEMALIV,INNCINEMALIVAH1486882034,240,S,OTHERNETBANKPAYU,12-FEB-2017,,
INNCINEMALIV,INNCINEMALIVAW1486882157,240,S,OTHERNETBANKPAYU,12-FEB-2017,,
INNCINEMALIV,INNCINEMALIVEF1486882483,240,S,OTHERNETBANKPAYU,12-FEB-2017,,
INNCINEMALIV,INNCINEMALIVPN1486720498,600,S,PG,10-FEB-2017,,
INNCINEMALIV,INNCINEMALIVGZ1486722038,480,S,PG,10-FEB-2017,,
INNCINEMALIV,INNCINEMALIVHJ1486722149,240,S,OTHERNETBANKPAYU,10-FEB-2017,,
INNCINEMALIV,INNCINEMALIVTT1486722405,600,S,PG,10-FEB-2017,,
INNCINEMALIV,INNCINEMALIVBK1486722489,120,S,OTHERNETBANKPAYU,10-FEB-2017,,
INNCINEMALIV,INNCINEMALIVAJ1486722708,600,S,PG,10-FEB-2017,,
INNCINEMALIV,INNCINEMALIVIN1486722827,240,S,PG,10-FEB-2017,,
INNCINEMALIV,INNCINEMALIVNX1486722883,240,S,OTHERNETBANKPAYU,10-FEB-2017,,
INNCINEMALIV,INNCINEMALIVGC1486865128,240,S,PG,12-FEB-2017,,
INNCINEMALIV,INNCINEMALIVQM1486865475,240,S,PG,12-FEB-2017,,
INNCINEMALIV,INNCINEMALIVGA1486865558,360,S,OTHERNETBANKPAYU,12-FEB-2017,,
INNCINEMALIV,INNCINEMALIVDR1486866995,120,S,OTHERNETBANKPAYU,12-FEB-2017,,
INNCINEMALIV,INNCINEMALIVWP1486867535,240,S,PG,12-FEB-2017,,
INNCINEMALIV,INNCINEMALIVSC1486867734,240,S,PG,12-FEB-2017,,
INNCINEMALIV,INNCINEMALIVXR1486792185,480,S,FEDNET,11-FEB-2017,S,11-FEB-2017
INNCINEMALIV,INNCINEMALIVZT1486792239,480,S,PG,11-FEB-2017,,
INNCINEMALIV,INNCINEMALIVTP1486792542,1080,S,PG,11-FEB-2017,,
INNCINEMALIV,INNCINEMALIVOC1486792660,240,S,OTHERNETBANKPAYU,11-FEB-2017,,
INNCINEMALIV,INNCINEMALIVPP1486723335,240,S,PG,10-FEB-2017,,
INNCINEMALIV,INNCINEMALIVQU1486723511,240,S,PG,10-FEB-2017,,
INNCINEMALIV,INNCINEMALIVKY1486723841,240,S,PG,10-FEB-2017,,
INNCINEMALIV,INNCINEMALIVBV1486852320,240,S,PG,12-FEB-2017,,
INNCINEMALIV,INNCINEMALIVME1486710065,840,S,OTHERNETBANKPAYU,10-FEB-2017,,
INNCINEMALIV,INNCINEMALIVZL1486710180,360,S,OTHERNETBANKPAYU,10-FEB-2017,,
INNCINEMALIV,INNCINEMALIVOD1486710190,720,S,PG,10-FEB-2017,,
INNCINEMALIV,INNCINEMALIVKB1486710593,240,S,OTHERNETBANKPAYU,10-FEB-2017,,
INNCINEMALIV,INNCINEMALIVRV1486710690,360,S,PG,10-FEB-2017,,
INNCINEMALIV,INNCINEMALIVVP1486710795,360,S,PG,10-FEB-2017,,
INNCINEMALIV,INNCINEMALIVGD1486710790,480,S,PG,10-FEB-2017,,
INNCINEMALIV,INNCINEMALIVGX1486711076,360,S,PG,10-FEB-2017,,
INNCINEMALIV,INNCINEMALIVSF1486711240,120,S,PG,10-FEB-2017,,
INNCINEMALIV,INNCINEMALIVGN1486711253,360,S,PG,10-FEB-2017,,
INNCINEMALIV,INNCINEMALIVHB1486725272,360,S,OTHERNETBANKPAYU,10-FEB-2017,,
INNCINEMALIV,INNCINEMALIVEH1486725594,240,S,FEDNET,10-FEB-2017,S,10-FEB-2017
INNCINEMALIV,INNCINEMALIVOR1486726013,240,S,PG,10-FEB-2017,,
INNCINEMALIV,INNCINEMALIVWC1486711655,600,S,PG,10-FEB-2017,,
INNCINEMALIV,INNCINEMALIVWK1486711949,840,S,PG,10-FEB-2017,,
INNCINEMALIV,INNCINEMALIVVD1486712780,480,S,PG,10-FEB-2017,,
INNCINEMALIV,INNCINEMALIVDG1486713217,840,S,PG,10-FEB-2017,,
INNCINEMALIV,INNCINEMALIVYQ1486727719,240,S,PG,10-FEB-2017,,
INNCINEMALIV,INNCINEMALIVEO1486829083,720,S,PG,11-FEB-2017,,
INNCINEMALIV,INNCINEMALIVPI1486829198,240,S,PG,11-FEB-2017,,
INNCINEMALIV,INNCINEMALIVJK1486829340,360,S,OTHERNETBANKPAYU,11-FEB-2017,,
INNCINEMALIV,INNCINEMALIVCC1486829691,360,S,OTHERNETBANKPAYU,11-FEB-2017,,
INNCINEMALIV,INNCINEMALIVAC1486829715,120,S,OTHERNETBANKPAYU,11-FEB-2017,,
INNCINEMALIV,INNCINEMALIVYE1486829825,360,S,OTHERNETBANKPAYU,11-FEB-2017,,
INNCINEMALIV,INNCINEMALIVBC1486829952,720,S,PG,11-FEB-2017,,
INNCINEMALIV,INNCINEMALIVHA1486830230,240,S,OTHERNETBANKPAYU,11-FEB-2017,,
INNCINEMALIV,INNCINEMALIVHH1486802336,240,S,PG,11-FEB-2017,,
INNCINEMALIV,INNCINEMALIVEG1486802875,240,S,PG,11-FEB-2017,,
INNCINEMALIV,INNCINEMALIVHW1486803072,240,S,PG,11-FEB-2017,,
INNCINEMALIV,INNCINEMALIVZL1486879816,240,S,PG,12-FEB-2017,,
INNCINEMALIV,INNCINEMALIVNJ1486879998,240,S,OTHERNETBANKPAYU,12-FEB-2017,,
INNCINEMALIV,INNCINEMALIVEP1486879958,600,S,PG,12-FEB-2017,,
INNCINEMALIV,INNCINEMALIVUO1486880368,480,S,PG,12-FEB-2017,,
INNCINEMALIV,INNCINEMALIVUV1486880385,240,S,FEDNET,12-FEB-2017,S,12-FEB-2017
INNCINEMALIV,INNCINEMALIVBL1486830755,480,S,PG,11-FEB-2017,,
INNCINEMALIV,INNCINEMALIVFU1486830870,840,S,PG,11-FEB-2017,,
INNCINEMALIV,INNCINEMALIVJQ1486830970,480,S,OTHERNETBANKPAYU,11-FEB-2017,,
INNCINEMALIV,INNCINEMALIVOW1486803333,600,S,PG,11-FEB-2017,,
INNCINEMALIV,INNCINEMALIVBB1486803344,120,S,PG,11-FEB-2017,,
INNCINEMALIV,INNCINEMALIVLL1486803468,480,S,PG,11-FEB-2017,,
INNCINEMALIV,INNCINEMALIVNO1486803797,240,S,OTHERNETBANKPAYU,11-FEB-2017,,
INNCINEMALIV,INNCINEMALIVOA1486803844,480,S,FEDNET,11-FEB-2017,S,11-FEB-2017
INNCINEMALIV,INNCINEMALIVBS1486803823,240,S,PG,11-FEB-2017,,
INNCINEMALIV,INNCINEMALIVBO1486803878,480,S,PG,11-FEB-2017,,
INNCINEMALIV,INNCINEMALIVIX1486803951,600,S,PG,11-FEB-2017,,
INNCINEMALIV,INNCINEMALIVWJ1486804195,360,S,PG,11-FEB-2017,,
INNCINEMALIV,INNCINEMALIVID1486804226,240,S,OTHERNETBANKPAYU,11-FEB-2017,,
INNCINEMALIV,INNCINEMALIVOH1486804304,480,S,OTHERNETBANKPAYU,11-FEB-2017,,
INNCINEMALIV,INNCINEMALIVAZ1486831911,480,S,PG,11-FEB-2017,,
INNCINEMALIV,INNCINEMALIVLN1486831707,240,S,OTHERNETBANKPAYU,11-FEB-2017,,
INNCINEMALIV,INNCINEMALIVXQ1486832681,840,S,OTHERNETBANKPAYU,11-FEB-2017,,
INNCINEMALIV,INNCINEMALIVHO1486804452,840,S,PG,11-FEB-2017,,
INNCINEMALIV,INNCINEMALIVKL1486804540,240,S,OTHERNETBANKPAYU,11-FEB-2017,,
INNCINEMALIV,INNCINEMALIVGE1486804891,1200,S,OTHERNETBANKPAYU,11-FEB-2017,,
INNCINEMALIV,INNCINEMALIVBZ1486805059,240,S,OTHERNETBANKPAYU,11-FEB-2017,,
INNCINEMALIV,INNCINEMALIVZU1486805108,480,S,PG,11-FEB-2017,,
INNCINEMALIV,INNCINEMALIVFK1486805118,120,S,OTHERNETBANKPAYU,11-FEB-2017,,
INNCINEMALIV,INNCINEMALIVBA1486805255,480,S,OTHERNETBANKPAYU,11-FEB-2017,,
INNCINEMALIV,INNCINEMALIVSZ1486833537,720,S,PG,11-FEB-2017,,
INNCINEMALIV,INNCINEMALIVJD1486833652,120,S,OTHERNETBANKPAYU,11-FEB-2017,,
INNCINEMALIV,INNCINEMALIVVL1486833775,960,S,PG,11-FEB-2017,,
INNCINEMALIV,INNCINEMALIVFB1486834096,960,S,OTHERNETBANKPAYU,11-FEB-2017,,
INNCINEMALIV,INNCINEMALIVDV1486805568,360,S,PG,11-FEB-2017,,
INNCINEMALIV,INNCINEMALIVCQ1486805846,360,S,PG,11-FEB-2017,,
INNCINEMALIV,INNCINEMALIVON1486805900,720,S,PG,11-FEB-2017,,
INNCINEMALIV,INNCINEMALIVYF1486835104,120,S,PG,11-FEB-2017,,
INNCINEMALIV,INNCINEMALIVTR1486835279,240,S,PG,11-FEB-2017,,
INNCINEMALIV,INNCINEMALIVDG1486835583,240,S,PG,11-FEB-2017,,
INNCINEMALIV,INNCINEMALIVVN1486835762,600,S,PG,11-FEB-2017,,
INNCINEMALIV,INNCINEMALIVUJ1486835806,960,S,OTHERNETBANKPAYU,11-FEB-2017,,
INNCINEMALIV,INNCINEMALIVTW1486836488,720,S,PG,11-FEB-2017,,
INNCINEMALIV,INNCINEMALIVGK1486837325,1200,S,OTHERNETBANKPAYU,11-FEB-2017,,
INNCINEMALIV,INNCINEMALIVQV1486837623,600,S,PG,11-FEB-2017,,
INNCINEMALIV,INNCINEMALIVGW1486806901,960,S,PG,11-FEB-2017,,
INNCINEMALIV,INNCINEMALIVHX1486806981,360,S,FEDNET,11-FEB-2017,S,11-FEB-2017
INNCINEMALIV,INNCINEMALIVKU1486807111,240,S,PG,11-FEB-2017,,
INNCINEMALIV,INNCINEMALIVHC1486807169,480,S,PG,11-FEB-2017,,
INNCINEMALIV,INNCINEMALIVAI1486808803,240,S,PG,11-FEB-2017,,
INNCINEMALIV,INNCINEMALIVPB1486808980,240,S,OTHERNETBANKPAYU,11-FEB-2017,,
INNCINEMALIV,INNCINEMALIVST1486809255,240,S,OTHERNETBANKPAYU,11-FEB-2017,,
INNCINEMALIV,INNCINEMALIVDS1486809336,480,S,PG,11-FEB-2017,,
INNCINEMALIV,INNCINEMALIVIY1486809661,240,S,OTHERNETBANKPAYU,11-FEB-2017,,
INNCINEMALIV,INNCINEMALIVMH1486809999,480,S,PG,11-FEB-2017,,
INNCINEMALIV,INNCINEMALIVLH1486811394,480,S,PG,11-FEB-2017,,
INNCINEMALIV,INNCINEMALIVGE1486804620,480,S,PG,11-FEB-2017,,
INNCINEMALIV,INNCINEMALIVPT1486804688,240,S,OTHERNETBANKPAYU,11-FEB-2017,,
INNCINEMALIV,INNCINEMALIVFZ1486812127,360,S,OTHERNETBANKPAYU,11-FEB-2017,,
INNCINEMALIV,INNCINEMALIVSL1486812294,600,S,OTHERNETBANKPAYU,11-FEB-2017,,
INNCINEMALIV,INNCINEMALIVVT1486813433,480,S,PG,11-FEB-2017,,
INNCINEMALIV,INNCINEMALIVWD1486822026,480,S,OTHERNETBANKPAYU,11-FEB-2017,,
INNCINEMALIV,INNCINEMALIVEM1486822076,480,S,PG,11-FEB-2017,,
INNCINEMALIV,INNCINEMALIVMT1486822269,480,S,PG,11-FEB-2017,,
INNCINEMALIV,INNCINEMALIVJT1486822279,120,S,PG,11-FEB-2017,,
INNCINEMALIV,INNCINEMALIVOU1486814201,360,S,OTHERNETBANKPAYU,11-FEB-2017,,
INNCINEMALIV,INNCINEMALIVMW1486814816,360,S,PG,11-FEB-2017,,
INNCINEMALIV,INNCINEMALIVZQ1486823852,240,S,PG,11-FEB-2017,,
INNCINEMALIV,INNCINEMALIVHG1486824091,240,S,PG,11-FEB-2017,,
INNCINEMALIV,INNCINEMALIVBK1486824598,1200,S,OTHERNETBANKPAYU,11-FEB-2017,,
INNCINEMALIV,INNCINEMALIVIP1486824686,720,S,PG,11-FEB-2017,,
INNCINEMALIV,INNCINEMALIVUG1486795511,360,S,PG,11-FEB-2017,,
INNCINEMALIV,INNCINEMALIVQA1486795533,720,S,PG,11-FEB-2017,,
INNCINEMALIV,INNCINEMALIVGS1486795517,120,S,PG,11-FEB-2017,,
INNCINEMALIV,INNCINEMALIVET1486795566,240,S,PG,11-FEB-2017,,
INNCINEMALIV,INNCINEMALIVOL1486863258,240,S,PG,12-FEB-2017,,
INNCINEMALIV,INNCINEMALIVIW1486800543,240,S,PG,11-FEB-2017,,
INNCINEMALIV,INNCINEMALIVNG1486800574,360,S,PG,11-FEB-2017,,
INNCINEMALIV,INNCINEMALIVSD1486824748,120,S,PG,11-FEB-2017,,
INNCINEMALIV,INNCINEMALIVWJ1486824970,240,S,OTHERNETBANKPAYU,11-FEB-2017,,
INNCINEMALIV,INNCINEMALIVNP1486824962,480,S,PG,11-FEB-2017,,
INNCINEMALIV,INNCINEMALIVZU1486825028,120,S,PG,11-FEB-2017,,
INNCINEMALIV,INNCINEMALIVCJ1486825095,600,S,OTHERNETBANKPAYU,11-FEB-2017,,
INNCINEMALIV,INNCINEMALIVPY1486825597,600,S,PG,11-FEB-2017,,
INNCINEMALIV,INNCINEMALIVZV1486798352,720,S,PG,11-FEB-2017,,
INNCINEMALIV,INNCINEMALIVRS1486798512,1200,S,PG,11-FEB-2017,,
INNCINEMALIV,INNCINEMALIVAY1486798834,120,S,PG,11-FEB-2017,,
INNCINEMALIV,INNCINEMALIVWT1486798849,240,S,PG,11-FEB-2017,,
INNCINEMALIV,INNCINEMALIVCX1486816586,600,S,OTHERNETBANKPAYU,11-FEB-2017,,
INNCINEMALIV,INNCINEMALIVVL1486816674,120,S,OTHERNETBANKPAYU,11-FEB-2017,,
INNCINEMALIV,INNCINEMALIVTK1486817507,240,S,PG,11-FEB-2017,,
INNCINEMALIV,INNCINEMALIVGT1486829554,240,S,PG,11-FEB-2017,,
INNCINEMALIV,INNCINEMALIVDX1486829588,240,S,OTHERNETBANKPAYU,11-FEB-2017,,
INNCINEMALIV,INNCINEMALIVZY1486875655,240,S,OTHERNETBANKPAYU,12-FEB-2017,,
INNCINEMALIV,INNCINEMALIVSK1486875706,480,S,OTHERNETBANKPAYU,12-FEB-2017,,
INNCINEMALIV,INNCINEMALIVIC1486876081,240,S,PG,12-FEB-2017,,
INNCINEMALIV,INNCINEMALIVAT1486876186,240,S,OTHERNETBANKPAYU,12-FEB-2017,,
INNCINEMALIV,INNCINEMALIVJN1486876360,120,S,PG,12-FEB-2017,,
INNCINEMALIV,INNCINEMALIVIU1486876346,240,S,PG,12-FEB-2017,,
INNCINEMALIV,INNCINEMALIVTQ1486876398,240,S,PG,12-FEB-2017,,
INNCINEMALIV,INNCINEMALIVHP1486876402,240,S,PG,12-FEB-2017,,
INNCINEMALIV,INNCINEMALIVDY1486826294,600,S,PG,11-FEB-2017,,
INNCINEMALIV,INNCINEMALIVEV1486826875,360,S,OTHERNETBANKPAYU,11-FEB-2017,,
INNCINEMALIV,INNCINEMALIVSH1486827227,360,S,PG,11-FEB-2017,,
INNCINEMALIV,INNCINEMALIVOX1486827198,480,S,PG,11-FEB-2017,,
INNCINEMALIV,INNCINEMALIVIR1486827294,840,S,PG,11-FEB-2017,,
INNCINEMALIV,INNCINEMALIVXZ1486799174,360,S,OTHERNETBANKPAYU,11-FEB-2017,,
INNCINEMALIV,INNCINEMALIVYV1486799236,240,S,OTHERNETBANKPAYU,11-FEB-2017,,
INNCINEMALIV,INNCINEMALIVNJ1486799550,480,S,PG,11-FEB-2017,,
INNCINEMALIV,INNCINEMALIVHP1486799619,840,S,PG,11-FEB-2017,,
INNCINEMALIV,INNCINEMALIVWY1486799753,120,S,PG,11-FEB-2017,,
INNCINEMALIV,INNCINEMALIVVG1486818063,120,S,OTHERNETBANKPAYU,11-FEB-2017,,
INNCINEMALIV,INNCINEMALIVDM1486818298,480,S,FEDNET,11-FEB-2017,S,11-FEB-2017
INNCINEMALIV,INNCINEMALIVSO1486876812,360,S,PG,12-FEB-2017,,
INNCINEMALIV,INNCINEMALIVYN1486876824,360,S,PG,12-FEB-2017,,
INNCINEMALIV,INNCINEMALIVSC1486877437,240,S,PG,12-FEB-2017,,
INNCINEMALIV,INNCINEMALIVRX1486877530,480,S,OTHERNETBANKPAYU,12-FEB-2017,,
INNCINEMALIV,INNCINEMALIVMW1486877607,480,S,OTHERNETBANKPAYU,12-FEB-2017,,
INNCINEMALIV,INNCINEMALIVBT1486877656,600,S,PG,12-FEB-2017,,
INNCINEMALIV,INNCINEMALIVFC1486877676,480,S,PG,12-FEB-2017,,
INNCINEMALIV,INNCINEMALIVVU1486877697,600,S,OTHERNETBANKPAYU,12-FEB-2017,,
INNCINEMALIV,INNCINEMALIVPN1486827658,120,S,PG,11-FEB-2017,,
INNCINEMALIV,INNCINEMALIVTT1486827814,240,S,PG,11-FEB-2017,,
INNCINEMALIV,INNCINEMALIVJC1486800224,1200,S,PG,11-FEB-2017,,
INNCINEMALIV,INNCINEMALIVDP1486800775,120,S,PG,11-FEB-2017,,
INNCINEMALIV,INNCINEMALIVJJ1486800856,120,S,PG,11-FEB-2017,,
INNCINEMALIV,INNCINEMALIVZE1486800858,480,S,PG,11-FEB-2017,,
INNCINEMALIV,INNCINEMALIVHP1486800848,480,S,OTHERNETBANKPAYU,11-FEB-2017,,
INNCINEMALIV,INNCINEMALIVLO1486800947,360,S,OTHERNETBANKPAYU,11-FEB-2017,,
INNCINEMALIV,INNCINEMALIVRY1486819431,240,S,PG,11-FEB-2017,,
INNCINEMALIV,INNCINEMALIVSB1486819785,240,S,OTHERNETBANKPAYU,11-FEB-2017,,
INNCINEMALIV,INNCINEMALIVCV1486819789,120,S,OTHERNETBANKPAYU,11-FEB-2017,,
INNCINEMALIV,INNCINEMALIVVA1486819967,360,S,PG,11-FEB-2017,,
INNCINEMALIV,INNCINEMALIVXX1486820105,240,S,PG,11-FEB-2017,,
INNCINEMALIV,INNCINEMALIVPT1486820541,240,S,PG,11-FEB-2017,,
INNCINEMALIV,INNCINEMALIVLU1486820522,480,S,PG,11-FEB-2017,,
INNCINEMALIV,INNCINEMALIVGF1486820676,360,S,PG,11-FEB-2017,,
INNCINEMALIV,INNCINEMALIVES1486878125,360,S,PG,12-FEB-2017,,
INNCINEMALIV,INNCINEMALIVUK1486878170,360,S,PG,12-FEB-2017,,
INNCINEMALIV,INNCINEMALIVNZ1486878249,240,S,PG,12-FEB-2017,,
INNCINEMALIV,INNCINEMALIVIP1486878542,720,S,PG,12-FEB-2017,,
INNCINEMALIV,INNCINEMALIVFA1486878572,240,S,PG,12-FEB-2017,,
INNCINEMALIV,INNCINEMALIVAA1486828095,240,S,PG,11-FEB-2017,,
INNCINEMALIV,INNCINEMALIVDS1486828225,600,S,PG,11-FEB-2017,,
INNCINEMALIV,INNCINEMALIVBM1486828399,600,S,OTHERNETBANKPAYU,11-FEB-2017,,
INNCINEMALIV,INNCINEMALIVJJ1486828418,120,S,OTHERNETBANKPAYU,11-FEB-2017,,
INNCINEMALIV,INNCINEMALIVZG1486828596,480,S,FEDNET,11-FEB-2017,S,11-FEB-2017
INNCINEMALIV,INNCINEMALIVSM1486801300,240,S,PG,11-FEB-2017,,
INNCINEMALIV,INNCINEMALIVHF1486801329,240,S,PG,11-FEB-2017,,
INNCINEMALIV,INNCINEMALIVBP1486801520,120,S,PG,11-FEB-2017,,
INNCINEMALIV,INNCINEMALIVHR1486801584,360,S,PG,11-FEB-2017,,
INNCINEMALIV,INNCINEMALIVFB1486801980,240,S,OTHERNETBANKPAYU,11-FEB-2017,,
INNCINEMALIV,INNCINEMALIVHM1486821286,720,S,PG,11-FEB-2017,,
INNCINEMALIV,INNCINEMALIVWR1486821532,240,S,OTHERNETBANKPAYU,11-FEB-2017,,
INNCINEMALIV,INNCINEMALIVNF1486821566,240,S,PG,11-FEB-2017,,
INNCINEMALIV,INNCINEMALIVSP1486796942,120,S,PG,11-FEB-2017,,
INNCINEMALIV,INNCINEMALIVIL1486797272,240,S,OTHERNETBANKPAYU,11-FEB-2017,,
INNCINEMALIV,INNCINEMALIVGF1486789213,360,S,OTHERNETBANKPAYU,11-FEB-2017,,
INNCINEMALIV,INNCINEMALIVJU1486789241,120,S,PG,11-FEB-2017,,
INNCINEMALIV,INNCINEMALIVTQ1486789274,600,S,OTHERNETBANKPAYU,11-FEB-2017,,
INNCINEMALIV,INNCINEMALIVON1486789388,720,S,PG,11-FEB-2017,,
INNCINEMALIV,INNCINEMALIVJE1486797377,120,S,PG,11-FEB-2017,,
INNCINEMALIV,INNCINEMALIVGM1486797558,360,S,PG,11-FEB-2017,,
INNCINEMALIV,INNCINEMALIVYA1486797558,240,S,PG,11-FEB-2017,,
INNCINEMALIV,INNCINEMALIVNL1486797560,240,S,OTHERNETBANKPAYU,11-FEB-2017,,
INNCINEMALIV,INNCINEMALIVBB1486797763,240,S,PG,11-FEB-2017,,
INNCINEMALIV,INNCINEMALIVIE1486797857,120,S,PG,11-FEB-2017,,
INNCINEMALIV,INNCINEMALIVBO1486797853,240,S,OTHERNETBANKPAYU,11-FEB-2017,,
INNCINEMALIV,INNCINEMALIVSL1486797925,360,S,PG,11-FEB-2017,,
INNCINEMALIV,INNCINEMALIVNB1486798028,240,S,PG,11-FEB-2017,,
INNCINEMALIV,INNCINEMALIVJI1486798077,240,S,OTHERNETBANKPAYU,11-FEB-2017,,
INNCINEMALIV,INNCINEMALIVWP1486798093,240,S,PG,11-FEB-2017,,
INNCINEMALIV,INNCINEMALIVXV1486871571,360,S,FEDNET,12-FEB-2017,S,12-FEB-2017
INNCINEMALIV,INNCINEMALIVLZ1486872211,600,S,OTHERNETBANKPAYU,12-FEB-2017,,
INNCINEMALIV,INNCINEMALIVYA1486872269,360,S,PG,12-FEB-2017,,
INNCINEMALIV,INNCINEMALIVOT1486872476,840,S,PG,12-FEB-2017,,
INNCINEMALIV,INNCINEMALIVVX1486872600,480,S,PG,12-FEB-2017,,
INNCINEMALIV,INNCINEMALIVBX1486872657,240,S,PG,12-FEB-2017,,
INNCINEMALIV,INNCINEMALIVJS1486872957,360,S,OTHERNETBANKPAYU,12-FEB-2017,,
INNCINEMALIV,INNCINEMALIVLR1486872970,120,S,PG,12-FEB-2017,,
INNCINEMALIV,INNCINEMALIVSD1486873150,360,S,PG,12-FEB-2017,,
INNCINEMALIV,INNCINEMALIVPV1486873218,1200,S,OTHERNETBANKPAYU,12-FEB-2017,,
INNCINEMALIV,INNCINEMALIVHO1486873375,480,S,PG,12-FEB-2017,,
INNCINEMALIV,INNCINEMALIVMA1486873523,120,S,OTHERNETBANKPAYU,12-FEB-2017,,
INNCINEMALIV,INNCINEMALIVZC1486873866,360,S,OTHERNETBANKPAYU,12-FEB-2017,,
INNCINEMALIV,INNCINEMALIVLI1486874075,480,S,OTHERNETBANKPAYU,12-FEB-2017,,
INNCINEMALIV,INNCINEMALIVJN1486874060,600,S,PG,12-FEB-2017,,
INNCINEMALIV,INNCINEMALIVRS1486874302,240,S,OTHERNETBANKPAYU,12-FEB-2017,,
INNCINEMALIV,INNCINEMALIVOU1486874426,360,S,PG,12-FEB-2017,,
INNCINEMALIV,INNCINEMALIVZT1486802151,240,S,PG,11-FEB-2017,,
INNCINEMALIV,INNCINEMALIVUC1486874605,120,S,OTHERNETBANKPAYU,12-FEB-2017,,
INNCINEMALIV,INNCINEMALIVVE1486874825,120,S,PG,12-FEB-2017,,
INNCINEMALIV,INNCINEMALIVQC1486884194,120,S,OTHERNETBANKPAYU,12-FEB-2017,,
INNCINEMALIV,INNCINEMALIVCT1486875729,480,S,PG,12-FEB-2017,,
INNCINEMALIV,INNCINEMALIVCE1486879123,480,S,PG,12-FEB-2017,,
INNCINEMALIV,INNCINEMALIVEB1486885075,360,S,OTHERNETBANKPAYU,12-FEB-2017,,
INNCINEMALIV,INNCINEMALIVMS1486885105,120,S,OTHERNETBANKPAYU,12-FEB-2017,,
INNCINEMALIV,INNCINEMALIVFR1486885162,1200,S,OTHERNETBANKPAYU,12-FEB-2017,,
INNCINEMALIV,INNCINEMALIVPH1486907221,240,S,PG,12-FEB-2017,,
INNCINEMALIV,INNCINEMALIVXJ1486907441,600,S,PG,12-FEB-2017,,
INNCINEMALIV,INNCINEMALIVEL1486909316,600,S,OTHERNETBANKPAYU,12-FEB-2017,,
INNCINEMALIV,INNCINEMALIVXK1486869705,240,S,PG,12-FEB-2017,,
INNCINEMALIV,INNCINEMALIVPV1486869767,840,S,PG,12-FEB-2017,,
INNCINEMALIV,INNCINEMALIVKX1486869797,240,S,OTHERNETBANKPAYU,12-FEB-2017,,
INNCINEMALIV,INNCINEMALIVQJ1486870524,240,S,PG,12-FEB-2017,,
INNCINEMALIV,INNCINEMALIVPR1486870879,120,S,PG,12-FEB-2017,,
INNCINEMALIV,INNCINEMALIVEU1486870959,120,S,PG,12-FEB-2017,,
INNCINEMALIV,INNCINEMALIVAN1486871059,480,S,PG,12-FEB-2017,,
INNCINEMALIV,INNCINEMALIVVH1486910549,360,S,PG,12-FEB-2017,,
INNCINEMALIV,INNCINEMALIVQG1486910934,600,S,OTHERNETBANKPAYU,12-FEB-2017,,
INNCINEMALIV,INNCINEMALIVMP1486794457,240,S,PG,11-FEB-2017,,
INNCINEMALIV,INNCINEMALIVJL1486794638,240,S,PG,11-FEB-2017,,
INNCINEMALIV,INNCINEMALIVBQ1486794689,240,S,PG,11-FEB-2017,,
INNCINEMALIV,INNCINEMALIVUP1486794761,120,S,FEDNET,11-FEB-2017,S,11-FEB-2017
INNCINEMALIV,INNCINEMALIVXT1486794766,240,S,PG,11-FEB-2017,,
INNCINEMALIV,INNCINEMALIVKQ1486794781,240,S,PG,11-FEB-2017,,
INNCINEMALIV,INNCINEMALIVML1486794769,360,S,PG,11-FEB-2017,,
INNCINEMALIV,INNCINEMALIVOF1486794766,480,S,PG,11-FEB-2017,,
INNCINEMALIV,INNCINEMALIVVZ1486794837,480,S,OTHERNETBANKPAYU,11-FEB-2017,,
INNCINEMALIV,INNCINEMALIVLF1486794990,360,S,PG,11-FEB-2017,,
INNCINEMALIV,INNCINEMALIVNC1486795276,120,S,OTHERNETBANKPAYU,11-FEB-2017,,
INNCINEMALIV,INNCINEMALIVEE1486795392,240,S,PG,11-FEB-2017,,
INNCINEMALIV,INNCINEMALIVCH1486795484,240,S,PG,11-FEB-2017,,
INNCINEMALIV,INNCINEMALIVMW1486795689,240,S,OTHERNETBANKPAYU,11-FEB-2017,,
INNCINEMALIV,INNCINEMALIVCA1486795711,240,S,PG,11-FEB-2017,,
INNCINEMALIV,INNCINEMALIVCY1486795740,840,S,PG,11-FEB-2017,,
INNCINEMALIV,INNCINEMALIVFQ1486796010,360,S,OTHERNETBANKPAYU,11-FEB-2017,,
INNCINEMALIV,INNCINEMALIVKU1486796135,960,S,PG,11-FEB-2017,,
INNCINEMALIV,INNCINEMALIVYI1486796203,480,S,OTHERNETBANKPAYU,11-FEB-2017,,
INNCINEMALIV,INNCINEMALIVGA1486796364,360,S,PG,11-FEB-2017,,
INNCINEMALIV,INNCINEMALIVYT1486796425,360,S,PG,11-FEB-2017,,
INNCINEMALIV,INNCINEMALIVIC1486803558,240,S,PG,11-FEB-2017,,
INNCINEMALIV,INNCINEMALIVMD1486803647,120,S,OTHERNETBANKPAYU,11-FEB-2017,,
INNCINEMALIV,INNCINEMALIVZV1486803706,480,S,PG,11-FEB-2017,,
INNCINEMALIV,INNCINEMALIVSI1486735878,600,S,OTHERNETBANKPAYU,10-FEB-2017,,
INNCINEMALIV,INNCINEMALIVGO1486735917,240,S,PG,10-FEB-2017,,
INNCINEMALIV,INNCINEMALIVJM1486736167,120,S,PG,10-FEB-2017,,
INNCINEMALIV,INNCINEMALIVSJ1486737047,240,S,PG,10-FEB-2017,,
INNCINEMALIV,INNCINEMALIVHL1486737176,480,S,OTHERNETBANKPAYU,10-FEB-2017,,
INNCINEMALIV,INNCINEMALIVCL1486737731,240,S,FEDNET,10-FEB-2017,S,10-FEB-2017
INNCINEMALIV,INNCINEMALIVUP1486738234,240,S,PG,10-FEB-2017,,
INNCINEMALIV,INNCINEMALIVAV1486738788,360,S,PG,10-FEB-2017,,
INNCINEMALIV,INNCINEMALIVGB1486739194,240,S,OTHERNETBANKPAYU,10-FEB-2017,,
INNCINEMALIV,INNCINEMALIVKY1486894727,360,S,PG,12-FEB-2017,,
INNCINEMALIV,INNCINEMALIVYD1486739976,240,S,OTHERNETBANKPAYU,10-FEB-2017,,
INNCINEMALIV,INNCINEMALIVCS1486740264,240,S,PG,10-FEB-2017,,
INNCINEMALIV,INNCINEMALIVNM1486740480,240,S,PG,10-FEB-2017,,
INNCINEMALIV,INNCINEMALIVQL1486897668,480,S,PG,12-FEB-2017,,
INNCINEMALIV,INNCINEMALIVUZ1486775377,240,S,PG,11-FEB-2017,,
INNCINEMALIV,INNCINEMALIVVK1486776916,240,S,PG,11-FEB-2017,,
INNCINEMALIV,INNCINEMALIVGF1486740651,240,S,PG,10-FEB-2017,,
INNCINEMALIV,INNCINEMALIVAP1486740611,240,S,PG,10-FEB-2017,,
INNCINEMALIV,INNCINEMALIVJF1486741517,720,S,FEDNET,10-FEB-2017,S,10-FEB-2017
INNCINEMALIV,INNCINEMALIVTW1486898969,240,S,PG,12-FEB-2017,,
INNCINEMALIV,INNCINEMALIVYR1486790137,120,S,PG,11-FEB-2017,,
INNCINEMALIV,INNCINEMALIVJP1486790183,120,S,PG,11-FEB-2017,,
INNCINEMALIV,INNCINEMALIVPH1486779205,240,S,PG,11-FEB-2017,,
INNCINEMALIV,INNCINEMALIVWE1486779670,120,S,OTHERNETBANKPAYU,11-FEB-2017,,
INNCINEMALIV,INNCINEMALIVPL1486741890,240,S,PG,10-FEB-2017,,
INNCINEMALIV,INNCINEMALIVOR1486742007,240,S,PG,10-FEB-2017,,
INNCINEMALIV,INNCINEMALIVPO1486742254,600,S,PG,10-FEB-2017,,
INNCINEMALIV,INNCINEMALIVCQ1486742551,240,S,PG,10-FEB-2017,,
INNCINEMALIV,INNCINEMALIVMR1486901356,240,S,PG,12-FEB-2017,,
INNCINEMALIV,INNCINEMALIVYA1486902033,120,S,OTHERNETBANKPAYU,12-FEB-2017,,
INNCINEMALIV,INNCINEMALIVRC1486781365,360,S,PG,11-FEB-2017,,
INNCINEMALIV,INNCINEMALIVWJ1486782379,240,S,PG,11-FEB-2017,,
INNCINEMALIV,INNCINEMALIVJR1486782748,1200,S,PG,11-FEB-2017,,
INNCINEMALIV,INNCINEMALIVHV1486743540,240,S,PG,10-FEB-2017,,
INNCINEMALIV,INNCINEMALIVEF1486743578,240,S,PG,10-FEB-2017,,
INNCINEMALIV,INNCINEMALIVOT1486743691,240,S,OTHERNETBANKPAYU,10-FEB-2017,,
INNCINEMALIV,INNCINEMALIVZH1486903022,360,S,PG,12-FEB-2017,,
INNCINEMALIV,INNCINEMALIVUJ1486911118,120,S,OTHERNETBANKPAYU,12-FEB-2017,,
INNCINEMALIV,INNCINEMALIVUS1486911330,120,S,OTHERNETBANKPAYU,12-FEB-2017,,
INNCINEMALIV,INNCINEMALIVVL1486911616,240,S,PG,12-FEB-2017,,
INNCINEMALIV,INNCINEMALIVQU1486912085,240,S,PG,12-FEB-2017,,
INNCINEMALIV,INNCINEMALIVYJ1486782948,360,S,PG,11-FEB-2017,,
INNCINEMALIV,INNCINEMALIVXM1486783921,360,S,PG,11-FEB-2017,,
INNCINEMALIV,INNCINEMALIVQD1486784193,600,S,PG,11-FEB-2017,,
INNCINEMALIV,INNCINEMALIVGD1486784287,240,S,OTHERNETBANKPAYU,11-FEB-2017,,
INNCINEMALIV,INNCINEMALIVER1486784515,360,S,OTHERNETBANKPAYU,11-FEB-2017,,
INNCINEMALIV,INNCINEMALIVKN1486744199,360,S,PG,10-FEB-2017,,
INNCINEMALIV,INNCINEMALIVRM1486744827,120,S,PG,10-FEB-2017,,
INNCINEMALIV,INNCINEMALIVXX1486744874,240,S,OTHERNETBANKPAYU,10-FEB-2017,,
INNCINEMALIV,INNCINEMALIVRJ1486744887,600,S,OTHERNETBANKPAYU,10-FEB-2017,,
INNCINEMALIV,INNCINEMALIVVS1486745193,240,S,OTHERNETBANKPAYU,10-FEB-2017,,
INNCINEMALIV,INNCINEMALIVKI1486745224,240,S,PG,10-FEB-2017,,
INNCINEMALIV,INNCINEMALIVTU1486912633,240,S,PG,12-FEB-2017,,
INNCINEMALIV,INNCINEMALIVEJ1486784775,240,S,OTHERNETBANKPAYU,11-FEB-2017,,
INNCINEMALIV,INNCINEMALIVTH1486745351,240,S,PG,10-FEB-2017,,
INNCINEMALIV,INNCINEMALIVLP1486745543,840,S,PG,10-FEB-2017,,
INNCINEMALIV,INNCINEMALIVML1486745732,480,S,PG,10-FEB-2017,,
INNCINEMALIV,INNCINEMALIVQQ1486745948,600,S,OTHERNETBANKPAYU,10-FEB-2017,,
INNCINEMALIV,INNCINEMALIVGD1486746041,240,S,PG,10-FEB-2017,,
INNCINEMALIV,INNCINEMALIVNT1486746264,360,S,OTHERNETBANKPAYU,10-FEB-2017,,
INNCINEMALIV,INNCINEMALIVGP1486746295,960,S,PG,10-FEB-2017,,
INNCINEMALIV,INNCINEMALIVRP1486746364,360,S,PG,10-FEB-2017,,
INNCINEMALIV,INNCINEMALIVMT1486785742,240,S,PG,11-FEB-2017,,
INNCINEMALIV,INNCINEMALIVHS1486785815,120,S,FEDNET,11-FEB-2017,S,11-FEB-2017
INNCINEMALIV,INNCINEMALIVGL1486785938,600,S,PG,11-FEB-2017,,
INNCINEMALIV,INNCINEMALIVEA1486786332,240,S,PG,11-FEB-2017,,
INNCINEMALIV,INNCINEMALIVRD1486786379,240,S,PG,11-FEB-2017,,
INNCINEMALIV,INNCINEMALIVOL1486786563,480,S,PG,11-FEB-2017,,
INNCINEMALIV,INNCINEMALIVLE1486746888,240,S,PG,10-FEB-2017,,
INNCINEMALIV,INNCINEMALIVFO1486747434,480,S,PG,10-FEB-2017,,
INNCINEMALIV,INNCINEMALIVTK1486747526,240,S,PG,10-FEB-2017,,
INNCINEMALIV,INNCINEMALIVMJ1486747566,360,S,PG,10-FEB-2017,,
INNCINEMALIV,INNCINEMALIVFX1486747885,240,S,OTHERNETBANKPAYU,10-FEB-2017,,
INNCINEMALIV,INNCINEMALIVUT1486786705,240,S,OTHERNETBANKPAYU,11-FEB-2017,,
INNCINEMALIV,INNCINEMALIVGK1486786912,720,S,OTHERNETBANKPAYU,11-FEB-2017,,
INNCINEMALIV,INNCINEMALIVPZ1486787040,600,S,PG,11-FEB-2017,,
INNCINEMALIV,INNCINEMALIVQN1486787075,240,S,OTHERNETBANKPAYU,11-FEB-2017,,
INNCINEMALIV,INNCINEMALIVKL1486787096,360,S,PG,11-FEB-2017,,
INNCINEMALIV,INNCINEMALIVKY1486787231,600,S,PG,11-FEB-2017,,
INNCINEMALIV,INNCINEMALIVQW1486748922,240,S,PG,10-FEB-2017,,
INNCINEMALIV,INNCINEMALIVQU1486749768,240,S,PG,10-FEB-2017,,
INNCINEMALIV,INNCINEMALIVRZ1486916777,1080,S,PG,12-FEB-2017,,
INNCINEMALIV,INNCINEMALIVNQ1486916975,720,S,OTHERNETBANKPAYU,12-FEB-2017,,
INNCINEMALIV,INNCINEMALIVXW1486787450,240,S,PG,11-FEB-2017,,
INNCINEMALIV,INNCINEMALIVFI1486787441,240,S,PG,11-FEB-2017,,
INNCINEMALIV,INNCINEMALIVJV1486787486,120,S,OTHERNETBANKPAYU,11-FEB-2017,,
INNCINEMALIV,INNCINEMALIVSI1486788043,1200,S,PG,11-FEB-2017,,
INNCINEMALIV,INNCINEMALIVCG1486750513,120,S,PG,10-FEB-2017,,
INNCINEMALIV,INNCINEMALIVZP1486789967,240,S,PG,11-FEB-2017,,
INNCINEMALIV,INNCINEMALIVMJ1486790024,360,S,PG,11-FEB-2017,,
INNCINEMALIV,INNCINEMALIVPQ1486790059,120,S,PG,11-FEB-2017,,
INNCINEMALIV,INNCINEMALIVGC1486790226,240,S,PG,11-FEB-2017,,
INNCINEMALIV,INNCINEMALIVRZ1486790357,720,S,PG,11-FEB-2017,,
INNCINEMALIV,INNCINEMALIVIV1486790433,120,S,PG,11-FEB-2017,,
INNCINEMALIV,INNCINEMALIVLG1486918496,360,S,OTHERNETBANKPAYU,12-FEB-2017,,
INNCINEMALIV,INNCINEMALIVFZ1486709808,120,S,PG,10-FEB-2017,,
INNCINEMALIV,INNCINEMALIVGO1486709830,600,S,PG,10-FEB-2017,,
INNCINEMALIV,INNCINEMALIVUV1486709839,1200,S,PG,10-FEB-2017,,
INNCINEMALIV,INNCINEMALIVVR1486788137,360,S,OTHERNETBANKPAYU,11-FEB-2017,,
INNCINEMALIV,INNCINEMALIVVP1486788323,480,S,PG,11-FEB-2017,,
INNCINEMALIV,INNCINEMALIVIO1486788365,360,S,OTHERNETBANKPAYU,11-FEB-2017,,
INNCINEMALIV,INNCINEMALIVMO1486788443,360,S,PG,11-FEB-2017,,
INNCINEMALIV,INNCINEMALIVOX1486788453,240,S,PG,11-FEB-2017,,
INNCINEMALIV,INNCINEMALIVKW1486788653,240,S,OTHERNETBANKPAYU,11-FEB-2017,,
INNCINEMALIV,INNCINEMALIVDT1486788675,360,S,OTHERNETBANKPAYU,11-FEB-2017,,
INNCINEMALIV,INNCINEMALIVVQ1486790641,240,S,PG,11-FEB-2017,,
INNCINEMALIV,INNCINEMALIVLM1486790644,360,S,PG,11-FEB-2017,,
INNCINEMALIV,INNCINEMALIVOG1486790817,360,S,OTHERNETBANKPAYU,11-FEB-2017,,
INNCINEMALIV,INNCINEMALIVZS1486790963,840,S,PG,11-FEB-2017,,
INNCINEMALIV,INNCINEMALIVRL1486789005,1200,S,FEDNET,11-FEB-2017,S,11-FEB-2017
INNCINEMALIV,INNCINEMALIVSS1486789049,360,S,PG,11-FEB-2017,,
INNCINEMALIV,INNCINEMALIVGF1486788920,240,S,PG,11-FEB-2017,,
INNCINEMALIV,INNCINEMALIVJI1486789426,480,S,PG,11-FEB-2017,,
INNCINEMALIV,INNCINEMALIVJN1486789438,240,S,PG,11-FEB-2017,,
INNCINEMALIV,INNCINEMALIVFS1486789526,480,S,PG,11-FEB-2017,,
INNCINEMALIV,INNCINEMALIVWE1486789642,120,S,OTHERNETBANKPAYU,11-FEB-2017,,
INNCINEMALIV,INNCINEMALIVSF1486791455,120,S,PG,11-FEB-2017,,
INNCINEMALIV,INNCINEMALIVJW1486791734,240,S,PG,11-FEB-2017,,
INNCINEMALIV,INNCINEMALIVQT1486791729,480,S,OTHERNETBANKPAYU,11-FEB-2017,,
INNCINEMALIV,INNCINEMALIVVM1486791935,120,S,PG,11-FEB-2017,,
INNCINEMALIV,INNCINEMALIVCZ1486885554,480,S,OTHERNETBANKPAYU,12-FEB-2017,,
INNCINEMALIV,INNCINEMALIVSI1486885668,240,S,PG,12-FEB-2017,,
INNCINEMALIV,INNCINEMALIVRY1486885683,240,S,PG,12-FEB-2017,,
INNCINEMALIV,INNCINEMALIVLI1486885697,240,S,PG,12-FEB-2017,,
INNCINEMALIV,INNCINEMALIVYR1486885769,240,S,PG,12-FEB-2017,,
INNCINEMALIV,INNCINEMALIVVS1486885991,1200,S,OTHERNETBANKPAYU,12-FEB-2017,,
INNCINEMALIV,INNCINEMALIVCE1486886432,1200,S,PG,12-FEB-2017,,
INNCINEMALIV,INNCINEMALIVIN1486886479,960,S,PG,12-FEB-2017,,
INNCINEMALIV,INNCINEMALIVHI1486886548,360,S,OTHERNETBANKPAYU,12-FEB-2017,,
INNCINEMALIV,INNCINEMALIVHG1486920276,360,S,PG,12-FEB-2017,,
INNCINEMALIV,INNCINEMALIVAW1486921421,480,S,PG,12-FEB-2017,,
INNCINEMALIV,INNCINEMALIVBW1486733075,360,S,PG,10-FEB-2017,,
INNCINEMALIV,INNCINEMALIVCC1486734060,960,S,OTHERNETBANKPAYU,10-FEB-2017,,
INNCINEMALIV,INNCINEMALIVKK1486734118,600,S,PG,10-FEB-2017,,
INNCINEMALIV,INNCINEMALIVEK1486734240,240,S,PG,10-FEB-2017,,
INNCINEMALIV,INNCINEMALIVDS1486886942,360,S,PG,12-FEB-2017,,
INNCINEMALIV,INNCINEMALIVPB1486887341,360,S,PG,12-FEB-2017,,
INNCINEMALIV,INNCINEMALIVVJ1486887635,120,S,OTHERNETBANKPAYU,12-FEB-2017,,
INNCINEMALIV,INNCINEMALIVHS1486887684,360,S,OTHERNETBANKPAYU,12-FEB-2017,,
INNCINEMALIV,INNCINEMALIVYK1486887812,360,S,PG,12-FEB-2017,,
INNCINEMALIV,INNCINEMALIVUV1486887944,240,S,PG,12-FEB-2017,,
INNCINEMALIV,INNCINEMALIVKQ1486888262,960,S,OTHERNETBANKPAYU,12-FEB-2017,,
INNCINEMALIV,INNCINEMALIVDT1486888429,1200,S,PG,12-FEB-2017,,
INNCINEMALIV,INNCINEMALIVXO1486923702,360,S,PG,12-FEB-2017,,
INNCINEMALIV,INNCINEMALIVYF1486735424,240,S,PG,10-FEB-2017,,
INNCINEMALIV,INNCINEMALIVBP1486735622,720,S,OTHERNETBANKPAYU,10-FEB-2017,,
INNCINEMALIV,INNCINEMALIVBH1486889101,240,S,PG,12-FEB-2017,,
INNCINEMALIV,INNCINEMALIVZR1486889134,720,S,OTHERNETBANKPAYU,12-FEB-2017,,
