USERCODE,TRAN_ID,AMOUNT,TRAN_STATUS,PAY_MODE,TRAN_DATE,SETTLEMENT_STATUS,SETTLEMENT_DT
INNCINEMALIV,INNCINEMALIVVT1487228271,600,S,OTHERNETBANKPAYU,16-FEB-2017,,
INNCINEMALIV,INNCINEMALIVRO1487350435,240,S,PG,17-FEB-2017,,
INNCINEMALIV,INNCINEMALIVWM1487350559,360,S,OTHERNETBANKPAYU,17-FEB-2017,,
INNCINEMALIV,INNCINEMALIVQQ1486978903,120,S,OTHERNETBANKPAYU,13-FEB-2017,S,17-FEB-2017
INNCINEMALIV,INNCINEMALIVEH1486979396,120,S,PG,13-FEB-2017,S,17-FEB-2017
INNCINEMALIV,INNCINEMALIVTC1487217869,480,S,PG,16-FEB-2017,,
INNCINEMALIV,INNCINEMALIVTV1487237304,240,S,OTHERNETBANKPAYU,16-FEB-2017,,
INNCINEMALIV,INNCINEMALIVOU1487257193,240,S,PG,16-FEB-2017,,
INNCINEMALIV,INNCINEMALIVWE1487238624,240,S,OTHERNETBANKPAYU,16-FEB-2017,,
INNCINEMALIV,INNCINEMALIVLM1486987119,480,S,PG,13-FEB-2017,S,17-FEB-2017
INNCINEMALIV,INNCINEMALIVJT1487221784,240,S,PG,16-FEB-2017,,
INNCINEMALIV,INNCINEMALIVZE1487312122,360,S,PG,17-FEB-2017,,
INNCINEMALIV,INNCINEMALIVUJ1486880685,360,S,OTHERNETBANKPAYU,12-FEB-2017,S,16-FEB-2017
INNCINEMALIV,INNCINEMALIVOO1486880700,480,S,FEDNET,12-FEB-2017,S,12-FEB-2017
INNCINEMALIV,INNCINEMALIVLG1486880993,120,S,OTHERNETBANKPAYU,12-FEB-2017,S,16-FEB-2017
INNCINEMALIV,INNCINEMALIVRZ1486881053,840,S,OTHERNETBANKPAYU,12-FEB-2017,S,16-FEB-2017
INNCINEMALIV,INNCINEMALIVRW1486983735,480,S,OTHERNETBANKPAYU,13-FEB-2017,S,17-FEB-2017
INNCINEMALIV,INNCINEMALIVFA1486881238,480,S,OTHERNETBANKPAYU,12-FEB-2017,S,16-FEB-2017
INNCINEMALIV,INNCINEMALIVDO1486881429,240,S,OTHERNETBANKPAYU,12-FEB-2017,S,16-FEB-2017
INNCINEMALIV,INNCINEMALIVSI1486881629,240,S,OTHERNETBANKPAYU,12-FEB-2017,S,16-FEB-2017
INNCINEMALIV,INNCINEMALIVCW1486881796,360,S,OTHERNETBANKPAYU,12-FEB-2017,S,16-FEB-2017
INNCINEMALIV,INNCINEMALIVSZ1486881962,240,S,OTHERNETBANKPAYU,12-FEB-2017,S,16-FEB-2017
INNCINEMALIV,INNCINEMALIVAH1486882034,240,S,OTHERNETBANKPAYU,12-FEB-2017,S,16-FEB-2017
INNCINEMALIV,INNCINEMALIVAW1486882157,240,S,OTHERNETBANKPAYU,12-FEB-2017,S,16-FEB-2017
INNCINEMALIV,INNCINEMALIVEF1486882483,240,S,OTHERNETBANKPAYU,12-FEB-2017,S,16-FEB-2017
INNCINEMALIV,INNCINEMALIVCT1487314752,240,S,OTHERNETBANKPAYU,17-FEB-2017,,
INNCINEMALIV,INNCINEMALIVOW1487325063,360,S,OTHERNETBANKPAYU,17-FEB-2017,,
INNCINEMALIV,INNCINEMALIVSQ1487314929,480,S,PG,17-FEB-2017,,
INNCINEMALIV,INNCINEMALIVUH1487315137,360,S,OTHERNETBANKPAYU,17-FEB-2017,,
INNCINEMALIV,INNCINEMALIVFR1487227833,240,S,OTHERNETBANKPAYU,16-FEB-2017,,
INNCINEMALIV,INNCINEMALIVLB1487316364,840,S,FEDNET,17-FEB-2017,S,17-FEB-2017
INNCINEMALIV,INNCINEMALIVGC1486865128,240,S,PG,12-FEB-2017,S,16-FEB-2017
INNCINEMALIV,INNCINEMALIVGA1486865558,360,S,OTHERNETBANKPAYU,12-FEB-2017,S,16-FEB-2017
INNCINEMALIV,INNCINEMALIVDR1486866995,120,S,OTHERNETBANKPAYU,12-FEB-2017,S,16-FEB-2017
INNCINEMALIV,INNCINEMALIVWP1486867535,240,S,PG,12-FEB-2017,S,16-FEB-2017
INNCINEMALIV,INNCINEMALIVSC1486867734,240,S,PG,12-FEB-2017,S,16-FEB-2017
INNCINEMALIV,INNCINEMALIVRK1487228109,240,S,PG,16-FEB-2017,,
INNCINEMALIV,INNCINEMALIVJI1487328546,240,S,PG,17-FEB-2017,,
INNCINEMALIV,INNCINEMALIVEI1487229087,720,S,PG,16-FEB-2017,,
INNCINEMALIV,INNCINEMALIVWI1487248350,240,S,PG,16-FEB-2017,,
INNCINEMALIV,INNCINEMALIVUS1487349774,840,S,PG,17-FEB-2017,,
INNCINEMALIV,INNCINEMALIVNZ1487059316,240,S,PG,14-FEB-2017,,
INNCINEMALIV,INNCINEMALIVEZ1486990947,120,S,PG,13-FEB-2017,S,17-FEB-2017
INNCINEMALIV,INNCINEMALIVPY1487077563,360,S,OTHERNETBANKPAYU,14-FEB-2017,,
INNCINEMALIV,INNCINEMALIVFF1486957293,480,S,PG,13-FEB-2017,S,17-FEB-2017
INNCINEMALIV,INNCINEMALIVXV1486957986,480,S,PG,13-FEB-2017,S,17-FEB-2017
INNCINEMALIV,INNCINEMALIVLM1487089979,480,S,OTHERNETBANKPAYU,14-FEB-2017,,
INNCINEMALIV,INNCINEMALIVEH1487095549,240,S,PG,14-FEB-2017,,
INNCINEMALIV,INNCINEMALIVYV1487098175,120,S,PG,15-FEB-2017,,
INNCINEMALIV,INNCINEMALIVZL1486879816,240,S,PG,12-FEB-2017,S,16-FEB-2017
INNCINEMALIV,INNCINEMALIVNJ1486879998,240,S,OTHERNETBANKPAYU,12-FEB-2017,S,16-FEB-2017
INNCINEMALIV,INNCINEMALIVEP1486879958,600,S,PG,12-FEB-2017,S,16-FEB-2017
INNCINEMALIV,INNCINEMALIVUO1486880368,480,S,PG,12-FEB-2017,S,16-FEB-2017
INNCINEMALIV,INNCINEMALIVUV1486880385,240,S,FEDNET,12-FEB-2017,S,12-FEB-2017
INNCINEMALIV,INNCINEMALIVFP1487079070,240,S,PG,14-FEB-2017,,
INNCINEMALIV,INNCINEMALIVKS1486968016,1200,S,FEDNET,13-FEB-2017,S,13-FEB-2017
INNCINEMALIV,INNCINEMALIVHB1487067608,240,S,OTHERNETBANKPAYU,14-FEB-2017,,
INNCINEMALIV,INNCINEMALIVLQ1486988694,600,S,OTHERNETBANKPAYU,13-FEB-2017,S,17-FEB-2017
INNCINEMALIV,INNCINEMALIVHQ1486988893,1200,S,PG,13-FEB-2017,S,17-FEB-2017
INNCINEMALIV,INNCINEMALIVQF1486989448,240,S,PG,13-FEB-2017,S,17-FEB-2017
INNCINEMALIV,INNCINEMALIVVJ1487247780,600,S,OTHERNETBANKPAYU,16-FEB-2017,,
INNCINEMALIV,INNCINEMALIVFQ1486959382,240,S,PG,13-FEB-2017,S,17-FEB-2017
INNCINEMALIV,INNCINEMALIVDE1487137203,240,S,OTHERNETBANKPAYU,15-FEB-2017,,
INNCINEMALIV,INNCINEMALIVNL1486990825,480,S,OTHERNETBANKPAYU,13-FEB-2017,S,17-FEB-2017
INNCINEMALIV,INNCINEMALIVCC1487080324,480,S,PG,14-FEB-2017,,
INNCINEMALIV,INNCINEMALIVVU1487080913,240,S,OTHERNETBANKPAYU,14-FEB-2017,,
INNCINEMALIV,INNCINEMALIVZN1486969187,360,S,PG,13-FEB-2017,S,17-FEB-2017
INNCINEMALIV,INNCINEMALIVVQ1487087107,240,S,OTHERNETBANKPAYU,14-FEB-2017,,
INNCINEMALIV,INNCINEMALIVCC1487093259,600,S,PG,14-FEB-2017,,
INNCINEMALIV,INNCINEMALIVZH1487137787,840,S,PG,15-FEB-2017,,
INNCINEMALIV,INNCINEMALIVLO1486991445,1200,S,PG,13-FEB-2017,S,17-FEB-2017
INNCINEMALIV,INNCINEMALIVHA1486991930,240,S,PG,13-FEB-2017,S,17-FEB-2017
INNCINEMALIV,INNCINEMALIVUL1486969323,360,S,PG,13-FEB-2017,S,17-FEB-2017
INNCINEMALIV,INNCINEMALIVJE1487088910,240,S,OTHERNETBANKPAYU,14-FEB-2017,,
INNCINEMALIV,INNCINEMALIVGJ1486960302,240,S,PG,13-FEB-2017,S,17-FEB-2017
INNCINEMALIV,INNCINEMALIVHB1487138617,240,S,PG,15-FEB-2017,,
INNCINEMALIV,INNCINEMALIVII1486992292,480,S,PG,13-FEB-2017,S,17-FEB-2017
INNCINEMALIV,INNCINEMALIVYA1486992408,600,S,PG,13-FEB-2017,S,17-FEB-2017
INNCINEMALIV,INNCINEMALIVQU1487143301,720,S,OTHERNETBANKPAYU,15-FEB-2017,,
INNCINEMALIV,INNCINEMALIVWX1486970034,360,S,OTHERNETBANKPAYU,13-FEB-2017,S,17-FEB-2017
INNCINEMALIV,INNCINEMALIVJO1486970258,720,S,PG,13-FEB-2017,S,17-FEB-2017
INNCINEMALIV,INNCINEMALIVXX1486970249,240,S,PG,13-FEB-2017,S,17-FEB-2017
INNCINEMALIV,INNCINEMALIVBH1487052682,240,S,PG,14-FEB-2017,,
INNCINEMALIV,INNCINEMALIVKE1486961567,480,S,PG,13-FEB-2017,S,17-FEB-2017
INNCINEMALIV,INNCINEMALIVJN1487068270,240,S,PG,14-FEB-2017,,
INNCINEMALIV,INNCINEMALIVOK1487053819,360,S,PG,14-FEB-2017,,
INNCINEMALIV,INNCINEMALIVTH1487060424,240,S,PG,14-FEB-2017,,
INNCINEMALIV,INNCINEMALIVJL1487060739,240,S,OTHERNETBANKPAYU,14-FEB-2017,,
INNCINEMALIV,INNCINEMALIVXQ1487060826,360,S,OTHERNETBANKPAYU,14-FEB-2017,,
INNCINEMALIV,INNCINEMALIVEB1487139753,480,S,PG,15-FEB-2017,,
INNCINEMALIV,INNCINEMALIVMS1487069376,240,S,PG,14-FEB-2017,,
INNCINEMALIV,INNCINEMALIVMI1487084712,240,S,OTHERNETBANKPAYU,14-FEB-2017,,
INNCINEMALIV,INNCINEMALIVQE1487061143,600,S,PG,14-FEB-2017,,
INNCINEMALIV,INNCINEMALIVJP1487069626,360,S,PG,14-FEB-2017,,
INNCINEMALIV,INNCINEMALIVKG1487069629,480,S,PG,14-FEB-2017,,
INNCINEMALIV,INNCINEMALIVKN1487069688,600,S,PG,14-FEB-2017,,
INNCINEMALIV,INNCINEMALIVJN1486963052,480,S,OTHERNETBANKPAYU,13-FEB-2017,S,17-FEB-2017
INNCINEMALIV,INNCINEMALIVXL1487061745,600,S,PG,14-FEB-2017,,
INNCINEMALIV,INNCINEMALIVVS1487061844,240,S,OTHERNETBANKPAYU,14-FEB-2017,,
INNCINEMALIV,INNCINEMALIVOO1487232546,480,S,PG,16-FEB-2017,,
INNCINEMALIV,INNCINEMALIVMJ1487232824,360,S,PG,16-FEB-2017,,
INNCINEMALIV,INNCINEMALIVWB1487070952,240,S,PG,14-FEB-2017,,
INNCINEMALIV,INNCINEMALIVWN1486953788,480,S,OTHERNETBANKPAYU,13-FEB-2017,S,17-FEB-2017
INNCINEMALIV,INNCINEMALIVWC1487054364,480,S,OTHERNETBANKPAYU,14-FEB-2017,,
INNCINEMALIV,INNCINEMALIVIG1487054385,360,S,PG,14-FEB-2017,,
INNCINEMALIV,INNCINEMALIVJB1487054575,240,S,PG,14-FEB-2017,,
INNCINEMALIV,INNCINEMALIVTB1487062690,240,S,PG,14-FEB-2017,,
INNCINEMALIV,INNCINEMALIVVV1487063114,600,S,PG,14-FEB-2017,,
INNCINEMALIV,INNCINEMALIVIZ1487141400,720,S,PG,15-FEB-2017,,
INNCINEMALIV,INNCINEMALIVFD1487071688,360,S,PG,14-FEB-2017,,
INNCINEMALIV,INNCINEMALIVHB1487218339,480,S,OTHERNETBANKPAYU,16-FEB-2017,,
INNCINEMALIV,INNCINEMALIVVQ1486954795,480,S,PG,13-FEB-2017,S,17-FEB-2017
INNCINEMALIV,INNCINEMALIVXH1487055265,240,S,PG,14-FEB-2017,,
INNCINEMALIV,INNCINEMALIVKT1487063881,480,S,FEDNET,14-FEB-2017,S,14-FEB-2017
INNCINEMALIV,INNCINEMALIVOL1486863258,240,S,PG,12-FEB-2017,S,16-FEB-2017
INNCINEMALIV,INNCINEMALIVJZ1487321930,120,S,OTHERNETBANKPAYU,17-FEB-2017,,
INNCINEMALIV,INNCINEMALIVZD1487219176,600,S,OTHERNETBANKPAYU,16-FEB-2017,,
INNCINEMALIV,INNCINEMALIVYM1487219244,120,S,OTHERNETBANKPAYU,16-FEB-2017,,
INNCINEMALIV,INNCINEMALIVLF1487055655,480,S,OTHERNETBANKPAYU,14-FEB-2017,,
INNCINEMALIV,INNCINEMALIVOZ1487064097,840,S,OTHERNETBANKPAYU,14-FEB-2017,,
INNCINEMALIV,INNCINEMALIVJI1487125371,480,S,PG,15-FEB-2017,,
INNCINEMALIV,INNCINEMALIVOP1487073524,600,S,PG,14-FEB-2017,,
INNCINEMALIV,INNCINEMALIVHJ1487056180,120,S,PG,14-FEB-2017,,
INNCINEMALIV,INNCINEMALIVHS1487064787,240,S,PG,14-FEB-2017,,
INNCINEMALIV,INNCINEMALIVPR1487064853,240,S,OTHERNETBANKPAYU,14-FEB-2017,,
INNCINEMALIV,INNCINEMALIVZY1486875655,240,S,OTHERNETBANKPAYU,12-FEB-2017,S,16-FEB-2017
INNCINEMALIV,INNCINEMALIVSK1486875706,480,S,OTHERNETBANKPAYU,12-FEB-2017,S,16-FEB-2017
INNCINEMALIV,INNCINEMALIVIC1486876081,240,S,PG,12-FEB-2017,S,16-FEB-2017
INNCINEMALIV,INNCINEMALIVAT1486876186,240,S,OTHERNETBANKPAYU,12-FEB-2017,S,16-FEB-2017
INNCINEMALIV,INNCINEMALIVJN1486876360,120,S,PG,12-FEB-2017,S,16-FEB-2017
INNCINEMALIV,INNCINEMALIVIU1486876346,240,S,PG,12-FEB-2017,S,16-FEB-2017
INNCINEMALIV,INNCINEMALIVTQ1486876398,240,S,PG,12-FEB-2017,S,16-FEB-2017
INNCINEMALIV,INNCINEMALIVHP1486876402,240,S,PG,12-FEB-2017,S,16-FEB-2017
INNCINEMALIV,INNCINEMALIVCE1487074471,120,S,FEDNET,14-FEB-2017,S,14-FEB-2017
INNCINEMALIV,INNCINEMALIVCE1487242564,240,S,PG,16-FEB-2017,,
INNCINEMALIV,INNCINEMALIVII1487323421,600,S,OTHERNETBANKPAYU,17-FEB-2017,,
INNCINEMALIV,INNCINEMALIVKT1487065695,360,S,PG,14-FEB-2017,,
INNCINEMALIV,INNCINEMALIVSO1486876812,360,S,PG,12-FEB-2017,S,16-FEB-2017
INNCINEMALIV,INNCINEMALIVYN1486876824,360,S,PG,12-FEB-2017,S,16-FEB-2017
INNCINEMALIV,INNCINEMALIVSC1486877437,240,S,PG,12-FEB-2017,S,16-FEB-2017
INNCINEMALIV,INNCINEMALIVRX1486877530,480,S,OTHERNETBANKPAYU,12-FEB-2017,S,16-FEB-2017
INNCINEMALIV,INNCINEMALIVMW1486877607,480,S,OTHERNETBANKPAYU,12-FEB-2017,S,16-FEB-2017
INNCINEMALIV,INNCINEMALIVBT1486877656,600,S,PG,12-FEB-2017,S,16-FEB-2017
INNCINEMALIV,INNCINEMALIVFC1486877676,480,S,PG,12-FEB-2017,S,16-FEB-2017
INNCINEMALIV,INNCINEMALIVVU1486877697,600,S,OTHERNETBANKPAYU,12-FEB-2017,S,16-FEB-2017
INNCINEMALIV,INNCINEMALIVQE1487239931,720,S,PG,16-FEB-2017,,
INNCINEMALIV,INNCINEMALIVFO1487240427,480,S,PG,16-FEB-2017,,
INNCINEMALIV,INNCINEMALIVUH1487129040,360,S,PG,15-FEB-2017,,
INNCINEMALIV,INNCINEMALIVJY1487129091,120,S,OTHERNETBANKPAYU,15-FEB-2017,,
INNCINEMALIV,INNCINEMALIVWH1487075246,360,S,PG,14-FEB-2017,,
INNCINEMALIV,INNCINEMALIVVZ1487075545,240,S,PG,14-FEB-2017,,
INNCINEMALIV,INNCINEMALIVEA1487243691,480,S,FEDNET,16-FEB-2017,S,16-FEB-2017
INNCINEMALIV,INNCINEMALIVWO1487058026,240,S,PG,14-FEB-2017,,
INNCINEMALIV,INNCINEMALIVES1486878125,360,S,PG,12-FEB-2017,S,16-FEB-2017
INNCINEMALIV,INNCINEMALIVUK1486878170,360,S,PG,12-FEB-2017,S,16-FEB-2017
INNCINEMALIV,INNCINEMALIVIP1486878542,720,S,PG,12-FEB-2017,S,16-FEB-2017
INNCINEMALIV,INNCINEMALIVFA1486878572,240,S,PG,12-FEB-2017,S,16-FEB-2017
INNCINEMALIV,INNCINEMALIVWV1487076972,1200,S,PG,14-FEB-2017,,
INNCINEMALIV,INNCINEMALIVSW1487077182,240,S,PG,14-FEB-2017,,
INNCINEMALIV,INNCINEMALIVYL1486966943,240,S,PG,13-FEB-2017,S,17-FEB-2017
INNCINEMALIV,INNCINEMALIVOQ1487348566,1200,S,PG,17-FEB-2017,,
INNCINEMALIV,INNCINEMALIVYV1486970733,240,S,OTHERNETBANKPAYU,13-FEB-2017,S,17-FEB-2017
INNCINEMALIV,INNCINEMALIVYJ1487146372,240,S,PG,15-FEB-2017,,
INNCINEMALIV,INNCINEMALIVJE1487133851,360,S,PG,15-FEB-2017,,
INNCINEMALIV,INNCINEMALIVOF1486980615,360,S,PG,13-FEB-2017,S,17-FEB-2017
INNCINEMALIV,INNCINEMALIVDF1486980916,840,S,OTHERNETBANKPAYU,13-FEB-2017,S,17-FEB-2017
INNCINEMALIV,INNCINEMALIVSJ1486971357,240,S,OTHERNETBANKPAYU,13-FEB-2017,S,17-FEB-2017
INNCINEMALIV,INNCINEMALIVNC1487134100,240,S,PG,15-FEB-2017,,
INNCINEMALIV,INNCINEMALIVPO1487134202,240,S,PG,15-FEB-2017,,
INNCINEMALIV,INNCINEMALIVGU1487134444,480,S,PG,15-FEB-2017,,
INNCINEMALIV,INNCINEMALIVCH1487134599,360,S,OTHERNETBANKPAYU,15-FEB-2017,,
INNCINEMALIV,INNCINEMALIVRK1487089106,360,S,OTHERNETBANKPAYU,14-FEB-2017,,
INNCINEMALIV,INNCINEMALIVVS1486981040,360,S,FEDNET,13-FEB-2017,S,13-FEB-2017
INNCINEMALIV,INNCINEMALIVDD1486981961,240,S,PG,13-FEB-2017,S,17-FEB-2017
INNCINEMALIV,INNCINEMALIVTJ1486972031,480,S,OTHERNETBANKPAYU,13-FEB-2017,S,17-FEB-2017
INNCINEMALIV,INNCINEMALIVKM1486972120,360,S,PG,13-FEB-2017,S,17-FEB-2017
INNCINEMALIV,INNCINEMALIVJM1486992772,480,S,FEDNET,13-FEB-2017,S,13-FEB-2017
INNCINEMALIV,INNCINEMALIVPO1486992880,240,S,OTHERNETBANKPAYU,13-FEB-2017,S,17-FEB-2017
INNCINEMALIV,INNCINEMALIVRU1486993145,480,S,PG,13-FEB-2017,S,17-FEB-2017
INNCINEMALIV,INNCINEMALIVXV1486871571,360,S,FEDNET,12-FEB-2017,S,12-FEB-2017
INNCINEMALIV,INNCINEMALIVLZ1486872211,600,S,OTHERNETBANKPAYU,12-FEB-2017,S,16-FEB-2017
INNCINEMALIV,INNCINEMALIVYA1486872269,360,S,PG,12-FEB-2017,S,16-FEB-2017
INNCINEMALIV,INNCINEMALIVOT1486872476,840,S,PG,12-FEB-2017,S,16-FEB-2017
INNCINEMALIV,INNCINEMALIVBX1486872657,240,S,PG,12-FEB-2017,S,16-FEB-2017
INNCINEMALIV,INNCINEMALIVPV1486982525,960,S,PG,13-FEB-2017,S,17-FEB-2017
INNCINEMALIV,INNCINEMALIVFP1487242286,240,S,OTHERNETBANKPAYU,16-FEB-2017,,
INNCINEMALIV,INNCINEMALIVHN1486993270,240,S,OTHERNETBANKPAYU,13-FEB-2017,S,17-FEB-2017
INNCINEMALIV,INNCINEMALIVJS1486872957,360,S,OTHERNETBANKPAYU,12-FEB-2017,S,16-FEB-2017
INNCINEMALIV,INNCINEMALIVLR1486872970,120,S,PG,12-FEB-2017,S,16-FEB-2017
INNCINEMALIV,INNCINEMALIVSD1486873150,360,S,PG,12-FEB-2017,S,16-FEB-2017
INNCINEMALIV,INNCINEMALIVPV1486873218,1200,S,OTHERNETBANKPAYU,12-FEB-2017,S,16-FEB-2017
INNCINEMALIV,INNCINEMALIVHO1486873375,480,S,PG,12-FEB-2017,S,16-FEB-2017
INNCINEMALIV,INNCINEMALIVMA1486873523,120,S,OTHERNETBANKPAYU,12-FEB-2017,S,16-FEB-2017
INNCINEMALIV,INNCINEMALIVZC1486873866,360,S,OTHERNETBANKPAYU,12-FEB-2017,S,16-FEB-2017
INNCINEMALIV,INNCINEMALIVLI1486874075,480,S,OTHERNETBANKPAYU,12-FEB-2017,S,16-FEB-2017
INNCINEMALIV,INNCINEMALIVJN1486874060,600,S,PG,12-FEB-2017,S,16-FEB-2017
INNCINEMALIV,INNCINEMALIVRS1486874302,240,S,OTHERNETBANKPAYU,12-FEB-2017,S,16-FEB-2017
INNCINEMALIV,INNCINEMALIVOU1486874426,360,S,PG,12-FEB-2017,S,16-FEB-2017
INNCINEMALIV,INNCINEMALIVVD1487147303,240,S,PG,15-FEB-2017,,
INNCINEMALIV,INNCINEMALIVAY1486983190,480,S,OTHERNETBANKPAYU,13-FEB-2017,S,17-FEB-2017
INNCINEMALIV,INNCINEMALIVVU1486983305,480,S,PG,13-FEB-2017,S,17-FEB-2017
INNCINEMALIV,INNCINEMALIVHO1486983338,240,S,PG,13-FEB-2017,S,17-FEB-2017
INNCINEMALIV,INNCINEMALIVFW1486983366,480,S,PG,13-FEB-2017,S,17-FEB-2017
INNCINEMALIV,INNCINEMALIVUY1486983517,480,S,PG,13-FEB-2017,S,17-FEB-2017
INNCINEMALIV,INNCINEMALIVVL1486983553,240,S,PG,13-FEB-2017,S,17-FEB-2017
INNCINEMALIV,INNCINEMALIVII1487137509,240,S,PG,15-FEB-2017,,
INNCINEMALIV,INNCINEMALIVUC1486874605,120,S,OTHERNETBANKPAYU,12-FEB-2017,S,16-FEB-2017
INNCINEMALIV,INNCINEMALIVVE1486874825,120,S,PG,12-FEB-2017,S,16-FEB-2017
INNCINEMALIV,INNCINEMALIVJT1486933717,240,S,PG,13-FEB-2017,S,17-FEB-2017
INNCINEMALIV,INNCINEMALIVQC1486884194,120,S,OTHERNETBANKPAYU,12-FEB-2017,S,16-FEB-2017
INNCINEMALIV,INNCINEMALIVEG1487319520,480,S,OTHERNETBANKPAYU,17-FEB-2017,,
INNCINEMALIV,INNCINEMALIVQM1487319665,360,S,FEDNET,17-FEB-2017,S,17-FEB-2017
INNCINEMALIV,INNCINEMALIVDU1486994984,240,S,PG,13-FEB-2017,S,17-FEB-2017
INNCINEMALIV,INNCINEMALIVCT1486875729,480,S,PG,12-FEB-2017,S,16-FEB-2017
INNCINEMALIV,INNCINEMALIVTK1486984935,600,S,OTHERNETBANKPAYU,13-FEB-2017,S,17-FEB-2017
INNCINEMALIV,INNCINEMALIVCE1486879123,480,S,PG,12-FEB-2017,S,16-FEB-2017
INNCINEMALIV,INNCINEMALIVEB1486885075,360,S,OTHERNETBANKPAYU,12-FEB-2017,S,16-FEB-2017
INNCINEMALIV,INNCINEMALIVMS1486885105,120,S,OTHERNETBANKPAYU,12-FEB-2017,S,16-FEB-2017
INNCINEMALIV,INNCINEMALIVFR1486885162,1200,S,OTHERNETBANKPAYU,12-FEB-2017,S,16-FEB-2017
INNCINEMALIV,INNCINEMALIVWH1486964721,960,S,FEDNET,13-FEB-2017,S,13-FEB-2017
INNCINEMALIV,INNCINEMALIVKH1486995758,240,S,OTHERNETBANKPAYU,13-FEB-2017,S,17-FEB-2017
INNCINEMALIV,INNCINEMALIVBT1487149456,120,S,PG,15-FEB-2017,,
INNCINEMALIV,INNCINEMALIVCF1486969134,480,S,FEDNET,13-FEB-2017,S,13-FEB-2017
INNCINEMALIV,INNCINEMALIVAL1486985144,240,S,PG,13-FEB-2017,S,17-FEB-2017
INNCINEMALIV,INNCINEMALIVPM1486985210,360,S,FEDNET,13-FEB-2017,S,13-FEB-2017
INNCINEMALIV,INNCINEMALIVQE1486985556,360,S,PG,13-FEB-2017,S,17-FEB-2017
INNCINEMALIV,INNCINEMALIVBW1486985612,360,S,OTHERNETBANKPAYU,13-FEB-2017,S,17-FEB-2017
INNCINEMALIV,INNCINEMALIVZY1486985665,600,S,PG,13-FEB-2017,S,17-FEB-2017
INNCINEMALIV,INNCINEMALIVUS1487339354,240,S,PG,17-FEB-2017,,
INNCINEMALIV,INNCINEMALIVHB1487000326,120,S,PG,13-FEB-2017,S,17-FEB-2017
INNCINEMALIV,INNCINEMALIVYC1487000764,480,S,OTHERNETBANKPAYU,13-FEB-2017,S,17-FEB-2017
INNCINEMALIV,INNCINEMALIVMS1486986737,480,S,PG,13-FEB-2017,S,17-FEB-2017
INNCINEMALIV,INNCINEMALIVPH1486907221,240,S,PG,12-FEB-2017,S,16-FEB-2017
INNCINEMALIV,INNCINEMALIVXJ1486907441,600,S,PG,12-FEB-2017,S,16-FEB-2017
INNCINEMALIV,INNCINEMALIVUQ1486972419,240,S,PG,13-FEB-2017,S,17-FEB-2017
INNCINEMALIV,INNCINEMALIVFM1486972479,240,S,PG,13-FEB-2017,S,17-FEB-2017
INNCINEMALIV,INNCINEMALIVJN1486998189,720,S,PG,13-FEB-2017,S,17-FEB-2017
INNCINEMALIV,INNCINEMALIVNE1487002571,240,S,OTHERNETBANKPAYU,13-FEB-2017,S,17-FEB-2017
INNCINEMALIV,INNCINEMALIVDS1486987584,480,S,FEDNET,13-FEB-2017,S,13-FEB-2017
INNCINEMALIV,INNCINEMALIVNK1486998684,480,S,OTHERNETBANKPAYU,13-FEB-2017,S,17-FEB-2017
INNCINEMALIV,INNCINEMALIVXZ1487218067,240,S,OTHERNETBANKPAYU,16-FEB-2017,,
INNCINEMALIV,INNCINEMALIVUY1487303622,360,S,PG,17-FEB-2017,,
INNCINEMALIV,INNCINEMALIVEL1486909316,600,S,OTHERNETBANKPAYU,12-FEB-2017,S,16-FEB-2017
INNCINEMALIV,INNCINEMALIVXK1486869705,240,S,PG,12-FEB-2017,S,16-FEB-2017
INNCINEMALIV,INNCINEMALIVKX1486869797,240,S,OTHERNETBANKPAYU,12-FEB-2017,S,16-FEB-2017
INNCINEMALIV,INNCINEMALIVQJ1486870524,240,S,PG,12-FEB-2017,S,16-FEB-2017
INNCINEMALIV,INNCINEMALIVEU1486870959,120,S,PG,12-FEB-2017,S,16-FEB-2017
INNCINEMALIV,INNCINEMALIVAN1486871059,480,S,PG,12-FEB-2017,S,16-FEB-2017
INNCINEMALIV,INNCINEMALIVAV1487259268,600,S,OTHERNETBANKPAYU,16-FEB-2017,,
INNCINEMALIV,INNCINEMALIVVH1486910549,360,S,PG,12-FEB-2017,S,16-FEB-2017
INNCINEMALIV,INNCINEMALIVQG1486910934,600,S,OTHERNETBANKPAYU,12-FEB-2017,S,16-FEB-2017
INNCINEMALIV,INNCINEMALIVAE1487004222,480,S,PG,13-FEB-2017,S,17-FEB-2017
INNCINEMALIV,INNCINEMALIVCV1487004787,240,S,OTHERNETBANKPAYU,13-FEB-2017,S,17-FEB-2017
INNCINEMALIV,INNCINEMALIVVB1487260756,240,S,PG,16-FEB-2017,,
INNCINEMALIV,INNCINEMALIVQM1487306993,240,S,OTHERNETBANKPAYU,17-FEB-2017,,
INNCINEMALIV,INNCINEMALIVVY1487006202,720,S,OTHERNETBANKPAYU,13-FEB-2017,S,17-FEB-2017
INNCINEMALIV,INNCINEMALIVUX1487132753,360,S,OTHERNETBANKPAYU,15-FEB-2017,,
INNCINEMALIV,INNCINEMALIVUO1487133166,120,S,PG,15-FEB-2017,,
INNCINEMALIV,INNCINEMALIVJJ1487225343,240,S,OTHERNETBANKPAYU,16-FEB-2017,,
INNCINEMALIV,INNCINEMALIVIY1487046273,600,S,OTHERNETBANKPAYU,14-FEB-2017,,
INNCINEMALIV,INNCINEMALIVYT1486963988,480,S,OTHERNETBANKPAYU,13-FEB-2017,S,17-FEB-2017
INNCINEMALIV,INNCINEMALIVZP1486973870,120,S,PG,13-FEB-2017,S,17-FEB-2017
INNCINEMALIV,INNCINEMALIVBC1487047327,240,S,OTHERNETBANKPAYU,14-FEB-2017,,
INNCINEMALIV,INNCINEMALIVBH1487147660,360,S,PG,15-FEB-2017,,
INNCINEMALIV,INNCINEMALIVEE1486964177,240,S,PG,13-FEB-2017,S,17-FEB-2017
INNCINEMALIV,INNCINEMALIVBK1487251778,360,S,OTHERNETBANKPAYU,16-FEB-2017,,
INNCINEMALIV,INNCINEMALIVFS1487335191,360,S,PG,17-FEB-2017,,
INNCINEMALIV,INNCINEMALIVII1487335458,240,S,PG,17-FEB-2017,,
INNCINEMALIV,INNCINEMALIVYC1487335537,840,S,PG,17-FEB-2017,,
INNCINEMALIV,INNCINEMALIVKY1486894727,360,S,PG,12-FEB-2017,S,16-FEB-2017
INNCINEMALIV,INNCINEMALIVBO1487253267,360,S,PG,16-FEB-2017,,
INNCINEMALIV,INNCINEMALIVKL1487048443,360,S,PG,14-FEB-2017,,
INNCINEMALIV,INNCINEMALIVNX1487048514,360,S,PG,14-FEB-2017,,
INNCINEMALIV,INNCINEMALIVOC1486975793,480,S,PG,13-FEB-2017,S,17-FEB-2017
INNCINEMALIV,INNCINEMALIVHM1486976003,240,S,PG,13-FEB-2017,S,17-FEB-2017
INNCINEMALIV,INNCINEMALIVDN1487336058,240,S,PG,17-FEB-2017,,
INNCINEMALIV,INNCINEMALIVTP1487336613,240,S,PG,17-FEB-2017,,
INNCINEMALIV,INNCINEMALIVFX1486965631,240,S,OTHERNETBANKPAYU,13-FEB-2017,S,17-FEB-2017
INNCINEMALIV,INNCINEMALIVQL1486897668,480,S,PG,12-FEB-2017,S,16-FEB-2017
INNCINEMALIV,INNCINEMALIVXA1487049372,240,S,OTHERNETBANKPAYU,14-FEB-2017,,
INNCINEMALIV,INNCINEMALIVAL1486976102,480,S,PG,13-FEB-2017,S,17-FEB-2017
INNCINEMALIV,INNCINEMALIVTW1486898969,240,S,PG,12-FEB-2017,S,16-FEB-2017
INNCINEMALIV,INNCINEMALIVDQ1486976763,600,S,PG,13-FEB-2017,S,17-FEB-2017
INNCINEMALIV,INNCINEMALIVJG1486977060,840,S,PG,13-FEB-2017,S,17-FEB-2017
INNCINEMALIV,INNCINEMALIVZG1486977081,360,S,PG,13-FEB-2017,S,17-FEB-2017
INNCINEMALIV,INNCINEMALIVUQ1486979621,480,S,PG,13-FEB-2017,S,17-FEB-2017
INNCINEMALIV,INNCINEMALIVHD1486979707,120,S,OTHERNETBANKPAYU,13-FEB-2017,S,17-FEB-2017
INNCINEMALIV,INNCINEMALIVGB1486979767,240,S,PG,13-FEB-2017,S,17-FEB-2017
INNCINEMALIV,INNCINEMALIVMD1487152528,120,S,FEDNET,15-FEB-2017,S,15-FEB-2017
INNCINEMALIV,INNCINEMALIVMR1486901356,240,S,PG,12-FEB-2017,S,16-FEB-2017
INNCINEMALIV,INNCINEMALIVYA1486902033,120,S,OTHERNETBANKPAYU,12-FEB-2017,S,16-FEB-2017
INNCINEMALIV,INNCINEMALIVSB1487173170,360,S,OTHERNETBANKPAYU,15-FEB-2017,,
INNCINEMALIV,INNCINEMALIVIF1486977628,240,S,OTHERNETBANKPAYU,13-FEB-2017,S,17-FEB-2017
INNCINEMALIV,INNCINEMALIVUP1487153338,240,S,OTHERNETBANKPAYU,15-FEB-2017,,
INNCINEMALIV,INNCINEMALIVJW1487050487,360,S,PG,14-FEB-2017,,
INNCINEMALIV,INNCINEMALIVVD1487050894,120,S,PG,14-FEB-2017,,
INNCINEMALIV,INNCINEMALIVAG1487050902,480,S,PG,14-FEB-2017,,
INNCINEMALIV,INNCINEMALIVUJ1486911118,120,S,OTHERNETBANKPAYU,12-FEB-2017,S,16-FEB-2017
INNCINEMALIV,INNCINEMALIVUS1486911330,120,S,OTHERNETBANKPAYU,12-FEB-2017,S,16-FEB-2017
INNCINEMALIV,INNCINEMALIVVL1486911616,240,S,PG,12-FEB-2017,S,16-FEB-2017
INNCINEMALIV,INNCINEMALIVQU1486912085,240,S,PG,12-FEB-2017,S,16-FEB-2017
INNCINEMALIV,INNCINEMALIVQT1487051014,600,S,PG,14-FEB-2017,,
INNCINEMALIV,INNCINEMALIVTU1486912633,240,S,PG,12-FEB-2017,S,16-FEB-2017
INNCINEMALIV,INNCINEMALIVFF1487037787,480,S,OTHERNETBANKPAYU,14-FEB-2017,S,18-FEB-2017
INNCINEMALIV,INNCINEMALIVCI1487136446,1200,S,PG,15-FEB-2017,,
INNCINEMALIV,INNCINEMALIVRV1487136624,120,S,PG,15-FEB-2017,,
INNCINEMALIV,INNCINEMALIVNV1486946987,120,S,OTHERNETBANKPAYU,13-FEB-2017,S,17-FEB-2017
INNCINEMALIV,INNCINEMALIVFN1487038373,480,S,OTHERNETBANKPAYU,14-FEB-2017,S,18-FEB-2017
INNCINEMALIV,INNCINEMALIVBN1487052446,480,S,OTHERNETBANKPAYU,14-FEB-2017,,
INNCINEMALIV,INNCINEMALIVSI1487052663,240,S,PG,14-FEB-2017,,
INNCINEMALIV,INNCINEMALIVUJ1487151761,240,S,PG,15-FEB-2017,,
INNCINEMALIV,INNCINEMALIVRZ1486916777,1080,S,PG,12-FEB-2017,S,16-FEB-2017
INNCINEMALIV,INNCINEMALIVNQ1486916975,720,S,OTHERNETBANKPAYU,12-FEB-2017,S,16-FEB-2017
INNCINEMALIV,INNCINEMALIVXS1487338988,240,S,OTHERNETBANKPAYU,17-FEB-2017,,
INNCINEMALIV,INNCINEMALIVPS1487161966,360,S,PG,15-FEB-2017,,
INNCINEMALIV,INNCINEMALIVLJ1487162691,360,S,PG,15-FEB-2017,,
INNCINEMALIV,INNCINEMALIVDP1487179331,240,S,PG,15-FEB-2017,,
INNCINEMALIV,INNCINEMALIVOA1487179635,720,S,OTHERNETBANKPAYU,15-FEB-2017,,
INNCINEMALIV,INNCINEMALIVLG1486918496,360,S,OTHERNETBANKPAYU,12-FEB-2017,S,16-FEB-2017
INNCINEMALIV,INNCINEMALIVYF1487043260,480,S,OTHERNETBANKPAYU,14-FEB-2017,,
INNCINEMALIV,INNCINEMALIVQC1487158741,240,S,PG,15-FEB-2017,,
INNCINEMALIV,INNCINEMALIVCD1487163668,360,S,OTHERNETBANKPAYU,15-FEB-2017,,
INNCINEMALIV,INNCINEMALIVIB1487329829,360,S,OTHERNETBANKPAYU,17-FEB-2017,,
INNCINEMALIV,INNCINEMALIVCZ1486885554,480,S,OTHERNETBANKPAYU,12-FEB-2017,S,16-FEB-2017
INNCINEMALIV,INNCINEMALIVSI1486885668,240,S,PG,12-FEB-2017,S,16-FEB-2017
INNCINEMALIV,INNCINEMALIVRY1486885683,240,S,PG,12-FEB-2017,S,16-FEB-2017
INNCINEMALIV,INNCINEMALIVLI1486885697,240,S,PG,12-FEB-2017,S,16-FEB-2017
INNCINEMALIV,INNCINEMALIVYR1486885769,240,S,PG,12-FEB-2017,S,16-FEB-2017
INNCINEMALIV,INNCINEMALIVVS1486885991,1200,S,OTHERNETBANKPAYU,12-FEB-2017,S,16-FEB-2017
INNCINEMALIV,INNCINEMALIVCE1486886432,1200,S,PG,12-FEB-2017,S,16-FEB-2017
INNCINEMALIV,INNCINEMALIVIN1486886479,960,S,PG,12-FEB-2017,S,16-FEB-2017
INNCINEMALIV,INNCINEMALIVHI1486886548,360,S,OTHERNETBANKPAYU,12-FEB-2017,S,16-FEB-2017
INNCINEMALIV,INNCINEMALIVPY1487182387,120,S,OTHERNETBANKPAYU,15-FEB-2017,,
INNCINEMALIV,INNCINEMALIVHG1486920276,360,S,PG,12-FEB-2017,S,16-FEB-2017
INNCINEMALIV,INNCINEMALIVAW1486921421,480,S,PG,12-FEB-2017,S,16-FEB-2017
INNCINEMALIV,INNCINEMALIVDS1486886942,360,S,PG,12-FEB-2017,S,16-FEB-2017
INNCINEMALIV,INNCINEMALIVPB1486887341,360,S,PG,12-FEB-2017,S,16-FEB-2017
INNCINEMALIV,INNCINEMALIVVJ1486887635,120,S,OTHERNETBANKPAYU,12-FEB-2017,S,16-FEB-2017
INNCINEMALIV,INNCINEMALIVHS1486887684,360,S,OTHERNETBANKPAYU,12-FEB-2017,S,16-FEB-2017
INNCINEMALIV,INNCINEMALIVYK1486887812,360,S,PG,12-FEB-2017,S,16-FEB-2017
INNCINEMALIV,INNCINEMALIVUV1486887944,240,S,PG,12-FEB-2017,S,16-FEB-2017
INNCINEMALIV,INNCINEMALIVKQ1486888262,960,S,OTHERNETBANKPAYU,12-FEB-2017,S,16-FEB-2017
INNCINEMALIV,INNCINEMALIVDT1486888429,1200,S,PG,12-FEB-2017,S,16-FEB-2017
INNCINEMALIV,INNCINEMALIVNT1487165818,240,S,OTHERNETBANKPAYU,15-FEB-2017,,
INNCINEMALIV,INNCINEMALIVSK1487166069,240,S,OTHERNETBANKPAYU,15-FEB-2017,,
INNCINEMALIV,INNCINEMALIVZK1487166129,240,S,PG,15-FEB-2017,,
INNCINEMALIV,INNCINEMALIVXO1486923702,360,S,PG,12-FEB-2017,S,16-FEB-2017
INNCINEMALIV,INNCINEMALIVBH1486889101,240,S,PG,12-FEB-2017,S,16-FEB-2017
INNCINEMALIV,INNCINEMALIVZR1486889134,720,S,OTHERNETBANKPAYU,12-FEB-2017,S,16-FEB-2017
