USERCODE,TRAN_ID,AMOUNT,TRAN_STATUS,PAY_MODE,TRAN_DATE,SETTLEMENT_STATUS,SETTLEMENT_DT
INNCINEMALIV,INNCINEMALIVFF1488095137,360,S,PG,26-FEB-2017,S,02-MAR-2017
INNCINEMALIV,INNCINEMALIVWL1488113889,480,S,FEDNET,26-FEB-2017,S,27-FEB-2017
INNCINEMALIV,INNCINEMALIVHG1488083241,240,S,OTHERNETBANKPAYU,26-FEB-2017,S,02-MAR-2017
INNCINEMALIV,INNCINEMALIVCO1488106959,360,S,PG,26-FEB-2017,S,02-MAR-2017
INNCINEMALIV,INNCINEMALIVKA1488088183,240,S,PG,26-FEB-2017,S,02-MAR-2017
INNCINEMALIV,INNCINEMALIVGH1488088682,1200,S,FEDNET,26-FEB-2017,S,27-FEB-2017
INNCINEMALIV,INNCINEMALIVNZ1488089806,360,S,PG,26-FEB-2017,S,02-MAR-2017
INNCINEMALIV,INNCINEMALIVGE1488090018,360,S,OTHERNETBANKPAYU,26-FEB-2017,S,02-MAR-2017
INNCINEMALIV,INNCINEMALIVTJ1488109477,720,S,PG,26-FEB-2017,S,02-MAR-2017
INNCINEMALIV,INNCINEMALIVOQ1488111233,360,S,OTHERNETBANKPAYU,26-FEB-2017,S,02-MAR-2017
INNCINEMALIV,INNCINEMALIVMX1488542189,720,S,OTHERNETBANKPAYU,03-MAR-2017,,
INNCINEMALIV,INNCINEMALIVEC1488542228,600,S,PG,03-MAR-2017,,
INNCINEMALIV,INNCINEMALIVSK1488542263,240,S,PG,03-MAR-2017,,
INNCINEMALIV,INNCINEMALIVCB1488542498,480,S,OTHERNETBANKPAYU,03-MAR-2017,,
INNCINEMALIV,INNCINEMALIVPO1488542756,120,S,FEDNET,03-MAR-2017,S,03-MAR-2017
INNCINEMALIV,INNCINEMALIVYM1488472118,120,S,PG,02-MAR-2017,,
INNCINEMALIV,INNCINEMALIVLD1488472866,840,S,OTHERNETBANKPAYU,02-MAR-2017,,
INNCINEMALIV,INNCINEMALIVWA1488472925,360,S,PG,02-MAR-2017,,
INNCINEMALIV,INNCINEMALIVEI1488473153,240,S,OTHERNETBANKPAYU,02-MAR-2017,,
INNCINEMALIV,INNCINEMALIVVB1488518755,720,S,OTHERNETBANKPAYU,03-MAR-2017,,
INNCINEMALIV,INNCINEMALIVVN1488518882,120,S,PG,03-MAR-2017,,
INNCINEMALIV,INNCINEMALIVMD1488518911,720,S,OTHERNETBANKPAYU,03-MAR-2017,,
INNCINEMALIV,INNCINEMALIVSA1488473411,120,S,OTHERNETBANKPAYU,02-MAR-2017,,
INNCINEMALIV,INNCINEMALIVWF1488473974,120,S,FEDNET,02-MAR-2017,S,02-MAR-2017
INNCINEMALIV,INNCINEMALIVLM1488473996,240,S,PG,02-MAR-2017,,
INNCINEMALIV,INNCINEMALIVNT1488474017,240,S,PG,02-MAR-2017,,
INNCINEMALIV,INNCINEMALIVAA1488519329,360,S,PG,03-MAR-2017,,
INNCINEMALIV,INNCINEMALIVQW1488519535,240,S,PG,03-MAR-2017,,
INNCINEMALIV,INNCINEMALIVXX1488519448,120,S,PG,03-MAR-2017,,
INNCINEMALIV,INNCINEMALIVTH1488519850,240,S,FEDNET,03-MAR-2017,S,03-MAR-2017
INNCINEMALIV,INNCINEMALIVTV1488519908,720,S,PG,03-MAR-2017,,
INNCINEMALIV,INNCINEMALIVJW1488474423,360,S,PG,02-MAR-2017,,
INNCINEMALIV,INNCINEMALIVLE1488474964,240,S,OTHERNETBANKPAYU,02-MAR-2017,,
INNCINEMALIV,INNCINEMALIVYZ1488520170,120,S,PG,03-MAR-2017,,
INNCINEMALIV,INNCINEMALIVXA1488476774,480,S,PG,02-MAR-2017,,
INNCINEMALIV,INNCINEMALIVCO1488476950,1200,S,PG,02-MAR-2017,,
INNCINEMALIV,INNCINEMALIVDU1488478549,600,S,OTHERNETBANKPAYU,02-MAR-2017,,
INNCINEMALIV,INNCINEMALIVOT1488478675,120,S,PG,02-MAR-2017,,
INNCINEMALIV,INNCINEMALIVLF1488478845,480,S,PG,02-MAR-2017,,
INNCINEMALIV,INNCINEMALIVUX1488478897,240,S,OTHERNETBANKPAYU,02-MAR-2017,,
INNCINEMALIV,INNCINEMALIVSV1488479732,480,S,PG,03-MAR-2017,,
INNCINEMALIV,INNCINEMALIVDQ1488479893,960,S,PG,03-MAR-2017,,
INNCINEMALIV,INNCINEMALIVCV1488518983,480,S,PG,03-MAR-2017,,
INNCINEMALIV,INNCINEMALIVNB1488519018,360,S,PG,03-MAR-2017,,
INNCINEMALIV,INNCINEMALIVBO1488480484,240,S,PG,03-MAR-2017,,
INNCINEMALIV,INNCINEMALIVDL1488480743,240,S,PG,03-MAR-2017,,
INNCINEMALIV,INNCINEMALIVNG1488481242,1200,S,FEDNET,03-MAR-2017,S,03-MAR-2017
INNCINEMALIV,INNCINEMALIVLU1488481552,480,S,PG,03-MAR-2017,,
INNCINEMALIV,INNCINEMALIVGI1488481622,600,S,FEDNET,03-MAR-2017,S,03-MAR-2017
INNCINEMALIV,INNCINEMALIVBG1488534367,960,S,OTHERNETBANKPAYU,03-MAR-2017,,
INNCINEMALIV,INNCINEMALIVEL1488537033,480,S,OTHERNETBANKPAYU,03-MAR-2017,,
INNCINEMALIV,INNCINEMALIVDE1488537115,240,S,PG,03-MAR-2017,,
INNCINEMALIV,INNCINEMALIVXE1488523253,240,S,OTHERNETBANKPAYU,03-MAR-2017,,
INNCINEMALIV,INNCINEMALIVEP1488540513,240,S,PG,03-MAR-2017,,
INNCINEMALIV,INNCINEMALIVPC1488541617,360,S,PG,03-MAR-2017,,
INNCINEMALIV,INNCINEMALIVBC1488464282,600,S,OTHERNETBANKPAYU,02-MAR-2017,,
INNCINEMALIV,INNCINEMALIVGF1488519817,120,S,OTHERNETBANKPAYU,03-MAR-2017,,
INNCINEMALIV,INNCINEMALIVDQ1488555338,240,S,PG,03-MAR-2017,,
INNCINEMALIV,INNCINEMALIVER1488555350,360,S,PG,03-MAR-2017,,
INNCINEMALIV,INNCINEMALIVNT1488515962,720,S,PG,03-MAR-2017,,
INNCINEMALIV,INNCINEMALIVVL1488516204,480,S,OTHERNETBANKPAYU,03-MAR-2017,,
INNCINEMALIV,INNCINEMALIVRV1488506783,360,S,PG,03-MAR-2017,,
INNCINEMALIV,INNCINEMALIVWK1488516765,600,S,PG,03-MAR-2017,,
INNCINEMALIV,INNCINEMALIVMX1488516769,120,S,PG,03-MAR-2017,,
INNCINEMALIV,INNCINEMALIVQM1488516787,360,S,PG,03-MAR-2017,,
INNCINEMALIV,INNCINEMALIVOB1488516838,120,S,OTHERNETBANKPAYU,03-MAR-2017,,
INNCINEMALIV,INNCINEMALIVOW1488517430,120,S,PG,03-MAR-2017,,
INNCINEMALIV,INNCINEMALIVRI1488517511,480,S,OTHERNETBANKPAYU,03-MAR-2017,,
INNCINEMALIV,INNCINEMALIVEW1488517713,960,S,PG,03-MAR-2017,,
INNCINEMALIV,INNCINEMALIVRL1488517957,360,S,PG,03-MAR-2017,,
INNCINEMALIV,INNCINEMALIVKY1488518079,240,S,PG,03-MAR-2017,,
INNCINEMALIV,INNCINEMALIVBJ1488518347,360,S,PG,03-MAR-2017,,
INNCINEMALIV,INNCINEMALIVYS1488518350,240,S,OTHERNETBANKPAYU,03-MAR-2017,,
INNCINEMALIV,INNCINEMALIVLZ1488518609,1200,S,PG,03-MAR-2017,,
INNCINEMALIV,INNCINEMALIVDO1488518618,840,S,PG,03-MAR-2017,,
INNCINEMALIV,INNCINEMALIVHU1488485468,240,S,FEDNET,03-MAR-2017,S,03-MAR-2017
INNCINEMALIV,INNCINEMALIVNB1488485814,360,S,OTHERNETBANKPAYU,03-MAR-2017,,
INNCINEMALIV,INNCINEMALIVQB1488538106,1080,S,PG,03-MAR-2017,,
INNCINEMALIV,INNCINEMALIVPL1488539096,240,S,PG,03-MAR-2017,,
INNCINEMALIV,INNCINEMALIVNI1488549318,240,S,PG,03-MAR-2017,,
INNCINEMALIV,INNCINEMALIVSC1488549350,360,S,PG,03-MAR-2017,,
INNCINEMALIV,INNCINEMALIVJL1488549353,240,S,OTHERNETBANKPAYU,03-MAR-2017,,
INNCINEMALIV,INNCINEMALIVSR1488549393,240,S,PG,03-MAR-2017,,
INNCINEMALIV,INNCINEMALIVFJ1488549455,360,S,PG,03-MAR-2017,,
INNCINEMALIV,INNCINEMALIVEH1488549660,240,S,PG,03-MAR-2017,,
INNCINEMALIV,INNCINEMALIVWE1488526930,840,S,OTHERNETBANKPAYU,03-MAR-2017,,
INNCINEMALIV,INNCINEMALIVTP1488526932,720,S,PG,03-MAR-2017,,
INNCINEMALIV,INNCINEMALIVNI1488527393,240,S,PG,03-MAR-2017,,
INNCINEMALIV,INNCINEMALIVBV1488525661,240,S,PG,03-MAR-2017,,
INNCINEMALIV,INNCINEMALIVHE1488525863,120,S,PG,03-MAR-2017,,
INNCINEMALIV,INNCINEMALIVNV1488526078,1080,S,PG,03-MAR-2017,,
INNCINEMALIV,INNCINEMALIVKG1488526112,240,S,PG,03-MAR-2017,,
INNCINEMALIV,INNCINEMALIVTW1488526343,240,S,OTHERNETBANKPAYU,03-MAR-2017,,
INNCINEMALIV,INNCINEMALIVOV1488526634,480,S,PG,03-MAR-2017,,
INNCINEMALIV,INNCINEMALIVBS1488530285,600,S,PG,03-MAR-2017,,
INNCINEMALIV,INNCINEMALIVCT1488530345,240,S,PG,03-MAR-2017,,
INNCINEMALIV,INNCINEMALIVQM1488530673,240,S,PG,03-MAR-2017,,
INNCINEMALIV,INNCINEMALIVCE1488531071,120,S,PG,03-MAR-2017,,
INNCINEMALIV,INNCINEMALIVOF1488531366,480,S,OTHERNETBANKPAYU,03-MAR-2017,,
INNCINEMALIV,INNCINEMALIVQJ1488531553,120,S,OTHERNETBANKPAYU,03-MAR-2017,,
INNCINEMALIV,INNCINEMALIVXW1488504469,120,S,OTHERNETBANKPAYU,03-MAR-2017,,
INNCINEMALIV,INNCINEMALIVFM1488505866,480,S,PG,03-MAR-2017,,
INNCINEMALIV,INNCINEMALIVKA1488507219,600,S,PG,03-MAR-2017,,
INNCINEMALIV,INNCINEMALIVJS1488507710,360,S,OTHERNETBANKPAYU,03-MAR-2017,,
INNCINEMALIV,INNCINEMALIVJP1488507750,240,S,OTHERNETBANKPAYU,03-MAR-2017,,
INNCINEMALIV,INNCINEMALIVSW1488507903,360,S,PG,03-MAR-2017,,
INNCINEMALIV,INNCINEMALIVRM1488508026,120,S,OTHERNETBANKPAYU,03-MAR-2017,,
INNCINEMALIV,INNCINEMALIVKL1488508328,360,S,PG,03-MAR-2017,,
INNCINEMALIV,INNCINEMALIVUQ1488508349,480,S,OTHERNETBANKPAYU,03-MAR-2017,,
INNCINEMALIV,INNCINEMALIVUS1488508457,120,S,PG,03-MAR-2017,,
INNCINEMALIV,INNCINEMALIVRP1488542871,480,S,PG,03-MAR-2017,,
INNCINEMALIV,INNCINEMALIVAY1488543325,120,S,OTHERNETBANKPAYU,03-MAR-2017,,
INNCINEMALIV,INNCINEMALIVUI1488543335,480,S,PG,03-MAR-2017,,
INNCINEMALIV,INNCINEMALIVXC1488543350,360,S,OTHERNETBANKPAYU,03-MAR-2017,,
INNCINEMALIV,INNCINEMALIVAL1488533631,360,S,PG,03-MAR-2017,,
INNCINEMALIV,INNCINEMALIVUN1488508608,240,S,PG,03-MAR-2017,,
INNCINEMALIV,INNCINEMALIVIT1488508730,240,S,PG,03-MAR-2017,,
INNCINEMALIV,INNCINEMALIVFB1488508763,1200,S,PG,03-MAR-2017,,
INNCINEMALIV,INNCINEMALIVME1488508771,360,S,PG,03-MAR-2017,,
INNCINEMALIV,INNCINEMALIVPI1488508813,120,S,PG,03-MAR-2017,,
INNCINEMALIV,INNCINEMALIVBO1488509046,240,S,PG,03-MAR-2017,,
INNCINEMALIV,INNCINEMALIVQN1488543923,480,S,PG,03-MAR-2017,,
INNCINEMALIV,INNCINEMALIVJA1488544099,240,S,PG,03-MAR-2017,,
INNCINEMALIV,INNCINEMALIVSU1488534557,120,S,PG,03-MAR-2017,,
INNCINEMALIV,INNCINEMALIVJF1488509387,240,S,PG,03-MAR-2017,,
INNCINEMALIV,INNCINEMALIVCJ1488509476,240,S,OTHERNETBANKPAYU,03-MAR-2017,,
INNCINEMALIV,INNCINEMALIVIA1488509797,240,S,FEDNET,03-MAR-2017,S,03-MAR-2017
INNCINEMALIV,INNCINEMALIVUE1488509826,720,S,PG,03-MAR-2017,,
INNCINEMALIV,INNCINEMALIVKV1488510218,360,S,PG,03-MAR-2017,,
INNCINEMALIV,INNCINEMALIVSU1488510354,240,S,PG,03-MAR-2017,,
INNCINEMALIV,INNCINEMALIVAL1488510546,240,S,OTHERNETBANKPAYU,03-MAR-2017,,
INNCINEMALIV,INNCINEMALIVIP1488510613,120,S,PG,03-MAR-2017,,
INNCINEMALIV,INNCINEMALIVRD1488510640,600,S,PG,03-MAR-2017,,
INNCINEMALIV,INNCINEMALIVGH1488510983,240,S,PG,03-MAR-2017,,
INNCINEMALIV,INNCINEMALIVGI1488511117,360,S,PG,03-MAR-2017,,
INNCINEMALIV,INNCINEMALIVVG1488501821,240,S,PG,03-MAR-2017,,
INNCINEMALIV,INNCINEMALIVAM1488544949,120,S,OTHERNETBANKPAYU,03-MAR-2017,,
INNCINEMALIV,INNCINEMALIVGD1488544971,1200,S,FEDNET,03-MAR-2017,S,03-MAR-2017
INNCINEMALIV,INNCINEMALIVTY1488545126,240,S,PG,03-MAR-2017,,
INNCINEMALIV,INNCINEMALIVCZ1488545221,480,S,FEDNET,03-MAR-2017,S,03-MAR-2017
INNCINEMALIV,INNCINEMALIVXE1488534875,240,S,OTHERNETBANKPAYU,03-MAR-2017,,
INNCINEMALIV,INNCINEMALIVQZ1488511222,120,S,OTHERNETBANKPAYU,03-MAR-2017,,
INNCINEMALIV,INNCINEMALIVOC1488511333,360,S,PG,03-MAR-2017,,
INNCINEMALIV,INNCINEMALIVIZ1488511307,360,S,PG,03-MAR-2017,,
INNCINEMALIV,INNCINEMALIVNQ1488511780,360,S,FEDNET,03-MAR-2017,S,03-MAR-2017
INNCINEMALIV,INNCINEMALIVDW1488511982,240,S,OTHERNETBANKPAYU,03-MAR-2017,,
INNCINEMALIV,INNCINEMALIVCT1488512031,720,S,PG,03-MAR-2017,,
INNCINEMALIV,INNCINEMALIVRB1488512133,600,S,PG,03-MAR-2017,,
INNCINEMALIV,INNCINEMALIVBJ1488512205,120,S,PG,03-MAR-2017,,
INNCINEMALIV,INNCINEMALIVZK1488512204,480,S,PG,03-MAR-2017,,
INNCINEMALIV,INNCINEMALIVNJ1488512290,360,S,OTHERNETBANKPAYU,03-MAR-2017,,
INNCINEMALIV,INNCINEMALIVUS1488512419,240,S,PG,03-MAR-2017,,
INNCINEMALIV,INNCINEMALIVIJ1488545882,240,S,PG,03-MAR-2017,,
INNCINEMALIV,INNCINEMALIVJG1488546891,240,S,PG,03-MAR-2017,,
INNCINEMALIV,INNCINEMALIVLF1488536456,240,S,OTHERNETBANKPAYU,03-MAR-2017,,
INNCINEMALIV,INNCINEMALIVXM1488512495,240,S,PG,03-MAR-2017,,
INNCINEMALIV,INNCINEMALIVXN1488512582,600,S,PG,03-MAR-2017,,
INNCINEMALIV,INNCINEMALIVKA1488511074,600,S,PG,03-MAR-2017,,
INNCINEMALIV,INNCINEMALIVDI1488512798,240,S,OTHERNETBANKPAYU,03-MAR-2017,,
INNCINEMALIV,INNCINEMALIVCY1488513054,240,S,PG,03-MAR-2017,,
INNCINEMALIV,INNCINEMALIVOV1488513282,240,S,FEDNET,03-MAR-2017,S,03-MAR-2017
INNCINEMALIV,INNCINEMALIVPZ1488513438,480,S,PG,03-MAR-2017,,
INNCINEMALIV,INNCINEMALIVIL1488513584,240,S,FEDNET,03-MAR-2017,S,03-MAR-2017
INNCINEMALIV,INNCINEMALIVRR1488513729,480,S,FEDNET,03-MAR-2017,S,03-MAR-2017
INNCINEMALIV,INNCINEMALIVMR1488513793,240,S,PG,03-MAR-2017,,
INNCINEMALIV,INNCINEMALIVGZ1488563495,960,S,PG,03-MAR-2017,,
INNCINEMALIV,INNCINEMALIVVT1488513983,480,S,PG,03-MAR-2017,,
INNCINEMALIV,INNCINEMALIVXK1488514122,360,S,PG,03-MAR-2017,,
INNCINEMALIV,INNCINEMALIVMM1488514300,240,S,OTHERNETBANKPAYU,03-MAR-2017,,
INNCINEMALIV,INNCINEMALIVDS1488514380,240,S,PG,03-MAR-2017,,
INNCINEMALIV,INNCINEMALIVMV1488514425,240,S,PG,03-MAR-2017,,
INNCINEMALIV,INNCINEMALIVKP1488514588,240,S,PG,03-MAR-2017,,
INNCINEMALIV,INNCINEMALIVAA1488514554,360,S,PG,03-MAR-2017,,
INNCINEMALIV,INNCINEMALIVTY1488514827,240,S,PG,03-MAR-2017,,
INNCINEMALIV,INNCINEMALIVJZ1488514931,240,S,PG,03-MAR-2017,,
INNCINEMALIV,INNCINEMALIVVB1488515270,480,S,PG,03-MAR-2017,,
INNCINEMALIV,INNCINEMALIVNS1488515277,600,S,PG,03-MAR-2017,,
INNCINEMALIV,INNCINEMALIVEF1488515351,480,S,PG,03-MAR-2017,,
INNCINEMALIV,INNCINEMALIVBD1488515456,360,S,PG,03-MAR-2017,,
INNCINEMALIV,INNCINEMALIVCO1488515640,240,S,PG,03-MAR-2017,,
INNCINEMALIV,INNCINEMALIVNG1488548318,240,S,PG,03-MAR-2017,,
INNCINEMALIV,INNCINEMALIVYY1488548598,600,S,PG,03-MAR-2017,,
INNCINEMALIV,INNCINEMALIVRR1488549008,480,S,PG,03-MAR-2017,,
INNCINEMALIV,INNCINEMALIVLE1488524730,120,S,PG,03-MAR-2017,,
INNCINEMALIV,INNCINEMALIVLP1488466833,600,S,PG,02-MAR-2017,,
INNCINEMALIV,INNCINEMALIVKN1488466885,240,S,OTHERNETBANKPAYU,02-MAR-2017,,
INNCINEMALIV,INNCINEMALIVCF1488466961,240,S,PG,02-MAR-2017,,
INNCINEMALIV,INNCINEMALIVDU1488467069,360,S,PG,02-MAR-2017,,
INNCINEMALIV,INNCINEMALIVTL1488467113,480,S,PG,02-MAR-2017,,
INNCINEMALIV,INNCINEMALIVOL1488467274,240,S,FEDNET,02-MAR-2017,S,02-MAR-2017
INNCINEMALIV,INNCINEMALIVLG1488557796,1200,S,PG,03-MAR-2017,,
INNCINEMALIV,INNCINEMALIVLY1488557838,360,S,OTHERNETBANKPAYU,03-MAR-2017,,
INNCINEMALIV,INNCINEMALIVKN1488558307,120,S,PG,03-MAR-2017,,
INNCINEMALIV,INNCINEMALIVUJ1488558465,240,S,OTHERNETBANKPAYU,03-MAR-2017,,
INNCINEMALIV,INNCINEMALIVXA1488558542,240,S,OTHERNETBANKPAYU,03-MAR-2017,,
INNCINEMALIV,INNCINEMALIVXL1488558807,240,S,PG,03-MAR-2017,,
INNCINEMALIV,INNCINEMALIVYR1488558809,240,S,PG,03-MAR-2017,,
INNCINEMALIV,INNCINEMALIVVF1488560264,480,S,PG,03-MAR-2017,,
INNCINEMALIV,INNCINEMALIVWV1488560961,480,S,PG,03-MAR-2017,,
INNCINEMALIV,INNCINEMALIVYL1488561271,960,S,PG,03-MAR-2017,,
INNCINEMALIV,INNCINEMALIVYZ1488561484,120,S,PG,03-MAR-2017,,
INNCINEMALIV,INNCINEMALIVUJ1488561726,960,S,PG,03-MAR-2017,,
INNCINEMALIV,INNCINEMALIVCT1488467776,240,S,OTHERNETBANKPAYU,02-MAR-2017,,
INNCINEMALIV,INNCINEMALIVLJ1488468156,360,S,OTHERNETBANKPAYU,02-MAR-2017,,
INNCINEMALIV,INNCINEMALIVSX1488562106,480,S,PG,03-MAR-2017,,
INNCINEMALIV,INNCINEMALIVQT1488562118,240,S,OTHERNETBANKPAYU,03-MAR-2017,,
INNCINEMALIV,INNCINEMALIVSU1488562277,120,S,OTHERNETBANKPAYU,03-MAR-2017,,
INNCINEMALIV,INNCINEMALIVGU1488562982,240,S,PG,03-MAR-2017,,
INNCINEMALIV,INNCINEMALIVZF1488469435,360,S,OTHERNETBANKPAYU,02-MAR-2017,,
INNCINEMALIV,INNCINEMALIVKL1488469817,360,S,OTHERNETBANKPAYU,02-MAR-2017,,
INNCINEMALIV,INNCINEMALIVYE1488563805,480,S,PG,03-MAR-2017,,
INNCINEMALIV,INNCINEMALIVMN1488563989,120,S,OTHERNETBANKPAYU,03-MAR-2017,,
INNCINEMALIV,INNCINEMALIVZH1488564186,240,S,PG,03-MAR-2017,,
INNCINEMALIV,INNCINEMALIVKP1488565047,240,S,PG,03-MAR-2017,,
INNCINEMALIV,INNCINEMALIVCL1488470189,240,S,PG,02-MAR-2017,,
INNCINEMALIV,INNCINEMALIVOZ1488470242,240,S,PG,02-MAR-2017,,
INNCINEMALIV,INNCINEMALIVQN1488470419,360,S,OTHERNETBANKPAYU,02-MAR-2017,,
INNCINEMALIV,INNCINEMALIVAP1488470439,240,S,OTHERNETBANKPAYU,02-MAR-2017,,
INNCINEMALIV,INNCINEMALIVMO1488549813,480,S,PG,03-MAR-2017,,
INNCINEMALIV,INNCINEMALIVRQ1488550394,840,S,PG,03-MAR-2017,,
INNCINEMALIV,INNCINEMALIVXA1488550579,120,S,OTHERNETBANKPAYU,03-MAR-2017,,
INNCINEMALIV,INNCINEMALIVZW1488550643,240,S,OTHERNETBANKPAYU,03-MAR-2017,,
INNCINEMALIV,INNCINEMALIVTQ1488550643,600,S,PG,03-MAR-2017,,
INNCINEMALIV,INNCINEMALIVOU1488550839,600,S,FEDNET,03-MAR-2017,S,03-MAR-2017
INNCINEMALIV,INNCINEMALIVQK1488550901,240,S,OTHERNETBANKPAYU,03-MAR-2017,,
INNCINEMALIV,INNCINEMALIVMM1488550918,240,S,PG,03-MAR-2017,,
INNCINEMALIV,INNCINEMALIVWL1488551141,600,S,OTHERNETBANKPAYU,03-MAR-2017,,
INNCINEMALIV,INNCINEMALIVXN1488551286,120,S,FEDNET,03-MAR-2017,S,03-MAR-2017
INNCINEMALIV,INNCINEMALIVLJ1488551285,120,S,PG,03-MAR-2017,,
INNCINEMALIV,INNCINEMALIVBI1488551149,360,S,OTHERNETBANKPAYU,03-MAR-2017,,
INNCINEMALIV,INNCINEMALIVYW1488551394,720,S,OTHERNETBANKPAYU,03-MAR-2017,,
INNCINEMALIV,INNCINEMALIVVA1488517990,480,S,OTHERNETBANKPAYU,03-MAR-2017,,
INNCINEMALIV,INNCINEMALIVSI1488458154,240,S,FEDNET,02-MAR-2017,S,02-MAR-2017
INNCINEMALIV,INNCINEMALIVVY1488458222,720,S,OTHERNETBANKPAYU,02-MAR-2017,,
INNCINEMALIV,INNCINEMALIVEK1488458363,360,S,FEDNET,02-MAR-2017,S,02-MAR-2017
INNCINEMALIV,INNCINEMALIVWI1488458392,120,S,PG,02-MAR-2017,,
INNCINEMALIV,INNCINEMALIVRH1488458427,1200,S,OTHERNETBANKPAYU,02-MAR-2017,,
INNCINEMALIV,INNCINEMALIVWZ1488552004,240,S,PG,03-MAR-2017,,
INNCINEMALIV,INNCINEMALIVPV1488552088,120,S,PG,03-MAR-2017,,
INNCINEMALIV,INNCINEMALIVOW1488552339,120,S,PG,03-MAR-2017,,
INNCINEMALIV,INNCINEMALIVQK1488552456,360,S,FEDNET,03-MAR-2017,S,03-MAR-2017
INNCINEMALIV,INNCINEMALIVDP1488552777,120,S,PG,03-MAR-2017,,
INNCINEMALIV,INNCINEMALIVRR1488458590,480,S,FEDNET,02-MAR-2017,S,02-MAR-2017
INNCINEMALIV,INNCINEMALIVFA1488458869,360,S,PG,02-MAR-2017,,
INNCINEMALIV,INNCINEMALIVZH1488459401,120,S,PG,02-MAR-2017,,
INNCINEMALIV,INNCINEMALIVKB1488459826,720,S,PG,02-MAR-2017,,
INNCINEMALIV,INNCINEMALIVEB1488552919,600,S,OTHERNETBANKPAYU,03-MAR-2017,,
INNCINEMALIV,INNCINEMALIVGK1488552914,480,S,PG,03-MAR-2017,,
INNCINEMALIV,INNCINEMALIVCW1488553411,240,S,PG,03-MAR-2017,,
INNCINEMALIV,INNCINEMALIVHM1488553538,480,S,OTHERNETBANKPAYU,03-MAR-2017,,
INNCINEMALIV,INNCINEMALIVYZ1488553679,240,S,OTHERNETBANKPAYU,03-MAR-2017,,
INNCINEMALIV,INNCINEMALIVFA1488460041,360,S,PG,02-MAR-2017,,
INNCINEMALIV,INNCINEMALIVGR1488460519,360,S,PG,02-MAR-2017,,
INNCINEMALIV,INNCINEMALIVDQ1488460705,600,S,PG,02-MAR-2017,,
INNCINEMALIV,INNCINEMALIVGW1488460863,480,S,FEDNET,02-MAR-2017,S,02-MAR-2017
INNCINEMALIV,INNCINEMALIVGS1488460977,240,S,PG,02-MAR-2017,,
INNCINEMALIV,INNCINEMALIVIG1488461394,840,S,OTHERNETBANKPAYU,02-MAR-2017,,
INNCINEMALIV,INNCINEMALIVJO1488553696,240,S,PG,03-MAR-2017,,
INNCINEMALIV,INNCINEMALIVET1488553868,240,S,OTHERNETBANKPAYU,03-MAR-2017,,
INNCINEMALIV,INNCINEMALIVEH1488553877,480,S,PG,03-MAR-2017,,
INNCINEMALIV,INNCINEMALIVKK1488553941,360,S,OTHERNETBANKPAYU,03-MAR-2017,,
INNCINEMALIV,INNCINEMALIVMG1488553992,120,S,PG,03-MAR-2017,,
INNCINEMALIV,INNCINEMALIVFF1488554014,120,S,PG,03-MAR-2017,,
INNCINEMALIV,INNCINEMALIVWB1488554050,360,S,PG,03-MAR-2017,,
INNCINEMALIV,INNCINEMALIVEB1488554112,240,S,OTHERNETBANKPAYU,03-MAR-2017,,
INNCINEMALIV,INNCINEMALIVPW1488554148,240,S,OTHERNETBANKPAYU,03-MAR-2017,,
INNCINEMALIV,INNCINEMALIVIM1488461424,1200,S,OTHERNETBANKPAYU,02-MAR-2017,,
INNCINEMALIV,INNCINEMALIVLE1488461475,840,S,OTHERNETBANKPAYU,02-MAR-2017,,
INNCINEMALIV,INNCINEMALIVSD1488461529,240,S,PG,02-MAR-2017,,
INNCINEMALIV,INNCINEMALIVJW1488461586,1200,S,PG,02-MAR-2017,,
INNCINEMALIV,INNCINEMALIVIL1488461622,360,S,PG,02-MAR-2017,,
INNCINEMALIV,INNCINEMALIVRC1488461723,840,S,OTHERNETBANKPAYU,02-MAR-2017,,
INNCINEMALIV,INNCINEMALIVXH1488461943,600,S,FEDNET,02-MAR-2017,S,02-MAR-2017
INNCINEMALIV,INNCINEMALIVOI1488462435,120,S,PG,02-MAR-2017,,
INNCINEMALIV,INNCINEMALIVBJ1488462544,480,S,FEDNET,02-MAR-2017,S,02-MAR-2017
INNCINEMALIV,INNCINEMALIVUK1488462582,480,S,PG,02-MAR-2017,,
INNCINEMALIV,INNCINEMALIVMH1488462589,240,S,FEDNET,02-MAR-2017,S,02-MAR-2017
INNCINEMALIV,INNCINEMALIVLV1488554429,1200,S,PG,03-MAR-2017,,
INNCINEMALIV,INNCINEMALIVPQ1488554444,480,S,OTHERNETBANKPAYU,03-MAR-2017,,
INNCINEMALIV,INNCINEMALIVVR1488554516,1080,S,PG,03-MAR-2017,,
INNCINEMALIV,INNCINEMALIVKV1488554613,600,S,PG,03-MAR-2017,,
INNCINEMALIV,INNCINEMALIVJL1488554616,240,S,PG,03-MAR-2017,,
INNCINEMALIV,INNCINEMALIVVR1488554646,120,S,PG,03-MAR-2017,,
INNCINEMALIV,INNCINEMALIVPS1488554726,120,S,OTHERNETBANKPAYU,03-MAR-2017,,
INNCINEMALIV,INNCINEMALIVYE1488554756,480,S,OTHERNETBANKPAYU,03-MAR-2017,,
INNCINEMALIV,INNCINEMALIVEZ1488554839,480,S,PG,03-MAR-2017,,
INNCINEMALIV,INNCINEMALIVHH1488554961,240,S,PG,03-MAR-2017,,
INNCINEMALIV,INNCINEMALIVSN1488555128,240,S,OTHERNETBANKPAYU,03-MAR-2017,,
INNCINEMALIV,INNCINEMALIVHJ1488555208,960,S,PG,03-MAR-2017,,
INNCINEMALIV,INNCINEMALIVMD1488462756,360,S,PG,02-MAR-2017,,
INNCINEMALIV,INNCINEMALIVTF1488462838,240,S,PG,02-MAR-2017,,
INNCINEMALIV,INNCINEMALIVTV1488462896,1200,S,PG,02-MAR-2017,,
INNCINEMALIV,INNCINEMALIVVL1488463239,1200,S,OTHERNETBANKPAYU,02-MAR-2017,,
INNCINEMALIV,INNCINEMALIVTN1488464005,360,S,PG,02-MAR-2017,,
INNCINEMALIV,INNCINEMALIVKE1488464088,720,S,OTHERNETBANKPAYU,02-MAR-2017,,
INNCINEMALIV,INNCINEMALIVCX1488464225,480,S,PG,02-MAR-2017,,
INNCINEMALIV,INNCINEMALIVBX1488464255,120,S,PG,02-MAR-2017,,
INNCINEMALIV,INNCINEMALIVTW1488464252,960,S,PG,02-MAR-2017,,
INNCINEMALIV,INNCINEMALIVQC1488555509,360,S,PG,03-MAR-2017,,
INNCINEMALIV,INNCINEMALIVTF1488555596,360,S,OTHERNETBANKPAYU,03-MAR-2017,,
INNCINEMALIV,INNCINEMALIVFS1488555505,360,S,OTHERNETBANKPAYU,03-MAR-2017,,
INNCINEMALIV,INNCINEMALIVBB1488555691,600,S,PG,03-MAR-2017,,
INNCINEMALIV,INNCINEMALIVQJ1488555744,360,S,PG,03-MAR-2017,,
INNCINEMALIV,INNCINEMALIVDE1488555791,360,S,PG,03-MAR-2017,,
INNCINEMALIV,INNCINEMALIVOY1488556024,240,S,OTHERNETBANKPAYU,03-MAR-2017,,
INNCINEMALIV,INNCINEMALIVOO1488556171,720,S,PG,03-MAR-2017,,
INNCINEMALIV,INNCINEMALIVZP1488556309,480,S,PG,03-MAR-2017,,
INNCINEMALIV,INNCINEMALIVMZ1488464653,480,S,PG,02-MAR-2017,,
INNCINEMALIV,INNCINEMALIVEW1488464773,240,S,PG,02-MAR-2017,,
INNCINEMALIV,INNCINEMALIVSR1488464813,720,S,FEDNET,02-MAR-2017,S,02-MAR-2017
INNCINEMALIV,INNCINEMALIVDY1488464887,840,S,PG,02-MAR-2017,,
INNCINEMALIV,INNCINEMALIVHN1488464939,360,S,PG,02-MAR-2017,,
INNCINEMALIV,INNCINEMALIVZZ1488464943,480,S,PG,02-MAR-2017,,
INNCINEMALIV,INNCINEMALIVUA1488465005,360,S,OTHERNETBANKPAYU,02-MAR-2017,,
INNCINEMALIV,INNCINEMALIVGS1488465124,360,S,PG,02-MAR-2017,,
INNCINEMALIV,INNCINEMALIVKJ1488465144,240,S,PG,02-MAR-2017,,
INNCINEMALIV,INNCINEMALIVEX1488465176,240,S,PG,02-MAR-2017,,
INNCINEMALIV,INNCINEMALIVXL1488465437,480,S,PG,02-MAR-2017,,
INNCINEMALIV,INNCINEMALIVRS1488556455,360,S,PG,03-MAR-2017,,
INNCINEMALIV,INNCINEMALIVFI1488556676,240,S,PG,03-MAR-2017,,
INNCINEMALIV,INNCINEMALIVMT1488556798,240,S,OTHERNETBANKPAYU,03-MAR-2017,,
INNCINEMALIV,INNCINEMALIVMV1488556827,120,S,PG,03-MAR-2017,,
INNCINEMALIV,INNCINEMALIVPE1488465547,360,S,PG,02-MAR-2017,,
INNCINEMALIV,INNCINEMALIVXL1488465543,120,S,PG,02-MAR-2017,,
INNCINEMALIV,INNCINEMALIVXH1488465256,480,S,PG,02-MAR-2017,,
INNCINEMALIV,INNCINEMALIVPM1488465634,120,S,PG,02-MAR-2017,,
INNCINEMALIV,INNCINEMALIVWZ1488465668,240,S,PG,02-MAR-2017,,
INNCINEMALIV,INNCINEMALIVEJ1488466110,480,S,OTHERNETBANKPAYU,02-MAR-2017,,
INNCINEMALIV,INNCINEMALIVDL1488466186,240,S,PG,02-MAR-2017,,
INNCINEMALIV,INNCINEMALIVSF1488466241,600,S,PG,02-MAR-2017,,
INNCINEMALIV,INNCINEMALIVMI1488466363,480,S,PG,02-MAR-2017,,
INNCINEMALIV,INNCINEMALIVDF1488466620,480,S,PG,02-MAR-2017,,
INNCINEMALIV,INNCINEMALIVUA1488557230,240,S,PG,03-MAR-2017,,
INNCINEMALIV,INNCINEMALIVDN1488557278,240,S,OTHERNETBANKPAYU,03-MAR-2017,,
INNCINEMALIV,INNCINEMALIVYW1488557235,120,S,PG,03-MAR-2017,,
INNCINEMALIV,INNCINEMALIVIH1488557327,600,S,PG,03-MAR-2017,,
INNCINEMALIV,INNCINEMALIVGM1488557735,840,S,PG,03-MAR-2017,,
INNCINEMALIV,INNCINEMALIVCB1488557779,720,S,OTHERNETBANKPAYU,03-MAR-2017,,
INNCINEMALIV,INNCINEMALIVOU1488559216,480,S,OTHERNETBANKPAYU,03-MAR-2017,,
INNCINEMALIV,INNCINEMALIVOO1488559729,480,S,OTHERNETBANKPAYU,03-MAR-2017,,
INNCINEMALIV,INNCINEMALIVVA1488559770,720,S,PG,03-MAR-2017,,
INNCINEMALIV,INNCINEMALIVAL1488560032,240,S,OTHERNETBANKPAYU,03-MAR-2017,,
INNCINEMALIV,INNCINEMALIVOL1488560062,600,S,PG,03-MAR-2017,,
