USERCODE,TRAN_ID,AMOUNT,TRAN_STATUS,PAY_MODE,TRAN_DATE,SETTLEMENT_STATUS,SETTLEMENT_DT
INNCINEMALIV,INNCINEMALIVEX1488869377,240,S,PG,07-MAR-2017,,
INNCINEMALIV,INNCINEMALIVXE1488781893,240,S,OTHERNETBANKPAYU,06-MAR-2017,,
INNCINEMALIV,INNCINEMALIVYX1488782001,120,S,OTHERNETBANKPAYU,06-MAR-2017,,
INNCINEMALIV,INNCINEMALIVYZ1488781958,600,S,PG,06-MAR-2017,,
INNCINEMALIV,INNCINEMALIVWC1488782088,360,S,OTHERNETBANKPAYU,06-MAR-2017,,
INNCINEMALIV,INNCINEMALIVEL1488782247,120,S,OTHERNETBANKPAYU,06-MAR-2017,,
INNCINEMALIV,INNCINEMALIVLH1488770105,360,S,PG,06-MAR-2017,,
INNCINEMALIV,INNCINEMALIVVL1488770589,600,S,PG,06-MAR-2017,,
INNCINEMALIV,INNCINEMALIVYS1488770584,360,S,OTHERNETBANKPAYU,06-MAR-2017,,
INNCINEMALIV,INNCINEMALIVXY1488770630,240,S,OTHERNETBANKPAYU,06-MAR-2017,,
INNCINEMALIV,INNCINEMALIVFF1488782597,600,S,PG,06-MAR-2017,,
INNCINEMALIV,INNCINEMALIVCR1488782721,240,S,FEDNET,06-MAR-2017,S,06-MAR-2017
INNCINEMALIV,INNCINEMALIVDO1488782773,720,S,OTHERNETBANKPAYU,06-MAR-2017,,
INNCINEMALIV,INNCINEMALIVFI1488771352,360,S,OTHERNETBANKPAYU,06-MAR-2017,,
INNCINEMALIV,INNCINEMALIVMW1488771677,240,S,OTHERNETBANKPAYU,06-MAR-2017,,
INNCINEMALIV,INNCINEMALIVEJ1488771821,480,S,PG,06-MAR-2017,,
INNCINEMALIV,INNCINEMALIVIE1488904717,600,S,PG,07-MAR-2017,,
INNCINEMALIV,INNCINEMALIVAP1488782839,240,S,PG,06-MAR-2017,,
INNCINEMALIV,INNCINEMALIVBQ1488783147,1200,S,PG,06-MAR-2017,,
INNCINEMALIV,INNCINEMALIVMP1488783294,720,S,PG,06-MAR-2017,,
INNCINEMALIV,INNCINEMALIVPG1488783413,240,S,PG,06-MAR-2017,,
INNCINEMALIV,INNCINEMALIVDG1488783433,120,S,OTHERNETBANKPAYU,06-MAR-2017,,
INNCINEMALIV,INNCINEMALIVMX1488542189,720,S,OTHERNETBANKPAYU,03-MAR-2017,S,07-MAR-2017
INNCINEMALIV,INNCINEMALIVEC1488542228,600,S,PG,03-MAR-2017,S,07-MAR-2017
INNCINEMALIV,INNCINEMALIVNF1488772592,840,S,OTHERNETBANKPAYU,06-MAR-2017,,
INNCINEMALIV,INNCINEMALIVZG1488772683,120,S,PG,06-MAR-2017,,
INNCINEMALIV,INNCINEMALIVYR1488773197,120,S,OTHERNETBANKPAYU,06-MAR-2017,,
INNCINEMALIV,INNCINEMALIVHF1488783849,720,S,OTHERNETBANKPAYU,06-MAR-2017,,
INNCINEMALIV,INNCINEMALIVKD1488783900,480,S,OTHERNETBANKPAYU,06-MAR-2017,,
INNCINEMALIV,INNCINEMALIVQS1488783947,360,S,PG,06-MAR-2017,,
INNCINEMALIV,INNCINEMALIVJG1488784182,600,S,OTHERNETBANKPAYU,06-MAR-2017,,
INNCINEMALIV,INNCINEMALIVSK1488542263,240,S,PG,03-MAR-2017,S,07-MAR-2017
INNCINEMALIV,INNCINEMALIVCB1488542498,480,S,OTHERNETBANKPAYU,03-MAR-2017,S,07-MAR-2017
INNCINEMALIV,INNCINEMALIVPO1488542756,120,S,FEDNET,03-MAR-2017,S,03-MAR-2017
INNCINEMALIV,INNCINEMALIVQN1488632585,120,S,PG,04-MAR-2017,,
INNCINEMALIV,INNCINEMALIVCF1488632742,120,S,OTHERNETBANKPAYU,04-MAR-2017,,
INNCINEMALIV,INNCINEMALIVYM1488472118,120,S,PG,02-MAR-2017,S,06-MAR-2017
INNCINEMALIV,INNCINEMALIVLD1488472866,840,S,OTHERNETBANKPAYU,02-MAR-2017,S,06-MAR-2017
INNCINEMALIV,INNCINEMALIVWA1488472925,360,S,PG,02-MAR-2017,S,06-MAR-2017
INNCINEMALIV,INNCINEMALIVEI1488473153,240,S,OTHERNETBANKPAYU,02-MAR-2017,S,06-MAR-2017
INNCINEMALIV,INNCINEMALIVGO1488784387,240,S,OTHERNETBANKPAYU,06-MAR-2017,,
INNCINEMALIV,INNCINEMALIVJZ1488784909,480,S,PG,06-MAR-2017,,
INNCINEMALIV,INNCINEMALIVVB1488518755,720,S,OTHERNETBANKPAYU,03-MAR-2017,S,07-MAR-2017
INNCINEMALIV,INNCINEMALIVVN1488518882,120,S,PG,03-MAR-2017,S,07-MAR-2017
INNCINEMALIV,INNCINEMALIVMD1488518911,720,S,OTHERNETBANKPAYU,03-MAR-2017,S,07-MAR-2017
INNCINEMALIV,INNCINEMALIVAJ1488633566,240,S,PG,04-MAR-2017,,
INNCINEMALIV,INNCINEMALIVDB1488633666,120,S,PG,04-MAR-2017,,
INNCINEMALIV,INNCINEMALIVKK1488633761,480,S,OTHERNETBANKPAYU,04-MAR-2017,,
INNCINEMALIV,INNCINEMALIVVJ1488633964,360,S,PG,04-MAR-2017,,
INNCINEMALIV,INNCINEMALIVJP1488634044,480,S,PG,04-MAR-2017,,
INNCINEMALIV,INNCINEMALIVPQ1488634248,120,S,PG,04-MAR-2017,,
INNCINEMALIV,INNCINEMALIVEX1488634579,480,S,PG,04-MAR-2017,,
INNCINEMALIV,INNCINEMALIVXS1488782917,360,S,PG,06-MAR-2017,,
INNCINEMALIV,INNCINEMALIVSA1488473411,120,S,OTHERNETBANKPAYU,02-MAR-2017,S,06-MAR-2017
INNCINEMALIV,INNCINEMALIVWF1488473974,120,S,FEDNET,02-MAR-2017,S,02-MAR-2017
INNCINEMALIV,INNCINEMALIVLM1488473996,240,S,PG,02-MAR-2017,S,06-MAR-2017
INNCINEMALIV,INNCINEMALIVNT1488474017,240,S,PG,02-MAR-2017,S,06-MAR-2017
INNCINEMALIV,INNCINEMALIVMT1488785387,720,S,PG,06-MAR-2017,,
INNCINEMALIV,INNCINEMALIVUB1488785393,120,S,PG,06-MAR-2017,,
INNCINEMALIV,INNCINEMALIVPC1488785643,240,S,PG,06-MAR-2017,,
INNCINEMALIV,INNCINEMALIVJU1488785795,240,S,PG,06-MAR-2017,,
INNCINEMALIV,INNCINEMALIVAA1488519329,360,S,PG,03-MAR-2017,S,07-MAR-2017
INNCINEMALIV,INNCINEMALIVQW1488519535,240,S,PG,03-MAR-2017,S,07-MAR-2017
INNCINEMALIV,INNCINEMALIVXX1488519448,120,S,PG,03-MAR-2017,S,07-MAR-2017
INNCINEMALIV,INNCINEMALIVTH1488519850,240,S,FEDNET,03-MAR-2017,S,03-MAR-2017
INNCINEMALIV,INNCINEMALIVTV1488519908,720,S,PG,03-MAR-2017,S,07-MAR-2017
INNCINEMALIV,INNCINEMALIVLH1488634584,240,S,PG,04-MAR-2017,,
INNCINEMALIV,INNCINEMALIVCK1488634648,600,S,PG,04-MAR-2017,,
INNCINEMALIV,INNCINEMALIVQR1488634864,720,S,PG,04-MAR-2017,,
INNCINEMALIV,INNCINEMALIVXB1488635167,480,S,PG,04-MAR-2017,,
INNCINEMALIV,INNCINEMALIVCD1488635171,240,S,PG,04-MAR-2017,,
INNCINEMALIV,INNCINEMALIVJS1488635293,360,S,PG,04-MAR-2017,,
INNCINEMALIV,INNCINEMALIVPH1488635324,720,S,OTHERNETBANKPAYU,04-MAR-2017,,
INNCINEMALIV,INNCINEMALIVUD1488635360,480,S,PG,04-MAR-2017,,
INNCINEMALIV,INNCINEMALIVAN1488635580,720,S,PG,04-MAR-2017,,
INNCINEMALIV,INNCINEMALIVSA1488635765,360,S,PG,04-MAR-2017,,
INNCINEMALIV,INNCINEMALIVTW1488775375,600,S,OTHERNETBANKPAYU,06-MAR-2017,,
INNCINEMALIV,INNCINEMALIVJW1488474423,360,S,PG,02-MAR-2017,S,06-MAR-2017
INNCINEMALIV,INNCINEMALIVLE1488474964,240,S,OTHERNETBANKPAYU,02-MAR-2017,S,06-MAR-2017
INNCINEMALIV,INNCINEMALIVYZ1488520170,120,S,PG,03-MAR-2017,S,07-MAR-2017
INNCINEMALIV,INNCINEMALIVHK1488636359,960,S,PG,04-MAR-2017,,
INNCINEMALIV,INNCINEMALIVVP1488636475,360,S,FEDNET,04-MAR-2017,S,05-MAR-2017
INNCINEMALIV,INNCINEMALIVJS1488636487,240,S,PG,04-MAR-2017,,
INNCINEMALIV,INNCINEMALIVRS1488636587,120,S,PG,04-MAR-2017,,
INNCINEMALIV,INNCINEMALIVYZ1488636656,960,S,OTHERNETBANKPAYU,04-MAR-2017,,
INNCINEMALIV,INNCINEMALIVVM1488637049,360,S,PG,04-MAR-2017,,
INNCINEMALIV,INNCINEMALIVAC1488637154,240,S,OTHERNETBANKPAYU,04-MAR-2017,,
INNCINEMALIV,INNCINEMALIVOB1488776472,360,S,PG,06-MAR-2017,,
INNCINEMALIV,INNCINEMALIVGR1488787310,240,S,FEDNET,06-MAR-2017,S,06-MAR-2017
INNCINEMALIV,INNCINEMALIVTS1488787511,360,S,OTHERNETBANKPAYU,06-MAR-2017,,
INNCINEMALIV,INNCINEMALIVAH1488787619,600,S,PG,06-MAR-2017,,
INNCINEMALIV,INNCINEMALIVYD1488636308,600,S,PG,04-MAR-2017,,
INNCINEMALIV,INNCINEMALIVTG1488637465,480,S,OTHERNETBANKPAYU,04-MAR-2017,,
INNCINEMALIV,INNCINEMALIVAW1488637511,840,S,PG,04-MAR-2017,,
INNCINEMALIV,INNCINEMALIVSP1488637895,240,S,OTHERNETBANKPAYU,04-MAR-2017,,
INNCINEMALIV,INNCINEMALIVTX1488638260,240,S,OTHERNETBANKPAYU,04-MAR-2017,,
INNCINEMALIV,INNCINEMALIVQD1488638562,240,S,OTHERNETBANKPAYU,04-MAR-2017,,
INNCINEMALIV,INNCINEMALIVMM1488776801,600,S,PG,06-MAR-2017,,
INNCINEMALIV,INNCINEMALIVXA1488476774,480,S,PG,02-MAR-2017,S,06-MAR-2017
INNCINEMALIV,INNCINEMALIVCO1488476950,1200,S,PG,02-MAR-2017,S,06-MAR-2017
INNCINEMALIV,INNCINEMALIVOP1488788962,360,S,PG,06-MAR-2017,,
INNCINEMALIV,INNCINEMALIVYP1488638938,480,S,OTHERNETBANKPAYU,04-MAR-2017,,
INNCINEMALIV,INNCINEMALIVTJ1488638991,1200,S,PG,04-MAR-2017,,
INNCINEMALIV,INNCINEMALIVJJ1488639294,720,S,PG,04-MAR-2017,,
INNCINEMALIV,INNCINEMALIVGW1488639311,600,S,OTHERNETBANKPAYU,04-MAR-2017,,
INNCINEMALIV,INNCINEMALIVRG1488639367,240,S,PG,04-MAR-2017,,
INNCINEMALIV,INNCINEMALIVLN1488639422,240,S,FEDNET,04-MAR-2017,S,05-MAR-2017
INNCINEMALIV,INNCINEMALIVLA1488639431,360,S,PG,04-MAR-2017,,
INNCINEMALIV,INNCINEMALIVML1488639574,480,S,PG,04-MAR-2017,,
INNCINEMALIV,INNCINEMALIVAM1488639688,120,S,PG,04-MAR-2017,,
INNCINEMALIV,INNCINEMALIVJO1488777690,480,S,PG,06-MAR-2017,,
INNCINEMALIV,INNCINEMALIVZV1488777779,120,S,OTHERNETBANKPAYU,06-MAR-2017,,
INNCINEMALIV,INNCINEMALIVJY1488778042,120,S,OTHERNETBANKPAYU,06-MAR-2017,,
INNCINEMALIV,INNCINEMALIVDM1488778082,240,S,OTHERNETBANKPAYU,06-MAR-2017,,
INNCINEMALIV,INNCINEMALIVDU1488478549,600,S,OTHERNETBANKPAYU,02-MAR-2017,S,06-MAR-2017
INNCINEMALIV,INNCINEMALIVOT1488478675,120,S,PG,02-MAR-2017,S,06-MAR-2017
INNCINEMALIV,INNCINEMALIVLF1488478845,480,S,PG,02-MAR-2017,S,06-MAR-2017
INNCINEMALIV,INNCINEMALIVUX1488478897,240,S,OTHERNETBANKPAYU,02-MAR-2017,S,06-MAR-2017
INNCINEMALIV,INNCINEMALIVSV1488479732,480,S,PG,03-MAR-2017,S,07-MAR-2017
INNCINEMALIV,INNCINEMALIVDQ1488479893,960,S,PG,03-MAR-2017,S,07-MAR-2017
INNCINEMALIV,INNCINEMALIVWN1488789004,240,S,OTHERNETBANKPAYU,06-MAR-2017,,
INNCINEMALIV,INNCINEMALIVOC1488789262,600,S,OTHERNETBANKPAYU,06-MAR-2017,,
INNCINEMALIV,INNCINEMALIVNE1488789790,360,S,OTHERNETBANKPAYU,06-MAR-2017,,
INNCINEMALIV,INNCINEMALIVQG1488639851,240,S,OTHERNETBANKPAYU,04-MAR-2017,,
INNCINEMALIV,INNCINEMALIVHY1488639871,240,S,PG,04-MAR-2017,,
INNCINEMALIV,INNCINEMALIVWJ1488639991,120,S,OTHERNETBANKPAYU,04-MAR-2017,,
INNCINEMALIV,INNCINEMALIVGP1488639988,240,S,PG,04-MAR-2017,,
INNCINEMALIV,INNCINEMALIVXT1488640123,600,S,PG,04-MAR-2017,,
INNCINEMALIV,INNCINEMALIVHZ1488640126,360,S,OTHERNETBANKPAYU,04-MAR-2017,,
INNCINEMALIV,INNCINEMALIVIW1488640168,120,S,PG,04-MAR-2017,,
INNCINEMALIV,INNCINEMALIVNE1488640392,600,S,PG,04-MAR-2017,,
INNCINEMALIV,INNCINEMALIVIW1488640519,360,S,OTHERNETBANKPAYU,04-MAR-2017,,
INNCINEMALIV,INNCINEMALIVRD1488640547,1080,S,OTHERNETBANKPAYU,04-MAR-2017,,
INNCINEMALIV,INNCINEMALIVWQ1488640636,240,S,PG,04-MAR-2017,,
INNCINEMALIV,INNCINEMALIVYN1488640849,240,S,PG,04-MAR-2017,,
INNCINEMALIV,INNCINEMALIVHT1488778908,360,S,OTHERNETBANKPAYU,06-MAR-2017,,
INNCINEMALIV,INNCINEMALIVCV1488518983,480,S,PG,03-MAR-2017,S,07-MAR-2017
INNCINEMALIV,INNCINEMALIVNB1488519018,360,S,PG,03-MAR-2017,S,07-MAR-2017
INNCINEMALIV,INNCINEMALIVBO1488480484,240,S,PG,03-MAR-2017,S,07-MAR-2017
INNCINEMALIV,INNCINEMALIVDL1488480743,240,S,PG,03-MAR-2017,S,07-MAR-2017
INNCINEMALIV,INNCINEMALIVNG1488481242,1200,S,FEDNET,03-MAR-2017,S,03-MAR-2017
INNCINEMALIV,INNCINEMALIVLU1488481552,480,S,PG,03-MAR-2017,S,07-MAR-2017
INNCINEMALIV,INNCINEMALIVGI1488481622,600,S,FEDNET,03-MAR-2017,S,03-MAR-2017
INNCINEMALIV,INNCINEMALIVBG1488534367,960,S,OTHERNETBANKPAYU,03-MAR-2017,S,07-MAR-2017
INNCINEMALIV,INNCINEMALIVEL1488537033,480,S,OTHERNETBANKPAYU,03-MAR-2017,S,07-MAR-2017
INNCINEMALIV,INNCINEMALIVDE1488537115,240,S,PG,03-MAR-2017,S,07-MAR-2017
INNCINEMALIV,INNCINEMALIVXE1488523253,240,S,OTHERNETBANKPAYU,03-MAR-2017,S,07-MAR-2017
INNCINEMALIV,INNCINEMALIVFY1488641099,240,S,PG,04-MAR-2017,,
INNCINEMALIV,INNCINEMALIVJL1488641539,360,S,OTHERNETBANKPAYU,04-MAR-2017,,
INNCINEMALIV,INNCINEMALIVPZ1488642669,240,S,PG,04-MAR-2017,,
INNCINEMALIV,INNCINEMALIVZK1488642821,240,S,PG,04-MAR-2017,,
INNCINEMALIV,INNCINEMALIVOA1488779488,360,S,OTHERNETBANKPAYU,06-MAR-2017,,
INNCINEMALIV,INNCINEMALIVRR1488642995,120,S,OTHERNETBANKPAYU,04-MAR-2017,,
INNCINEMALIV,INNCINEMALIVEE1488643674,480,S,OTHERNETBANKPAYU,04-MAR-2017,,
INNCINEMALIV,INNCINEMALIVYC1488644062,1200,S,PG,04-MAR-2017,,
INNCINEMALIV,INNCINEMALIVMA1488644159,240,S,PG,04-MAR-2017,,
INNCINEMALIV,INNCINEMALIVOA1488644387,240,S,PG,04-MAR-2017,,
INNCINEMALIV,INNCINEMALIVUM1488896691,360,S,PG,07-MAR-2017,,
INNCINEMALIV,INNCINEMALIVPS1488896729,480,S,PG,07-MAR-2017,,
INNCINEMALIV,INNCINEMALIVAD1488896778,360,S,OTHERNETBANKPAYU,07-MAR-2017,,
INNCINEMALIV,INNCINEMALIVRX1488897052,360,S,PG,07-MAR-2017,,
INNCINEMALIV,INNCINEMALIVEP1488540513,240,S,PG,03-MAR-2017,S,07-MAR-2017
INNCINEMALIV,INNCINEMALIVPC1488541617,360,S,PG,03-MAR-2017,S,07-MAR-2017
INNCINEMALIV,INNCINEMALIVOZ1488644762,480,S,PG,04-MAR-2017,,
INNCINEMALIV,INNCINEMALIVOO1488644793,480,S,OTHERNETBANKPAYU,04-MAR-2017,,
INNCINEMALIV,INNCINEMALIVPN1488644797,360,S,PG,04-MAR-2017,,
INNCINEMALIV,INNCINEMALIVQC1488644858,720,S,PG,04-MAR-2017,,
INNCINEMALIV,INNCINEMALIVKT1488644819,120,S,PG,04-MAR-2017,,
INNCINEMALIV,INNCINEMALIVTF1488645319,600,S,OTHERNETBANKPAYU,04-MAR-2017,,
INNCINEMALIV,INNCINEMALIVZQ1488645677,120,S,PG,04-MAR-2017,,
INNCINEMALIV,INNCINEMALIVZL1488594201,600,S,PG,04-MAR-2017,S,08-MAR-2017
INNCINEMALIV,INNCINEMALIVSI1488765728,360,S,PG,06-MAR-2017,,
INNCINEMALIV,INNCINEMALIVXH1488899908,360,S,PG,07-MAR-2017,,
INNCINEMALIV,INNCINEMALIVGX1488900198,240,S,PG,07-MAR-2017,,
INNCINEMALIV,INNCINEMALIVSQ1488779898,480,S,PG,06-MAR-2017,,
INNCINEMALIV,INNCINEMALIVDK1488780196,240,S,PG,06-MAR-2017,,
INNCINEMALIV,INNCINEMALIVIC1488780271,600,S,PG,06-MAR-2017,,
INNCINEMALIV,INNCINEMALIVGQ1488645775,120,S,PG,04-MAR-2017,,
INNCINEMALIV,INNCINEMALIVKS1488645799,480,S,OTHERNETBANKPAYU,04-MAR-2017,,
INNCINEMALIV,INNCINEMALIVOY1488645823,720,S,PG,04-MAR-2017,,
INNCINEMALIV,INNCINEMALIVVQ1488645904,240,S,OTHERNETBANKPAYU,04-MAR-2017,,
INNCINEMALIV,INNCINEMALIVQD1488646403,360,S,OTHERNETBANKPAYU,04-MAR-2017,,
INNCINEMALIV,INNCINEMALIVTU1488646816,600,S,PG,04-MAR-2017,,
INNCINEMALIV,INNCINEMALIVVG1488646947,1200,S,PG,04-MAR-2017,,
INNCINEMALIV,INNCINEMALIVVL1488647024,360,S,PG,04-MAR-2017,,
INNCINEMALIV,INNCINEMALIVRH1488647038,360,S,OTHERNETBANKPAYU,04-MAR-2017,,
INNCINEMALIV,INNCINEMALIVBC1488464282,600,S,OTHERNETBANKPAYU,02-MAR-2017,S,06-MAR-2017
INNCINEMALIV,INNCINEMALIVWI1488780290,720,S,PG,06-MAR-2017,,
INNCINEMALIV,INNCINEMALIVSQ1488647187,720,S,FEDNET,04-MAR-2017,S,05-MAR-2017
INNCINEMALIV,INNCINEMALIVFW1488647419,240,S,OTHERNETBANKPAYU,04-MAR-2017,,
INNCINEMALIV,INNCINEMALIVOO1488647635,480,S,PG,04-MAR-2017,,
INNCINEMALIV,INNCINEMALIVEI1488648130,600,S,PG,04-MAR-2017,,
INNCINEMALIV,INNCINEMALIVBZ1488649254,720,S,PG,04-MAR-2017,,
INNCINEMALIV,INNCINEMALIVKL1488649641,480,S,PG,04-MAR-2017,,
INNCINEMALIV,INNCINEMALIVZA1488781025,360,S,OTHERNETBANKPAYU,06-MAR-2017,,
INNCINEMALIV,INNCINEMALIVYB1488781530,240,S,OTHERNETBANKPAYU,06-MAR-2017,,
INNCINEMALIV,INNCINEMALIVCI1488650406,480,S,PG,04-MAR-2017,,
INNCINEMALIV,INNCINEMALIVVV1488652152,120,S,PG,04-MAR-2017,,
INNCINEMALIV,INNCINEMALIVZB1488793551,360,S,PG,06-MAR-2017,,
INNCINEMALIV,INNCINEMALIVAT1488793592,480,S,PG,06-MAR-2017,,
INNCINEMALIV,INNCINEMALIVGF1488519817,120,S,OTHERNETBANKPAYU,03-MAR-2017,S,07-MAR-2017
INNCINEMALIV,INNCINEMALIVER1488555350,360,S,PG,03-MAR-2017,S,07-MAR-2017
INNCINEMALIV,INNCINEMALIVTG1488571519,1200,S,PG,04-MAR-2017,S,08-MAR-2017
INNCINEMALIV,INNCINEMALIVPR1488776908,240,S,PG,06-MAR-2017,,
INNCINEMALIV,INNCINEMALIVZQ1488861826,240,S,OTHERNETBANKPAYU,07-MAR-2017,,
INNCINEMALIV,INNCINEMALIVNT1488515962,720,S,PG,03-MAR-2017,S,07-MAR-2017
INNCINEMALIV,INNCINEMALIVVL1488516204,480,S,OTHERNETBANKPAYU,03-MAR-2017,S,07-MAR-2017
INNCINEMALIV,INNCINEMALIVRV1488506783,360,S,PG,03-MAR-2017,S,07-MAR-2017
INNCINEMALIV,INNCINEMALIVSF1488862401,360,S,PG,07-MAR-2017,,
INNCINEMALIV,INNCINEMALIVQH1488862409,720,S,PG,07-MAR-2017,,
INNCINEMALIV,INNCINEMALIVQX1488784741,120,S,PG,06-MAR-2017,,
INNCINEMALIV,INNCINEMALIVWK1488516765,600,S,PG,03-MAR-2017,S,07-MAR-2017
INNCINEMALIV,INNCINEMALIVMX1488516769,120,S,PG,03-MAR-2017,S,07-MAR-2017
INNCINEMALIV,INNCINEMALIVQM1488516787,360,S,PG,03-MAR-2017,S,07-MAR-2017
INNCINEMALIV,INNCINEMALIVOB1488516838,120,S,OTHERNETBANKPAYU,03-MAR-2017,S,07-MAR-2017
INNCINEMALIV,INNCINEMALIVSC1488863499,240,S,FEDNET,07-MAR-2017,S,07-MAR-2017
INNCINEMALIV,INNCINEMALIVQU1488863547,120,S,PG,07-MAR-2017,,
INNCINEMALIV,INNCINEMALIVNQ1488882971,480,S,PG,07-MAR-2017,,
INNCINEMALIV,INNCINEMALIVOW1488517430,120,S,PG,03-MAR-2017,S,07-MAR-2017
INNCINEMALIV,INNCINEMALIVRI1488517511,480,S,OTHERNETBANKPAYU,03-MAR-2017,S,07-MAR-2017
INNCINEMALIV,INNCINEMALIVEW1488517713,960,S,PG,03-MAR-2017,S,07-MAR-2017
INNCINEMALIV,INNCINEMALIVAX1488864039,480,S,FEDNET,07-MAR-2017,S,07-MAR-2017
INNCINEMALIV,INNCINEMALIVZO1488864291,480,S,PG,07-MAR-2017,,
INNCINEMALIV,INNCINEMALIVAX1488864520,240,S,PG,07-MAR-2017,,
INNCINEMALIV,INNCINEMALIVRL1488517957,360,S,PG,03-MAR-2017,S,07-MAR-2017
INNCINEMALIV,INNCINEMALIVKY1488518079,240,S,PG,03-MAR-2017,S,07-MAR-2017
INNCINEMALIV,INNCINEMALIVBJ1488518347,360,S,PG,03-MAR-2017,S,07-MAR-2017
INNCINEMALIV,INNCINEMALIVYS1488518350,240,S,OTHERNETBANKPAYU,03-MAR-2017,S,07-MAR-2017
INNCINEMALIV,INNCINEMALIVLZ1488518609,1200,S,PG,03-MAR-2017,S,07-MAR-2017
INNCINEMALIV,INNCINEMALIVDO1488518618,840,S,PG,03-MAR-2017,S,07-MAR-2017
INNCINEMALIV,INNCINEMALIVWV1488865085,240,S,PG,07-MAR-2017,,
INNCINEMALIV,INNCINEMALIVGQ1488865851,1200,S,PG,07-MAR-2017,,
INNCINEMALIV,INNCINEMALIVHR1488867780,240,S,PG,07-MAR-2017,,
INNCINEMALIV,INNCINEMALIVLK1488867896,120,S,OTHERNETBANKPAYU,07-MAR-2017,,
INNCINEMALIV,INNCINEMALIVTK1488867957,360,S,PG,07-MAR-2017,,
INNCINEMALIV,INNCINEMALIVBT1488868124,120,S,PG,07-MAR-2017,,
INNCINEMALIV,INNCINEMALIVQT1488868244,600,S,PG,07-MAR-2017,,
INNCINEMALIV,INNCINEMALIVHU1488485468,240,S,FEDNET,03-MAR-2017,S,03-MAR-2017
INNCINEMALIV,INNCINEMALIVNB1488485814,360,S,OTHERNETBANKPAYU,03-MAR-2017,S,07-MAR-2017
INNCINEMALIV,INNCINEMALIVQB1488538106,1080,S,PG,03-MAR-2017,S,07-MAR-2017
INNCINEMALIV,INNCINEMALIVPL1488539096,240,S,PG,03-MAR-2017,S,07-MAR-2017
INNCINEMALIV,INNCINEMALIVQP1488655247,120,S,PG,05-MAR-2017,,
INNCINEMALIV,INNCINEMALIVIH1488791848,240,S,PG,06-MAR-2017,,
INNCINEMALIV,INNCINEMALIVNI1488549318,240,S,PG,03-MAR-2017,S,07-MAR-2017
INNCINEMALIV,INNCINEMALIVSC1488549350,360,S,PG,03-MAR-2017,S,07-MAR-2017
INNCINEMALIV,INNCINEMALIVJL1488549353,240,S,OTHERNETBANKPAYU,03-MAR-2017,S,07-MAR-2017
INNCINEMALIV,INNCINEMALIVSR1488549393,240,S,PG,03-MAR-2017,S,07-MAR-2017
INNCINEMALIV,INNCINEMALIVEH1488549660,240,S,PG,03-MAR-2017,S,07-MAR-2017
INNCINEMALIV,INNCINEMALIVWE1488526930,840,S,OTHERNETBANKPAYU,03-MAR-2017,S,07-MAR-2017
INNCINEMALIV,INNCINEMALIVTP1488526932,720,S,PG,03-MAR-2017,S,07-MAR-2017
INNCINEMALIV,INNCINEMALIVNI1488527393,240,S,PG,03-MAR-2017,S,07-MAR-2017
INNCINEMALIV,INNCINEMALIVBV1488525661,240,S,PG,03-MAR-2017,S,07-MAR-2017
INNCINEMALIV,INNCINEMALIVQC1488710205,240,S,PG,05-MAR-2017,,
INNCINEMALIV,INNCINEMALIVEW1488793178,240,S,PG,06-MAR-2017,,
INNCINEMALIV,INNCINEMALIVDO1488793373,480,S,PG,06-MAR-2017,,
INNCINEMALIV,INNCINEMALIVLD1488793414,240,S,PG,06-MAR-2017,,
INNCINEMALIV,INNCINEMALIVPO1488810049,240,S,OTHERNETBANKPAYU,06-MAR-2017,,
INNCINEMALIV,INNCINEMALIVIE1488861440,720,S,PG,07-MAR-2017,,
INNCINEMALIV,INNCINEMALIVNS1488861441,240,S,PG,07-MAR-2017,,
INNCINEMALIV,INNCINEMALIVTI1488868950,240,S,PG,07-MAR-2017,,
INNCINEMALIV,INNCINEMALIVXD1488869043,240,S,OTHERNETBANKPAYU,07-MAR-2017,,
INNCINEMALIV,INNCINEMALIVKK1488869178,600,S,PG,07-MAR-2017,,
INNCINEMALIV,INNCINEMALIVJP1488884369,600,S,PG,07-MAR-2017,,
INNCINEMALIV,INNCINEMALIVIA1488884929,240,S,FEDNET,07-MAR-2017,S,07-MAR-2017
INNCINEMALIV,INNCINEMALIVMM1488625512,360,S,OTHERNETBANKPAYU,04-MAR-2017,,
INNCINEMALIV,INNCINEMALIVHE1488525863,120,S,PG,03-MAR-2017,S,07-MAR-2017
INNCINEMALIV,INNCINEMALIVNV1488526078,1080,S,PG,03-MAR-2017,S,07-MAR-2017
INNCINEMALIV,INNCINEMALIVKG1488526112,240,S,PG,03-MAR-2017,S,07-MAR-2017
INNCINEMALIV,INNCINEMALIVTW1488526343,240,S,OTHERNETBANKPAYU,03-MAR-2017,S,07-MAR-2017
INNCINEMALIV,INNCINEMALIVEV1488711733,720,S,OTHERNETBANKPAYU,05-MAR-2017,,
INNCINEMALIV,INNCINEMALIVVH1488793719,840,S,PG,06-MAR-2017,,
INNCINEMALIV,INNCINEMALIVMC1488793742,240,S,PG,06-MAR-2017,,
INNCINEMALIV,INNCINEMALIVBZ1488793894,120,S,PG,06-MAR-2017,,
INNCINEMALIV,INNCINEMALIVGC1488794003,480,S,OTHERNETBANKPAYU,06-MAR-2017,,
INNCINEMALIV,INNCINEMALIVTJ1488794150,480,S,PG,06-MAR-2017,,
INNCINEMALIV,INNCINEMALIVGW1488794195,240,S,PG,06-MAR-2017,,
INNCINEMALIV,INNCINEMALIVCP1488794447,240,S,PG,06-MAR-2017,,
INNCINEMALIV,INNCINEMALIVRX1488811982,360,S,OTHERNETBANKPAYU,06-MAR-2017,,
INNCINEMALIV,INNCINEMALIVWE1488812306,480,S,FEDNET,06-MAR-2017,S,06-MAR-2017
INNCINEMALIV,INNCINEMALIVEQ1488869529,240,S,OTHERNETBANKPAYU,07-MAR-2017,,
INNCINEMALIV,INNCINEMALIVLA1488869852,480,S,PG,07-MAR-2017,,
INNCINEMALIV,INNCINEMALIVKE1488870194,120,S,PG,07-MAR-2017,,
INNCINEMALIV,INNCINEMALIVQR1488788545,120,S,PG,06-MAR-2017,,
INNCINEMALIV,INNCINEMALIVOV1488526634,480,S,PG,03-MAR-2017,S,07-MAR-2017
INNCINEMALIV,INNCINEMALIVJL1488714818,480,S,PG,05-MAR-2017,,
INNCINEMALIV,INNCINEMALIVFO1488794578,840,S,OTHERNETBANKPAYU,06-MAR-2017,,
INNCINEMALIV,INNCINEMALIVON1488794653,840,S,OTHERNETBANKPAYU,06-MAR-2017,,
INNCINEMALIV,INNCINEMALIVQU1488794763,480,S,OTHERNETBANKPAYU,06-MAR-2017,,
INNCINEMALIV,INNCINEMALIVNS1488870817,240,S,PG,07-MAR-2017,,
INNCINEMALIV,INNCINEMALIVNN1488871176,240,S,PG,07-MAR-2017,,
INNCINEMALIV,INNCINEMALIVYU1488886428,360,S,OTHERNETBANKPAYU,07-MAR-2017,,
INNCINEMALIV,INNCINEMALIVWZ1488886435,240,S,PG,07-MAR-2017,,
INNCINEMALIV,INNCINEMALIVFJ1488886875,240,S,PG,07-MAR-2017,,
INNCINEMALIV,INNCINEMALIVBS1488530285,600,S,PG,03-MAR-2017,S,07-MAR-2017
INNCINEMALIV,INNCINEMALIVCT1488530345,240,S,PG,03-MAR-2017,S,07-MAR-2017
INNCINEMALIV,INNCINEMALIVQM1488530673,240,S,PG,03-MAR-2017,S,07-MAR-2017
INNCINEMALIV,INNCINEMALIVJW1488716699,120,S,OTHERNETBANKPAYU,05-MAR-2017,,
INNCINEMALIV,INNCINEMALIVGF1488716885,360,S,OTHERNETBANKPAYU,05-MAR-2017,,
INNCINEMALIV,INNCINEMALIVHB1488717994,240,S,PG,05-MAR-2017,,
INNCINEMALIV,INNCINEMALIVSN1488718538,360,S,FEDNET,05-MAR-2017,S,05-MAR-2017
INNCINEMALIV,INNCINEMALIVQY1488795225,240,S,PG,06-MAR-2017,,
INNCINEMALIV,INNCINEMALIVWC1488795484,240,S,FEDNET,06-MAR-2017,S,06-MAR-2017
INNCINEMALIV,INNCINEMALIVGW1488795612,1200,S,PG,06-MAR-2017,,
INNCINEMALIV,INNCINEMALIVET1488795796,600,S,PG,06-MAR-2017,,
INNCINEMALIV,INNCINEMALIVGD1488814120,360,S,PG,06-MAR-2017,,
INNCINEMALIV,INNCINEMALIVYF1488814278,600,S,OTHERNETBANKPAYU,06-MAR-2017,,
INNCINEMALIV,INNCINEMALIVXG1488814749,960,S,PG,06-MAR-2017,,
INNCINEMALIV,INNCINEMALIVKR1488871265,720,S,FEDNET,07-MAR-2017,S,07-MAR-2017
INNCINEMALIV,INNCINEMALIVZH1488871805,120,S,OTHERNETBANKPAYU,07-MAR-2017,,
INNCINEMALIV,INNCINEMALIVMQ1488888120,360,S,PG,07-MAR-2017,,
INNCINEMALIV,INNCINEMALIVCE1488531071,120,S,PG,03-MAR-2017,S,07-MAR-2017
INNCINEMALIV,INNCINEMALIVOF1488531366,480,S,OTHERNETBANKPAYU,03-MAR-2017,S,07-MAR-2017
INNCINEMALIV,INNCINEMALIVHY1488720490,240,S,OTHERNETBANKPAYU,05-MAR-2017,,
INNCINEMALIV,INNCINEMALIVWH1488720569,360,S,PG,05-MAR-2017,,
INNCINEMALIV,INNCINEMALIVXW1488504469,120,S,OTHERNETBANKPAYU,03-MAR-2017,S,07-MAR-2017
INNCINEMALIV,INNCINEMALIVFM1488505866,480,S,PG,03-MAR-2017,S,07-MAR-2017
INNCINEMALIV,INNCINEMALIVHN1488796164,120,S,PG,06-MAR-2017,,
INNCINEMALIV,INNCINEMALIVGG1488796592,1200,S,OTHERNETBANKPAYU,06-MAR-2017,,
INNCINEMALIV,INNCINEMALIVSA1488815206,720,S,OTHERNETBANKPAYU,06-MAR-2017,,
INNCINEMALIV,INNCINEMALIVVD1488815383,480,S,PG,06-MAR-2017,,
INNCINEMALIV,INNCINEMALIVQA1488815669,240,S,PG,06-MAR-2017,,
INNCINEMALIV,INNCINEMALIVWZ1488872493,240,S,OTHERNETBANKPAYU,07-MAR-2017,,
INNCINEMALIV,INNCINEMALIVFR1488603715,600,S,PG,04-MAR-2017,,
INNCINEMALIV,INNCINEMALIVIU1488603740,240,S,PG,04-MAR-2017,,
INNCINEMALIV,INNCINEMALIVYQ1488889084,120,S,PG,07-MAR-2017,,
INNCINEMALIV,INNCINEMALIVIK1488722225,720,S,OTHERNETBANKPAYU,05-MAR-2017,,
INNCINEMALIV,INNCINEMALIVVP1488722698,360,S,OTHERNETBANKPAYU,05-MAR-2017,,
INNCINEMALIV,INNCINEMALIVME1488722858,840,S,PG,05-MAR-2017,,
INNCINEMALIV,INNCINEMALIVLJ1488723014,120,S,OTHERNETBANKPAYU,05-MAR-2017,,
INNCINEMALIV,INNCINEMALIVKA1488507219,600,S,PG,03-MAR-2017,S,07-MAR-2017
INNCINEMALIV,INNCINEMALIVJS1488507710,360,S,OTHERNETBANKPAYU,03-MAR-2017,S,07-MAR-2017
INNCINEMALIV,INNCINEMALIVJP1488507750,240,S,OTHERNETBANKPAYU,03-MAR-2017,S,07-MAR-2017
INNCINEMALIV,INNCINEMALIVSW1488507903,360,S,PG,03-MAR-2017,S,07-MAR-2017
INNCINEMALIV,INNCINEMALIVRM1488508026,120,S,OTHERNETBANKPAYU,03-MAR-2017,S,07-MAR-2017
INNCINEMALIV,INNCINEMALIVKL1488508328,360,S,PG,03-MAR-2017,S,07-MAR-2017
INNCINEMALIV,INNCINEMALIVUQ1488508349,480,S,OTHERNETBANKPAYU,03-MAR-2017,S,07-MAR-2017
INNCINEMALIV,INNCINEMALIVYF1488797606,120,S,OTHERNETBANKPAYU,06-MAR-2017,,
INNCINEMALIV,INNCINEMALIVYG1488797753,240,S,OTHERNETBANKPAYU,06-MAR-2017,,
INNCINEMALIV,INNCINEMALIVFC1488816067,840,S,PG,06-MAR-2017,,
INNCINEMALIV,INNCINEMALIVXO1488890590,240,S,FEDNET,07-MAR-2017,S,07-MAR-2017
INNCINEMALIV,INNCINEMALIVSM1488890637,720,S,OTHERNETBANKPAYU,07-MAR-2017,,
INNCINEMALIV,INNCINEMALIVRP1488542871,480,S,PG,03-MAR-2017,S,07-MAR-2017
INNCINEMALIV,INNCINEMALIVAY1488543325,120,S,OTHERNETBANKPAYU,03-MAR-2017,S,07-MAR-2017
INNCINEMALIV,INNCINEMALIVUI1488543335,480,S,PG,03-MAR-2017,S,07-MAR-2017
INNCINEMALIV,INNCINEMALIVXC1488543350,360,S,OTHERNETBANKPAYU,03-MAR-2017,S,07-MAR-2017
INNCINEMALIV,INNCINEMALIVAL1488533631,360,S,PG,03-MAR-2017,S,07-MAR-2017
INNCINEMALIV,INNCINEMALIVRY1488723201,240,S,PG,05-MAR-2017,,
INNCINEMALIV,INNCINEMALIVOD1488723473,240,S,PG,05-MAR-2017,,
INNCINEMALIV,INNCINEMALIVUN1488508608,240,S,PG,03-MAR-2017,S,07-MAR-2017
INNCINEMALIV,INNCINEMALIVIT1488508730,240,S,PG,03-MAR-2017,S,07-MAR-2017
INNCINEMALIV,INNCINEMALIVFB1488508763,1200,S,PG,03-MAR-2017,S,07-MAR-2017
INNCINEMALIV,INNCINEMALIVME1488508771,360,S,PG,03-MAR-2017,S,07-MAR-2017
INNCINEMALIV,INNCINEMALIVPI1488508813,120,S,PG,03-MAR-2017,S,07-MAR-2017
INNCINEMALIV,INNCINEMALIVLW1488798014,480,S,OTHERNETBANKPAYU,06-MAR-2017,,
INNCINEMALIV,INNCINEMALIVQZ1488798144,480,S,PG,06-MAR-2017,,
INNCINEMALIV,INNCINEMALIVEZ1488798700,840,S,PG,06-MAR-2017,,
INNCINEMALIV,INNCINEMALIVRQ1488817293,480,S,PG,06-MAR-2017,,
INNCINEMALIV,INNCINEMALIVTE1488873960,360,S,OTHERNETBANKPAYU,07-MAR-2017,,
INNCINEMALIV,INNCINEMALIVXO1488874046,240,S,PG,07-MAR-2017,,
INNCINEMALIV,INNCINEMALIVLK1488891257,720,S,PG,07-MAR-2017,,
INNCINEMALIV,INNCINEMALIVOR1488891880,960,S,PG,07-MAR-2017,,
INNCINEMALIV,INNCINEMALIVQN1488543923,480,S,PG,03-MAR-2017,S,07-MAR-2017
INNCINEMALIV,INNCINEMALIVJA1488544099,240,S,PG,03-MAR-2017,S,07-MAR-2017
INNCINEMALIV,INNCINEMALIVSU1488534557,120,S,PG,03-MAR-2017,S,07-MAR-2017
INNCINEMALIV,INNCINEMALIVOF1488724925,480,S,OTHERNETBANKPAYU,05-MAR-2017,,
INNCINEMALIV,INNCINEMALIVVW1488724929,240,S,OTHERNETBANKPAYU,05-MAR-2017,,
INNCINEMALIV,INNCINEMALIVGE1488725432,360,S,PG,05-MAR-2017,,
INNCINEMALIV,INNCINEMALIVVN1488725797,480,S,PG,05-MAR-2017,,
INNCINEMALIV,INNCINEMALIVCN1488725910,240,S,PG,05-MAR-2017,,
INNCINEMALIV,INNCINEMALIVCJ1488509476,240,S,OTHERNETBANKPAYU,03-MAR-2017,S,07-MAR-2017
INNCINEMALIV,INNCINEMALIVIA1488509797,240,S,FEDNET,03-MAR-2017,S,03-MAR-2017
INNCINEMALIV,INNCINEMALIVUE1488509826,720,S,PG,03-MAR-2017,S,07-MAR-2017
INNCINEMALIV,INNCINEMALIVKV1488510218,360,S,PG,03-MAR-2017,S,07-MAR-2017
INNCINEMALIV,INNCINEMALIVSU1488510354,240,S,PG,03-MAR-2017,S,07-MAR-2017
INNCINEMALIV,INNCINEMALIVAL1488510546,240,S,OTHERNETBANKPAYU,03-MAR-2017,S,07-MAR-2017
INNCINEMALIV,INNCINEMALIVIP1488510613,120,S,PG,03-MAR-2017,S,07-MAR-2017
INNCINEMALIV,INNCINEMALIVRD1488510640,600,S,PG,03-MAR-2017,S,07-MAR-2017
INNCINEMALIV,INNCINEMALIVGH1488510983,240,S,PG,03-MAR-2017,S,07-MAR-2017
INNCINEMALIV,INNCINEMALIVGI1488511117,360,S,PG,03-MAR-2017,S,07-MAR-2017
INNCINEMALIV,INNCINEMALIVYW1488799019,480,S,OTHERNETBANKPAYU,06-MAR-2017,,
INNCINEMALIV,INNCINEMALIVTI1488799431,120,S,OTHERNETBANKPAYU,06-MAR-2017,,
INNCINEMALIV,INNCINEMALIVVE1488819368,480,S,PG,06-MAR-2017,,
INNCINEMALIV,INNCINEMALIVAL1488874718,1080,S,PG,07-MAR-2017,,
INNCINEMALIV,INNCINEMALIVIZ1488892335,120,S,PG,07-MAR-2017,,
INNCINEMALIV,INNCINEMALIVVG1488501821,240,S,PG,03-MAR-2017,S,07-MAR-2017
INNCINEMALIV,INNCINEMALIVAM1488544949,120,S,OTHERNETBANKPAYU,03-MAR-2017,S,07-MAR-2017
INNCINEMALIV,INNCINEMALIVGD1488544971,1200,S,FEDNET,03-MAR-2017,S,03-MAR-2017
INNCINEMALIV,INNCINEMALIVTY1488545126,240,S,PG,03-MAR-2017,S,07-MAR-2017
INNCINEMALIV,INNCINEMALIVCZ1488545221,480,S,FEDNET,03-MAR-2017,S,03-MAR-2017
INNCINEMALIV,INNCINEMALIVXE1488534875,240,S,OTHERNETBANKPAYU,03-MAR-2017,S,07-MAR-2017
INNCINEMALIV,INNCINEMALIVFA1488726829,480,S,PG,05-MAR-2017,,
INNCINEMALIV,INNCINEMALIVQZ1488511222,120,S,OTHERNETBANKPAYU,03-MAR-2017,S,07-MAR-2017
INNCINEMALIV,INNCINEMALIVOC1488511333,360,S,PG,03-MAR-2017,S,07-MAR-2017
INNCINEMALIV,INNCINEMALIVIZ1488511307,360,S,PG,03-MAR-2017,S,07-MAR-2017
INNCINEMALIV,INNCINEMALIVNQ1488511780,360,S,FEDNET,03-MAR-2017,S,03-MAR-2017
INNCINEMALIV,INNCINEMALIVDW1488511982,240,S,OTHERNETBANKPAYU,03-MAR-2017,S,07-MAR-2017
INNCINEMALIV,INNCINEMALIVCT1488512031,720,S,PG,03-MAR-2017,S,07-MAR-2017
INNCINEMALIV,INNCINEMALIVRB1488512133,600,S,PG,03-MAR-2017,S,07-MAR-2017
INNCINEMALIV,INNCINEMALIVBJ1488512205,120,S,PG,03-MAR-2017,S,07-MAR-2017
INNCINEMALIV,INNCINEMALIVNJ1488512290,360,S,OTHERNETBANKPAYU,03-MAR-2017,S,07-MAR-2017
INNCINEMALIV,INNCINEMALIVUS1488512419,240,S,PG,03-MAR-2017,S,07-MAR-2017
INNCINEMALIV,INNCINEMALIVCZ1488820123,240,S,PG,06-MAR-2017,,
INNCINEMALIV,INNCINEMALIVYY1488820421,720,S,PG,06-MAR-2017,,
INNCINEMALIV,INNCINEMALIVMP1488875125,240,S,PG,07-MAR-2017,,
INNCINEMALIV,INNCINEMALIVIJ1488545882,240,S,PG,03-MAR-2017,S,07-MAR-2017
INNCINEMALIV,INNCINEMALIVJG1488546891,240,S,PG,03-MAR-2017,S,07-MAR-2017
INNCINEMALIV,INNCINEMALIVLF1488536456,240,S,OTHERNETBANKPAYU,03-MAR-2017,S,07-MAR-2017
INNCINEMALIV,INNCINEMALIVKY1488728031,600,S,PG,05-MAR-2017,,
INNCINEMALIV,INNCINEMALIVXM1488512495,240,S,PG,03-MAR-2017,S,07-MAR-2017
INNCINEMALIV,INNCINEMALIVXN1488512582,600,S,PG,03-MAR-2017,S,07-MAR-2017
INNCINEMALIV,INNCINEMALIVDI1488512798,240,S,OTHERNETBANKPAYU,03-MAR-2017,S,07-MAR-2017
INNCINEMALIV,INNCINEMALIVCY1488513054,240,S,PG,03-MAR-2017,S,07-MAR-2017
INNCINEMALIV,INNCINEMALIVOV1488513282,240,S,FEDNET,03-MAR-2017,S,03-MAR-2017
INNCINEMALIV,INNCINEMALIVPZ1488513438,480,S,PG,03-MAR-2017,S,07-MAR-2017
INNCINEMALIV,INNCINEMALIVIL1488513584,240,S,FEDNET,03-MAR-2017,S,03-MAR-2017
INNCINEMALIV,INNCINEMALIVRR1488513729,480,S,FEDNET,03-MAR-2017,S,03-MAR-2017
INNCINEMALIV,INNCINEMALIVMR1488513793,240,S,PG,03-MAR-2017,S,07-MAR-2017
INNCINEMALIV,INNCINEMALIVLC1488801203,360,S,OTHERNETBANKPAYU,06-MAR-2017,,
INNCINEMALIV,INNCINEMALIVOB1488877029,1080,S,PG,07-MAR-2017,,
INNCINEMALIV,INNCINEMALIVVZ1488877204,240,S,PG,07-MAR-2017,,
INNCINEMALIV,INNCINEMALIVCN1488877268,240,S,OTHERNETBANKPAYU,07-MAR-2017,,
INNCINEMALIV,INNCINEMALIVTU1488613013,360,S,OTHERNETBANKPAYU,04-MAR-2017,,
INNCINEMALIV,INNCINEMALIVMU1488728931,240,S,OTHERNETBANKPAYU,05-MAR-2017,,
INNCINEMALIV,INNCINEMALIVEE1488729385,240,S,PG,05-MAR-2017,,
INNCINEMALIV,INNCINEMALIVNI1488729489,240,S,PG,05-MAR-2017,,
INNCINEMALIV,INNCINEMALIVVT1488513983,480,S,PG,03-MAR-2017,S,07-MAR-2017
INNCINEMALIV,INNCINEMALIVXK1488514122,360,S,PG,03-MAR-2017,S,07-MAR-2017
INNCINEMALIV,INNCINEMALIVMM1488514300,240,S,OTHERNETBANKPAYU,03-MAR-2017,S,07-MAR-2017
INNCINEMALIV,INNCINEMALIVDS1488514380,240,S,PG,03-MAR-2017,S,07-MAR-2017
INNCINEMALIV,INNCINEMALIVMV1488514425,240,S,PG,03-MAR-2017,S,07-MAR-2017
INNCINEMALIV,INNCINEMALIVKP1488514588,240,S,PG,03-MAR-2017,S,07-MAR-2017
INNCINEMALIV,INNCINEMALIVAA1488514554,360,S,PG,03-MAR-2017,S,07-MAR-2017
INNCINEMALIV,INNCINEMALIVSY1488877472,240,S,PG,07-MAR-2017,,
INNCINEMALIV,INNCINEMALIVXK1488877739,240,S,PG,07-MAR-2017,,
INNCINEMALIV,INNCINEMALIVKG1488877917,600,S,PG,07-MAR-2017,,
INNCINEMALIV,INNCINEMALIVCS1488731568,240,S,OTHERNETBANKPAYU,05-MAR-2017,,
INNCINEMALIV,INNCINEMALIVTY1488514827,240,S,PG,03-MAR-2017,S,07-MAR-2017
INNCINEMALIV,INNCINEMALIVJZ1488514931,240,S,PG,03-MAR-2017,S,07-MAR-2017
INNCINEMALIV,INNCINEMALIVVB1488515270,480,S,PG,03-MAR-2017,S,07-MAR-2017
INNCINEMALIV,INNCINEMALIVNS1488515277,600,S,PG,03-MAR-2017,S,07-MAR-2017
INNCINEMALIV,INNCINEMALIVRB1488804030,360,S,OTHERNETBANKPAYU,06-MAR-2017,,
INNCINEMALIV,INNCINEMALIVZO1488856450,360,S,PG,07-MAR-2017,,
INNCINEMALIV,INNCINEMALIVTM1488879198,480,S,FEDNET,07-MAR-2017,S,07-MAR-2017
INNCINEMALIV,INNCINEMALIVBA1488778632,360,S,PG,06-MAR-2017,,
INNCINEMALIV,INNCINEMALIVCL1488778858,240,S,PG,06-MAR-2017,,
INNCINEMALIV,INNCINEMALIVEF1488515351,480,S,PG,03-MAR-2017,S,07-MAR-2017
INNCINEMALIV,INNCINEMALIVBD1488515456,360,S,PG,03-MAR-2017,S,07-MAR-2017
INNCINEMALIV,INNCINEMALIVCO1488515640,240,S,PG,03-MAR-2017,S,07-MAR-2017
INNCINEMALIV,INNCINEMALIVQS1488653974,240,S,OTHERNETBANKPAYU,05-MAR-2017,,
INNCINEMALIV,INNCINEMALIVUT1488804962,360,S,PG,06-MAR-2017,,
INNCINEMALIV,INNCINEMALIVJC1488805572,360,S,PG,06-MAR-2017,,
INNCINEMALIV,INNCINEMALIVHS1488857382,240,S,PG,07-MAR-2017,,
INNCINEMALIV,INNCINEMALIVJW1488857781,240,S,PG,07-MAR-2017,,
INNCINEMALIV,INNCINEMALIVIM1488879862,600,S,OTHERNETBANKPAYU,07-MAR-2017,,
INNCINEMALIV,INNCINEMALIVCB1488880978,600,S,OTHERNETBANKPAYU,07-MAR-2017,,
INNCINEMALIV,INNCINEMALIVZX1488614631,240,S,OTHERNETBANKPAYU,04-MAR-2017,,
INNCINEMALIV,INNCINEMALIVKZ1488702841,360,S,OTHERNETBANKPAYU,05-MAR-2017,,
INNCINEMALIV,INNCINEMALIVPN1488703124,240,S,OTHERNETBANKPAYU,05-MAR-2017,,
INNCINEMALIV,INNCINEMALIVGU1488703776,480,S,PG,05-MAR-2017,,
INNCINEMALIV,INNCINEMALIVDO1488733407,600,S,PG,05-MAR-2017,,
INNCINEMALIV,INNCINEMALIVGA1488733769,720,S,PG,05-MAR-2017,,
INNCINEMALIV,INNCINEMALIVIS1488734540,600,S,PG,05-MAR-2017,,
INNCINEMALIV,INNCINEMALIVJS1488734650,840,S,PG,05-MAR-2017,,
INNCINEMALIV,INNCINEMALIVUY1488734785,120,S,PG,05-MAR-2017,,
INNCINEMALIV,INNCINEMALIVQF1488790843,240,S,OTHERNETBANKPAYU,06-MAR-2017,,
INNCINEMALIV,INNCINEMALIVNN1488791345,360,S,PG,06-MAR-2017,,
INNCINEMALIV,INNCINEMALIVHR1488881069,240,S,OTHERNETBANKPAYU,07-MAR-2017,,
INNCINEMALIV,INNCINEMALIVCV1488881074,240,S,PG,07-MAR-2017,,
INNCINEMALIV,INNCINEMALIVFE1488881122,240,S,OTHERNETBANKPAYU,07-MAR-2017,,
INNCINEMALIV,INNCINEMALIVQT1488881860,360,S,PG,07-MAR-2017,,
INNCINEMALIV,INNCINEMALIVRU1488882076,240,S,OTHERNETBANKPAYU,07-MAR-2017,,
INNCINEMALIV,INNCINEMALIVKE1488705169,240,S,OTHERNETBANKPAYU,05-MAR-2017,,
INNCINEMALIV,INNCINEMALIVLZ1488737131,720,S,PG,05-MAR-2017,,
INNCINEMALIV,INNCINEMALIVHX1488738236,240,S,PG,05-MAR-2017,,
INNCINEMALIV,INNCINEMALIVKW1488791584,360,S,PG,06-MAR-2017,,
INNCINEMALIV,INNCINEMALIVQD1488791944,240,S,PG,06-MAR-2017,,
INNCINEMALIV,INNCINEMALIVRJ1488792251,360,S,PG,06-MAR-2017,,
INNCINEMALIV,INNCINEMALIVHH1488859558,480,S,PG,07-MAR-2017,,
INNCINEMALIV,INNCINEMALIVTU1488882454,600,S,PG,07-MAR-2017,,
INNCINEMALIV,INNCINEMALIVMK1488883124,240,S,PG,07-MAR-2017,,
INNCINEMALIV,INNCINEMALIVNG1488548318,240,S,PG,03-MAR-2017,S,07-MAR-2017
INNCINEMALIV,INNCINEMALIVRR1488549008,480,S,PG,03-MAR-2017,S,07-MAR-2017
INNCINEMALIV,INNCINEMALIVLE1488524730,120,S,PG,03-MAR-2017,S,07-MAR-2017
INNCINEMALIV,INNCINEMALIVEF1488707141,480,S,PG,05-MAR-2017,,
INNCINEMALIV,INNCINEMALIVNK1488707338,1080,S,PG,05-MAR-2017,,
INNCINEMALIV,INNCINEMALIVUO1488708675,480,S,FEDNET,05-MAR-2017,S,05-MAR-2017
INNCINEMALIV,INNCINEMALIVJJ1488792340,360,S,PG,06-MAR-2017,,
INNCINEMALIV,INNCINEMALIVSY1488792700,240,S,OTHERNETBANKPAYU,06-MAR-2017,,
INNCINEMALIV,INNCINEMALIVXH1488792761,240,S,PG,06-MAR-2017,,
INNCINEMALIV,INNCINEMALIVCP1488809122,480,S,OTHERNETBANKPAYU,06-MAR-2017,,
INNCINEMALIV,INNCINEMALIVDO1488860781,240,S,PG,07-MAR-2017,,
INNCINEMALIV,INNCINEMALIVWH1488860896,120,S,PG,07-MAR-2017,,
INNCINEMALIV,INNCINEMALIVUY1488883602,840,S,FEDNET,07-MAR-2017,S,07-MAR-2017
INNCINEMALIV,INNCINEMALIVPD1488883727,600,S,PG,07-MAR-2017,,
INNCINEMALIV,INNCINEMALIVZJ1488883849,240,S,PG,07-MAR-2017,,
INNCINEMALIV,INNCINEMALIVWM1488884187,1200,S,OTHERNETBANKPAYU,07-MAR-2017,,
INNCINEMALIV,INNCINEMALIVAB1488884238,240,S,OTHERNETBANKPAYU,07-MAR-2017,,
INNCINEMALIV,INNCINEMALIVLP1488466833,600,S,PG,02-MAR-2017,S,06-MAR-2017
INNCINEMALIV,INNCINEMALIVKN1488466885,240,S,OTHERNETBANKPAYU,02-MAR-2017,S,06-MAR-2017
INNCINEMALIV,INNCINEMALIVCF1488466961,240,S,PG,02-MAR-2017,S,06-MAR-2017
INNCINEMALIV,INNCINEMALIVDU1488467069,360,S,PG,02-MAR-2017,S,06-MAR-2017
INNCINEMALIV,INNCINEMALIVTL1488467113,480,S,PG,02-MAR-2017,S,06-MAR-2017
INNCINEMALIV,INNCINEMALIVOL1488467274,240,S,FEDNET,02-MAR-2017,S,02-MAR-2017
INNCINEMALIV,INNCINEMALIVEY1488600452,600,S,PG,04-MAR-2017,,
INNCINEMALIV,INNCINEMALIVAE1488600555,480,S,OTHERNETBANKPAYU,04-MAR-2017,,
INNCINEMALIV,INNCINEMALIVGX1488600739,600,S,PG,04-MAR-2017,,
INNCINEMALIV,INNCINEMALIVFB1488600870,360,S,OTHERNETBANKPAYU,04-MAR-2017,,
INNCINEMALIV,INNCINEMALIVZX1488601253,120,S,OTHERNETBANKPAYU,04-MAR-2017,,
INNCINEMALIV,INNCINEMALIVJU1488611463,240,S,PG,04-MAR-2017,,
INNCINEMALIV,INNCINEMALIVTR1488611614,120,S,OTHERNETBANKPAYU,04-MAR-2017,,
INNCINEMALIV,INNCINEMALIVZC1488611788,600,S,PG,04-MAR-2017,,
INNCINEMALIV,INNCINEMALIVXL1488611964,240,S,OTHERNETBANKPAYU,04-MAR-2017,,
INNCINEMALIV,INNCINEMALIVLG1488557796,1200,S,PG,03-MAR-2017,S,07-MAR-2017
INNCINEMALIV,INNCINEMALIVLY1488557838,360,S,OTHERNETBANKPAYU,03-MAR-2017,S,07-MAR-2017
INNCINEMALIV,INNCINEMALIVKN1488558307,120,S,PG,03-MAR-2017,S,07-MAR-2017
INNCINEMALIV,INNCINEMALIVUJ1488558465,240,S,OTHERNETBANKPAYU,03-MAR-2017,S,07-MAR-2017
INNCINEMALIV,INNCINEMALIVXL1488558807,240,S,PG,03-MAR-2017,S,07-MAR-2017
INNCINEMALIV,INNCINEMALIVYR1488558809,240,S,PG,03-MAR-2017,S,07-MAR-2017
INNCINEMALIV,INNCINEMALIVVF1488560264,480,S,PG,03-MAR-2017,S,07-MAR-2017
INNCINEMALIV,INNCINEMALIVWV1488560961,480,S,PG,03-MAR-2017,S,07-MAR-2017
INNCINEMALIV,INNCINEMALIVYZ1488561484,120,S,PG,03-MAR-2017,S,07-MAR-2017
INNCINEMALIV,INNCINEMALIVKY1488631165,360,S,PG,04-MAR-2017,,
INNCINEMALIV,INNCINEMALIVVC1488631321,600,S,PG,04-MAR-2017,,
INNCINEMALIV,INNCINEMALIVKV1488631713,360,S,OTHERNETBANKPAYU,04-MAR-2017,,
INNCINEMALIV,INNCINEMALIVZT1488631744,240,S,PG,04-MAR-2017,,
INNCINEMALIV,INNCINEMALIVRA1488631930,240,S,PG,04-MAR-2017,,
INNCINEMALIV,INNCINEMALIVCT1488467776,240,S,OTHERNETBANKPAYU,02-MAR-2017,S,06-MAR-2017
INNCINEMALIV,INNCINEMALIVLJ1488468156,360,S,OTHERNETBANKPAYU,02-MAR-2017,S,06-MAR-2017
INNCINEMALIV,INNCINEMALIVXS1488601444,240,S,PG,04-MAR-2017,,
INNCINEMALIV,INNCINEMALIVGW1488601483,480,S,OTHERNETBANKPAYU,04-MAR-2017,,
INNCINEMALIV,INNCINEMALIVOS1488601597,840,S,PG,04-MAR-2017,,
INNCINEMALIV,INNCINEMALIVXI1488601618,720,S,PG,04-MAR-2017,,
INNCINEMALIV,INNCINEMALIVLH1488601651,120,S,OTHERNETBANKPAYU,04-MAR-2017,,
INNCINEMALIV,INNCINEMALIVID1488601663,120,S,PG,04-MAR-2017,,
INNCINEMALIV,INNCINEMALIVES1488601697,240,S,OTHERNETBANKPAYU,04-MAR-2017,,
INNCINEMALIV,INNCINEMALIVUC1488612866,1200,S,OTHERNETBANKPAYU,04-MAR-2017,,
INNCINEMALIV,INNCINEMALIVSX1488562106,480,S,PG,03-MAR-2017,S,07-MAR-2017
INNCINEMALIV,INNCINEMALIVQT1488562118,240,S,OTHERNETBANKPAYU,03-MAR-2017,S,07-MAR-2017
INNCINEMALIV,INNCINEMALIVSU1488562277,120,S,OTHERNETBANKPAYU,03-MAR-2017,S,07-MAR-2017
INNCINEMALIV,INNCINEMALIVGU1488562982,240,S,PG,03-MAR-2017,S,07-MAR-2017
INNCINEMALIV,INNCINEMALIVDF1488632314,600,S,PG,04-MAR-2017,,
INNCINEMALIV,INNCINEMALIVAH1488632577,480,S,OTHERNETBANKPAYU,04-MAR-2017,,
INNCINEMALIV,INNCINEMALIVZF1488469435,360,S,OTHERNETBANKPAYU,02-MAR-2017,S,06-MAR-2017
INNCINEMALIV,INNCINEMALIVKL1488469817,360,S,OTHERNETBANKPAYU,02-MAR-2017,S,06-MAR-2017
INNCINEMALIV,INNCINEMALIVCY1488602213,360,S,PG,04-MAR-2017,,
INNCINEMALIV,INNCINEMALIVYG1488602270,240,S,PG,04-MAR-2017,,
INNCINEMALIV,INNCINEMALIVKO1488602294,720,S,PG,04-MAR-2017,,
INNCINEMALIV,INNCINEMALIVUB1488602498,240,S,OTHERNETBANKPAYU,04-MAR-2017,,
INNCINEMALIV,INNCINEMALIVGC1488602671,240,S,OTHERNETBANKPAYU,04-MAR-2017,,
INNCINEMALIV,INNCINEMALIVCQ1488614085,480,S,PG,04-MAR-2017,,
INNCINEMALIV,INNCINEMALIVMN1488563989,120,S,OTHERNETBANKPAYU,03-MAR-2017,S,07-MAR-2017
INNCINEMALIV,INNCINEMALIVZH1488564186,240,S,PG,03-MAR-2017,S,07-MAR-2017
INNCINEMALIV,INNCINEMALIVKP1488565047,240,S,PG,03-MAR-2017,S,07-MAR-2017
INNCINEMALIV,INNCINEMALIVQJ1488566222,1200,S,OTHERNETBANKPAYU,04-MAR-2017,S,08-MAR-2017
INNCINEMALIV,INNCINEMALIVNA1488566423,360,S,OTHERNETBANKPAYU,04-MAR-2017,S,08-MAR-2017
INNCINEMALIV,INNCINEMALIVWR1488566493,360,S,PG,04-MAR-2017,S,08-MAR-2017
INNCINEMALIV,INNCINEMALIVCL1488470189,240,S,PG,02-MAR-2017,S,06-MAR-2017
INNCINEMALIV,INNCINEMALIVOZ1488470242,240,S,PG,02-MAR-2017,S,06-MAR-2017
INNCINEMALIV,INNCINEMALIVQN1488470419,360,S,OTHERNETBANKPAYU,02-MAR-2017,S,06-MAR-2017
INNCINEMALIV,INNCINEMALIVAP1488470439,240,S,OTHERNETBANKPAYU,02-MAR-2017,S,06-MAR-2017
INNCINEMALIV,INNCINEMALIVRD1488602747,120,S,PG,04-MAR-2017,,
INNCINEMALIV,INNCINEMALIVAK1488602787,240,S,PG,04-MAR-2017,,
INNCINEMALIV,INNCINEMALIVVO1488602820,480,S,PG,04-MAR-2017,,
INNCINEMALIV,INNCINEMALIVZO1488602862,600,S,OTHERNETBANKPAYU,04-MAR-2017,,
INNCINEMALIV,INNCINEMALIVWP1488602877,840,S,PG,04-MAR-2017,,
INNCINEMALIV,INNCINEMALIVPU1488603324,360,S,OTHERNETBANKPAYU,04-MAR-2017,,
INNCINEMALIV,INNCINEMALIVQB1488615040,480,S,PG,04-MAR-2017,,
INNCINEMALIV,INNCINEMALIVCF1488615582,360,S,OTHERNETBANKPAYU,04-MAR-2017,,
INNCINEMALIV,INNCINEMALIVJI1488566973,840,S,OTHERNETBANKPAYU,04-MAR-2017,S,08-MAR-2017
INNCINEMALIV,INNCINEMALIVBV1488603371,360,S,PG,04-MAR-2017,,
INNCINEMALIV,INNCINEMALIVIG1488603371,480,S,PG,04-MAR-2017,,
INNCINEMALIV,INNCINEMALIVVM1488603400,120,S,PG,04-MAR-2017,,
INNCINEMALIV,INNCINEMALIVAZ1488603421,120,S,PG,04-MAR-2017,,
INNCINEMALIV,INNCINEMALIVTQ1488603533,600,S,PG,04-MAR-2017,,
INNCINEMALIV,INNCINEMALIVPP1488603822,240,S,PG,04-MAR-2017,,
INNCINEMALIV,INNCINEMALIVDG1488603867,360,S,PG,04-MAR-2017,,
INNCINEMALIV,INNCINEMALIVMS1488604022,360,S,OTHERNETBANKPAYU,04-MAR-2017,,
INNCINEMALIV,INNCINEMALIVER1488616541,240,S,PG,04-MAR-2017,,
INNCINEMALIV,INNCINEMALIVHM1488616725,240,S,PG,04-MAR-2017,,
INNCINEMALIV,INNCINEMALIVHS1488616660,480,S,PG,04-MAR-2017,,
INNCINEMALIV,INNCINEMALIVCG1488796867,600,S,OTHERNETBANKPAYU,06-MAR-2017,,
INNCINEMALIV,INNCINEMALIVYO1488882569,120,S,PG,07-MAR-2017,,
INNCINEMALIV,INNCINEMALIVTH1488604246,360,S,OTHERNETBANKPAYU,04-MAR-2017,,
INNCINEMALIV,INNCINEMALIVQK1488604372,480,S,OTHERNETBANKPAYU,04-MAR-2017,,
INNCINEMALIV,INNCINEMALIVXK1488604727,360,S,OTHERNETBANKPAYU,04-MAR-2017,,
INNCINEMALIV,INNCINEMALIVGT1488604785,720,S,OTHERNETBANKPAYU,04-MAR-2017,,
INNCINEMALIV,INNCINEMALIVES1488617054,1080,S,PG,04-MAR-2017,,
INNCINEMALIV,INNCINEMALIVDY1488617366,360,S,PG,04-MAR-2017,,
INNCINEMALIV,INNCINEMALIVHB1488617721,240,S,PG,04-MAR-2017,,
INNCINEMALIV,INNCINEMALIVVR1488617742,240,S,PG,04-MAR-2017,,
INNCINEMALIV,INNCINEMALIVMP1488605168,360,S,PG,04-MAR-2017,,
INNCINEMALIV,INNCINEMALIVWR1488605157,480,S,PG,04-MAR-2017,,
INNCINEMALIV,INNCINEMALIVQO1488605244,1200,S,PG,04-MAR-2017,,
INNCINEMALIV,INNCINEMALIVYD1488605354,240,S,PG,04-MAR-2017,,
INNCINEMALIV,INNCINEMALIVXP1488605346,360,S,PG,04-MAR-2017,,
INNCINEMALIV,INNCINEMALIVRC1488617989,240,S,PG,04-MAR-2017,,
INNCINEMALIV,INNCINEMALIVOT1488618200,240,S,OTHERNETBANKPAYU,04-MAR-2017,,
INNCINEMALIV,INNCINEMALIVRH1488618489,600,S,PG,04-MAR-2017,,
INNCINEMALIV,INNCINEMALIVPR1488618558,360,S,PG,04-MAR-2017,,
INNCINEMALIV,INNCINEMALIVSL1488618624,600,S,OTHERNETBANKPAYU,04-MAR-2017,,
INNCINEMALIV,INNCINEMALIVHN1488618986,240,S,FEDNET,04-MAR-2017,S,05-MAR-2017
INNCINEMALIV,INNCINEMALIVWL1488605478,840,S,PG,04-MAR-2017,,
INNCINEMALIV,INNCINEMALIVFI1488605591,120,S,OTHERNETBANKPAYU,04-MAR-2017,,
INNCINEMALIV,INNCINEMALIVRI1488605650,240,S,FEDNET,04-MAR-2017,S,04-MAR-2017
INNCINEMALIV,INNCINEMALIVPW1488605921,240,S,PG,04-MAR-2017,,
INNCINEMALIV,INNCINEMALIVMY1488606017,720,S,PG,04-MAR-2017,,
INNCINEMALIV,INNCINEMALIVQN1488619124,240,S,PG,04-MAR-2017,,
INNCINEMALIV,INNCINEMALIVYP1488619465,600,S,PG,04-MAR-2017,,
INNCINEMALIV,INNCINEMALIVMO1488549813,480,S,PG,03-MAR-2017,S,07-MAR-2017
INNCINEMALIV,INNCINEMALIVRQ1488550394,840,S,PG,03-MAR-2017,S,07-MAR-2017
INNCINEMALIV,INNCINEMALIVXA1488550579,120,S,OTHERNETBANKPAYU,03-MAR-2017,S,07-MAR-2017
INNCINEMALIV,INNCINEMALIVZW1488550643,240,S,OTHERNETBANKPAYU,03-MAR-2017,S,07-MAR-2017
INNCINEMALIV,INNCINEMALIVTQ1488550643,600,S,PG,03-MAR-2017,S,07-MAR-2017
INNCINEMALIV,INNCINEMALIVBA1488606386,240,S,PG,04-MAR-2017,,
INNCINEMALIV,INNCINEMALIVLC1488606400,360,S,PG,04-MAR-2017,,
INNCINEMALIV,INNCINEMALIVOU1488550839,600,S,FEDNET,03-MAR-2017,S,03-MAR-2017
INNCINEMALIV,INNCINEMALIVQK1488550901,240,S,OTHERNETBANKPAYU,03-MAR-2017,S,07-MAR-2017
INNCINEMALIV,INNCINEMALIVMM1488550918,240,S,PG,03-MAR-2017,S,07-MAR-2017
INNCINEMALIV,INNCINEMALIVWL1488551141,600,S,OTHERNETBANKPAYU,03-MAR-2017,S,07-MAR-2017
INNCINEMALIV,INNCINEMALIVXN1488551286,120,S,FEDNET,03-MAR-2017,S,03-MAR-2017
INNCINEMALIV,INNCINEMALIVLJ1488551285,120,S,PG,03-MAR-2017,S,07-MAR-2017
INNCINEMALIV,INNCINEMALIVBI1488551149,360,S,OTHERNETBANKPAYU,03-MAR-2017,S,07-MAR-2017
INNCINEMALIV,INNCINEMALIVYW1488551394,720,S,OTHERNETBANKPAYU,03-MAR-2017,S,07-MAR-2017
INNCINEMALIV,INNCINEMALIVVA1488517990,480,S,OTHERNETBANKPAYU,03-MAR-2017,S,07-MAR-2017
INNCINEMALIV,INNCINEMALIVSI1488458154,240,S,FEDNET,02-MAR-2017,S,02-MAR-2017
INNCINEMALIV,INNCINEMALIVVY1488458222,720,S,OTHERNETBANKPAYU,02-MAR-2017,S,06-MAR-2017
INNCINEMALIV,INNCINEMALIVEK1488458363,360,S,FEDNET,02-MAR-2017,S,02-MAR-2017
INNCINEMALIV,INNCINEMALIVWI1488458392,120,S,PG,02-MAR-2017,S,06-MAR-2017
INNCINEMALIV,INNCINEMALIVRH1488458427,1200,S,OTHERNETBANKPAYU,02-MAR-2017,S,06-MAR-2017
INNCINEMALIV,INNCINEMALIVYZ1488585595,360,S,FEDNET,04-MAR-2017,S,04-MAR-2017
INNCINEMALIV,INNCINEMALIVMV1488586978,240,S,PG,04-MAR-2017,S,08-MAR-2017
INNCINEMALIV,INNCINEMALIVRX1488607234,240,S,PG,04-MAR-2017,,
INNCINEMALIV,INNCINEMALIVVR1488607290,360,S,OTHERNETBANKPAYU,04-MAR-2017,,
INNCINEMALIV,INNCINEMALIVSE1488621457,240,S,PG,04-MAR-2017,,
INNCINEMALIV,INNCINEMALIVSL1488622048,600,S,PG,04-MAR-2017,,
INNCINEMALIV,INNCINEMALIVWZ1488552004,240,S,PG,03-MAR-2017,S,07-MAR-2017
INNCINEMALIV,INNCINEMALIVPV1488552088,120,S,PG,03-MAR-2017,S,07-MAR-2017
INNCINEMALIV,INNCINEMALIVQK1488552456,360,S,FEDNET,03-MAR-2017,S,03-MAR-2017
INNCINEMALIV,INNCINEMALIVDP1488552777,120,S,PG,03-MAR-2017,S,07-MAR-2017
INNCINEMALIV,INNCINEMALIVRR1488458590,480,S,FEDNET,02-MAR-2017,S,02-MAR-2017
INNCINEMALIV,INNCINEMALIVFA1488458869,360,S,PG,02-MAR-2017,S,06-MAR-2017
INNCINEMALIV,INNCINEMALIVZH1488459401,120,S,PG,02-MAR-2017,S,06-MAR-2017
INNCINEMALIV,INNCINEMALIVKB1488459826,720,S,PG,02-MAR-2017,S,06-MAR-2017
INNCINEMALIV,INNCINEMALIVBY1488590804,240,S,PG,04-MAR-2017,S,08-MAR-2017
INNCINEMALIV,INNCINEMALIVQF1488592703,120,S,PG,04-MAR-2017,S,08-MAR-2017
INNCINEMALIV,INNCINEMALIVUR1488593897,360,S,PG,04-MAR-2017,S,08-MAR-2017
INNCINEMALIV,INNCINEMALIVTV1488607568,480,S,OTHERNETBANKPAYU,04-MAR-2017,,
INNCINEMALIV,INNCINEMALIVRO1488607615,120,S,OTHERNETBANKPAYU,04-MAR-2017,,
INNCINEMALIV,INNCINEMALIVEB1488552919,600,S,OTHERNETBANKPAYU,03-MAR-2017,S,07-MAR-2017
INNCINEMALIV,INNCINEMALIVGK1488552914,480,S,PG,03-MAR-2017,S,07-MAR-2017
INNCINEMALIV,INNCINEMALIVCW1488553411,240,S,PG,03-MAR-2017,S,07-MAR-2017
INNCINEMALIV,INNCINEMALIVHM1488553538,480,S,OTHERNETBANKPAYU,03-MAR-2017,S,07-MAR-2017
INNCINEMALIV,INNCINEMALIVYZ1488553679,240,S,OTHERNETBANKPAYU,03-MAR-2017,S,07-MAR-2017
INNCINEMALIV,INNCINEMALIVFA1488460041,360,S,PG,02-MAR-2017,S,06-MAR-2017
INNCINEMALIV,INNCINEMALIVGR1488460519,360,S,PG,02-MAR-2017,S,06-MAR-2017
INNCINEMALIV,INNCINEMALIVDQ1488460705,600,S,PG,02-MAR-2017,S,06-MAR-2017
INNCINEMALIV,INNCINEMALIVGW1488460863,480,S,FEDNET,02-MAR-2017,S,02-MAR-2017
INNCINEMALIV,INNCINEMALIVGS1488460977,240,S,PG,02-MAR-2017,S,06-MAR-2017
INNCINEMALIV,INNCINEMALIVIG1488461394,840,S,OTHERNETBANKPAYU,02-MAR-2017,S,06-MAR-2017
INNCINEMALIV,INNCINEMALIVPL1488593989,360,S,PG,04-MAR-2017,,
INNCINEMALIV,INNCINEMALIVXS1488594355,960,S,PG,04-MAR-2017,,
INNCINEMALIV,INNCINEMALIVSO1488594415,240,S,OTHERNETBANKPAYU,04-MAR-2017,,
INNCINEMALIV,INNCINEMALIVII1488594716,240,S,PG,04-MAR-2017,,
INNCINEMALIV,INNCINEMALIVIB1488594889,960,S,PG,04-MAR-2017,,
INNCINEMALIV,INNCINEMALIVXN1488595521,240,S,PG,04-MAR-2017,,
INNCINEMALIV,INNCINEMALIVXG1488595584,480,S,PG,04-MAR-2017,,
INNCINEMALIV,INNCINEMALIVKA1488595850,240,S,OTHERNETBANKPAYU,04-MAR-2017,,
INNCINEMALIV,INNCINEMALIVJW1488607929,480,S,OTHERNETBANKPAYU,04-MAR-2017,,
INNCINEMALIV,INNCINEMALIVLW1488608141,120,S,PG,04-MAR-2017,,
INNCINEMALIV,INNCINEMALIVWJ1488608492,120,S,FEDNET,04-MAR-2017,S,05-MAR-2017
INNCINEMALIV,INNCINEMALIVWO1488623554,480,S,PG,04-MAR-2017,,
INNCINEMALIV,INNCINEMALIVEQ1488623979,240,S,PG,04-MAR-2017,,
INNCINEMALIV,INNCINEMALIVET1488553868,240,S,OTHERNETBANKPAYU,03-MAR-2017,S,07-MAR-2017
INNCINEMALIV,INNCINEMALIVEH1488553877,480,S,PG,03-MAR-2017,S,07-MAR-2017
INNCINEMALIV,INNCINEMALIVKK1488553941,360,S,OTHERNETBANKPAYU,03-MAR-2017,S,07-MAR-2017
INNCINEMALIV,INNCINEMALIVMG1488553992,120,S,PG,03-MAR-2017,S,07-MAR-2017
INNCINEMALIV,INNCINEMALIVFF1488554014,120,S,PG,03-MAR-2017,S,07-MAR-2017
INNCINEMALIV,INNCINEMALIVWB1488554050,360,S,PG,03-MAR-2017,S,07-MAR-2017
INNCINEMALIV,INNCINEMALIVEB1488554112,240,S,OTHERNETBANKPAYU,03-MAR-2017,S,07-MAR-2017
INNCINEMALIV,INNCINEMALIVPW1488554148,240,S,OTHERNETBANKPAYU,03-MAR-2017,S,07-MAR-2017
INNCINEMALIV,INNCINEMALIVIM1488461424,1200,S,OTHERNETBANKPAYU,02-MAR-2017,S,06-MAR-2017
INNCINEMALIV,INNCINEMALIVLE1488461475,840,S,OTHERNETBANKPAYU,02-MAR-2017,S,06-MAR-2017
INNCINEMALIV,INNCINEMALIVSD1488461529,240,S,PG,02-MAR-2017,S,06-MAR-2017
INNCINEMALIV,INNCINEMALIVJW1488461586,1200,S,PG,02-MAR-2017,S,06-MAR-2017
INNCINEMALIV,INNCINEMALIVIL1488461622,360,S,PG,02-MAR-2017,S,06-MAR-2017
INNCINEMALIV,INNCINEMALIVRC1488461723,840,S,OTHERNETBANKPAYU,02-MAR-2017,S,06-MAR-2017
INNCINEMALIV,INNCINEMALIVXH1488461943,600,S,FEDNET,02-MAR-2017,S,02-MAR-2017
INNCINEMALIV,INNCINEMALIVOI1488462435,120,S,PG,02-MAR-2017,S,06-MAR-2017
INNCINEMALIV,INNCINEMALIVBJ1488462544,480,S,FEDNET,02-MAR-2017,S,02-MAR-2017
INNCINEMALIV,INNCINEMALIVUK1488462582,480,S,PG,02-MAR-2017,S,06-MAR-2017
INNCINEMALIV,INNCINEMALIVMH1488462589,240,S,FEDNET,02-MAR-2017,S,02-MAR-2017
INNCINEMALIV,INNCINEMALIVGU1488596628,240,S,OTHERNETBANKPAYU,04-MAR-2017,,
INNCINEMALIV,INNCINEMALIVYH1488608869,240,S,PG,04-MAR-2017,,
INNCINEMALIV,INNCINEMALIVMR1488609210,480,S,OTHERNETBANKPAYU,04-MAR-2017,,
INNCINEMALIV,INNCINEMALIVIU1488626269,360,S,PG,04-MAR-2017,,
INNCINEMALIV,INNCINEMALIVLV1488554429,1200,S,PG,03-MAR-2017,S,07-MAR-2017
INNCINEMALIV,INNCINEMALIVPQ1488554444,480,S,OTHERNETBANKPAYU,03-MAR-2017,S,07-MAR-2017
INNCINEMALIV,INNCINEMALIVVR1488554516,1080,S,PG,03-MAR-2017,S,07-MAR-2017
INNCINEMALIV,INNCINEMALIVKV1488554613,600,S,PG,03-MAR-2017,S,07-MAR-2017
INNCINEMALIV,INNCINEMALIVJL1488554616,240,S,PG,03-MAR-2017,S,07-MAR-2017
INNCINEMALIV,INNCINEMALIVPS1488554726,120,S,OTHERNETBANKPAYU,03-MAR-2017,S,07-MAR-2017
INNCINEMALIV,INNCINEMALIVYE1488554756,480,S,OTHERNETBANKPAYU,03-MAR-2017,S,07-MAR-2017
INNCINEMALIV,INNCINEMALIVEZ1488554839,480,S,PG,03-MAR-2017,S,07-MAR-2017
INNCINEMALIV,INNCINEMALIVHH1488554961,240,S,PG,03-MAR-2017,S,07-MAR-2017
INNCINEMALIV,INNCINEMALIVSN1488555128,240,S,OTHERNETBANKPAYU,03-MAR-2017,S,07-MAR-2017
INNCINEMALIV,INNCINEMALIVMD1488462756,360,S,PG,02-MAR-2017,S,06-MAR-2017
INNCINEMALIV,INNCINEMALIVTF1488462838,240,S,PG,02-MAR-2017,S,06-MAR-2017
INNCINEMALIV,INNCINEMALIVTV1488462896,1200,S,PG,02-MAR-2017,S,06-MAR-2017
INNCINEMALIV,INNCINEMALIVVL1488463239,1200,S,OTHERNETBANKPAYU,02-MAR-2017,S,06-MAR-2017
INNCINEMALIV,INNCINEMALIVTN1488464005,360,S,PG,02-MAR-2017,S,06-MAR-2017
INNCINEMALIV,INNCINEMALIVKE1488464088,720,S,OTHERNETBANKPAYU,02-MAR-2017,S,06-MAR-2017
INNCINEMALIV,INNCINEMALIVCX1488464225,480,S,PG,02-MAR-2017,S,06-MAR-2017
INNCINEMALIV,INNCINEMALIVBX1488464255,120,S,PG,02-MAR-2017,S,06-MAR-2017
INNCINEMALIV,INNCINEMALIVTW1488464252,960,S,PG,02-MAR-2017,S,06-MAR-2017
INNCINEMALIV,INNCINEMALIVDV1488597049,240,S,PG,04-MAR-2017,,
INNCINEMALIV,INNCINEMALIVVB1488597131,360,S,OTHERNETBANKPAYU,04-MAR-2017,,
INNCINEMALIV,INNCINEMALIVNU1488597346,120,S,OTHERNETBANKPAYU,04-MAR-2017,,
INNCINEMALIV,INNCINEMALIVFH1488597429,480,S,PG,04-MAR-2017,,
INNCINEMALIV,INNCINEMALIVJZ1488597805,720,S,PG,04-MAR-2017,,
INNCINEMALIV,INNCINEMALIVKO1488597931,240,S,OTHERNETBANKPAYU,04-MAR-2017,,
INNCINEMALIV,INNCINEMALIVRJ1488598015,120,S,PG,04-MAR-2017,,
INNCINEMALIV,INNCINEMALIVIJ1488598013,120,S,OTHERNETBANKPAYU,04-MAR-2017,,
INNCINEMALIV,INNCINEMALIVMR1488598125,240,S,PG,04-MAR-2017,,
INNCINEMALIV,INNCINEMALIVHD1488609611,720,S,OTHERNETBANKPAYU,04-MAR-2017,,
INNCINEMALIV,INNCINEMALIVHN1488609711,840,S,OTHERNETBANKPAYU,04-MAR-2017,,
INNCINEMALIV,INNCINEMALIVGO1488609789,120,S,PG,04-MAR-2017,,
INNCINEMALIV,INNCINEMALIVQC1488555509,360,S,PG,03-MAR-2017,S,07-MAR-2017
INNCINEMALIV,INNCINEMALIVTF1488555596,360,S,OTHERNETBANKPAYU,03-MAR-2017,S,07-MAR-2017
INNCINEMALIV,INNCINEMALIVFS1488555505,360,S,OTHERNETBANKPAYU,03-MAR-2017,S,07-MAR-2017
INNCINEMALIV,INNCINEMALIVBB1488555691,600,S,PG,03-MAR-2017,S,07-MAR-2017
INNCINEMALIV,INNCINEMALIVQJ1488555744,360,S,PG,03-MAR-2017,S,07-MAR-2017
INNCINEMALIV,INNCINEMALIVDE1488555791,360,S,PG,03-MAR-2017,S,07-MAR-2017
INNCINEMALIV,INNCINEMALIVOY1488556024,240,S,OTHERNETBANKPAYU,03-MAR-2017,S,07-MAR-2017
INNCINEMALIV,INNCINEMALIVOO1488556171,720,S,PG,03-MAR-2017,S,07-MAR-2017
INNCINEMALIV,INNCINEMALIVZP1488556309,480,S,PG,03-MAR-2017,S,07-MAR-2017
INNCINEMALIV,INNCINEMALIVMZ1488464653,480,S,PG,02-MAR-2017,S,06-MAR-2017
INNCINEMALIV,INNCINEMALIVEW1488464773,240,S,PG,02-MAR-2017,S,06-MAR-2017
INNCINEMALIV,INNCINEMALIVSR1488464813,720,S,FEDNET,02-MAR-2017,S,02-MAR-2017
INNCINEMALIV,INNCINEMALIVDY1488464887,840,S,PG,02-MAR-2017,S,06-MAR-2017
INNCINEMALIV,INNCINEMALIVHN1488464939,360,S,PG,02-MAR-2017,S,06-MAR-2017
INNCINEMALIV,INNCINEMALIVZZ1488464943,480,S,PG,02-MAR-2017,S,06-MAR-2017
INNCINEMALIV,INNCINEMALIVUA1488465005,360,S,OTHERNETBANKPAYU,02-MAR-2017,S,06-MAR-2017
INNCINEMALIV,INNCINEMALIVGS1488465124,360,S,PG,02-MAR-2017,S,06-MAR-2017
INNCINEMALIV,INNCINEMALIVKJ1488465144,240,S,PG,02-MAR-2017,S,06-MAR-2017
INNCINEMALIV,INNCINEMALIVEX1488465176,240,S,PG,02-MAR-2017,S,06-MAR-2017
INNCINEMALIV,INNCINEMALIVXL1488465437,480,S,PG,02-MAR-2017,S,06-MAR-2017
INNCINEMALIV,INNCINEMALIVRS1488598310,120,S,PG,04-MAR-2017,,
INNCINEMALIV,INNCINEMALIVCS1488598680,120,S,OTHERNETBANKPAYU,04-MAR-2017,,
INNCINEMALIV,INNCINEMALIVUQ1488598696,240,S,FEDNET,04-MAR-2017,S,04-MAR-2017
INNCINEMALIV,INNCINEMALIVIP1488598710,240,S,PG,04-MAR-2017,,
INNCINEMALIV,INNCINEMALIVLJ1488598845,240,S,FEDNET,04-MAR-2017,S,04-MAR-2017
INNCINEMALIV,INNCINEMALIVAF1488598922,240,S,PG,04-MAR-2017,,
INNCINEMALIV,INNCINEMALIVRK1488599074,480,S,PG,04-MAR-2017,,
INNCINEMALIV,INNCINEMALIVYZ1488599111,360,S,PG,04-MAR-2017,,
INNCINEMALIV,INNCINEMALIVVX1488599289,120,S,PG,04-MAR-2017,,
INNCINEMALIV,INNCINEMALIVDF1488599319,120,S,PG,04-MAR-2017,,
INNCINEMALIV,INNCINEMALIVWX1488599394,360,S,PG,04-MAR-2017,,
INNCINEMALIV,INNCINEMALIVKT1488610188,240,S,PG,04-MAR-2017,,
INNCINEMALIV,INNCINEMALIVJP1488627984,480,S,PG,04-MAR-2017,,
INNCINEMALIV,INNCINEMALIVMG1488628292,360,S,OTHERNETBANKPAYU,04-MAR-2017,,
INNCINEMALIV,INNCINEMALIVLX1488628765,120,S,FEDNET,04-MAR-2017,S,05-MAR-2017
INNCINEMALIV,INNCINEMALIVHH1488629180,360,S,OTHERNETBANKPAYU,04-MAR-2017,,
INNCINEMALIV,INNCINEMALIVCJ1488629233,1200,S,PG,04-MAR-2017,,
INNCINEMALIV,INNCINEMALIVRV1488629335,480,S,PG,04-MAR-2017,,
INNCINEMALIV,INNCINEMALIVBO1488629507,120,S,OTHERNETBANKPAYU,04-MAR-2017,,
INNCINEMALIV,INNCINEMALIVRS1488556455,360,S,PG,03-MAR-2017,S,07-MAR-2017
INNCINEMALIV,INNCINEMALIVFI1488556676,240,S,PG,03-MAR-2017,S,07-MAR-2017
INNCINEMALIV,INNCINEMALIVMT1488556798,240,S,OTHERNETBANKPAYU,03-MAR-2017,S,07-MAR-2017
INNCINEMALIV,INNCINEMALIVMV1488556827,120,S,PG,03-MAR-2017,S,07-MAR-2017
INNCINEMALIV,INNCINEMALIVPE1488465547,360,S,PG,02-MAR-2017,S,06-MAR-2017
INNCINEMALIV,INNCINEMALIVXL1488465543,120,S,PG,02-MAR-2017,S,06-MAR-2017
INNCINEMALIV,INNCINEMALIVXH1488465256,480,S,PG,02-MAR-2017,S,06-MAR-2017
INNCINEMALIV,INNCINEMALIVPM1488465634,120,S,PG,02-MAR-2017,S,06-MAR-2017
INNCINEMALIV,INNCINEMALIVWZ1488465668,240,S,PG,02-MAR-2017,S,06-MAR-2017
INNCINEMALIV,INNCINEMALIVEJ1488466110,480,S,OTHERNETBANKPAYU,02-MAR-2017,S,06-MAR-2017
INNCINEMALIV,INNCINEMALIVDL1488466186,240,S,PG,02-MAR-2017,S,06-MAR-2017
INNCINEMALIV,INNCINEMALIVSF1488466241,600,S,PG,02-MAR-2017,S,06-MAR-2017
INNCINEMALIV,INNCINEMALIVMI1488466363,480,S,PG,02-MAR-2017,S,06-MAR-2017
INNCINEMALIV,INNCINEMALIVDF1488466620,480,S,PG,02-MAR-2017,S,06-MAR-2017
INNCINEMALIV,INNCINEMALIVPP1488599502,240,S,OTHERNETBANKPAYU,04-MAR-2017,,
INNCINEMALIV,INNCINEMALIVON1488599503,120,S,OTHERNETBANKPAYU,04-MAR-2017,,
INNCINEMALIV,INNCINEMALIVMU1488599554,240,S,PG,04-MAR-2017,,
INNCINEMALIV,INNCINEMALIVCV1488599603,240,S,OTHERNETBANKPAYU,04-MAR-2017,,
INNCINEMALIV,INNCINEMALIVJS1488599690,360,S,PG,04-MAR-2017,,
INNCINEMALIV,INNCINEMALIVCW1488599739,240,S,PG,04-MAR-2017,,
INNCINEMALIV,INNCINEMALIVJO1488599847,240,S,OTHERNETBANKPAYU,04-MAR-2017,,
INNCINEMALIV,INNCINEMALIVHR1488599929,120,S,PG,04-MAR-2017,,
INNCINEMALIV,INNCINEMALIVFX1488600016,480,S,OTHERNETBANKPAYU,04-MAR-2017,,
INNCINEMALIV,INNCINEMALIVQV1488600012,240,S,FEDNET,04-MAR-2017,S,04-MAR-2017
INNCINEMALIV,INNCINEMALIVLA1488610966,240,S,PG,04-MAR-2017,,
INNCINEMALIV,INNCINEMALIVQH1488611027,1080,S,PG,04-MAR-2017,,
INNCINEMALIV,INNCINEMALIVQB1488611107,120,S,PG,04-MAR-2017,,
INNCINEMALIV,INNCINEMALIVRR1488611408,120,S,PG,04-MAR-2017,,
INNCINEMALIV,INNCINEMALIVUA1488557230,240,S,PG,03-MAR-2017,S,07-MAR-2017
INNCINEMALIV,INNCINEMALIVDN1488557278,240,S,OTHERNETBANKPAYU,03-MAR-2017,S,07-MAR-2017
INNCINEMALIV,INNCINEMALIVYW1488557235,120,S,PG,03-MAR-2017,S,07-MAR-2017
INNCINEMALIV,INNCINEMALIVIH1488557327,600,S,PG,03-MAR-2017,S,07-MAR-2017
INNCINEMALIV,INNCINEMALIVGM1488557735,840,S,PG,03-MAR-2017,S,07-MAR-2017
INNCINEMALIV,INNCINEMALIVCB1488557779,720,S,OTHERNETBANKPAYU,03-MAR-2017,S,07-MAR-2017
INNCINEMALIV,INNCINEMALIVOU1488559216,480,S,OTHERNETBANKPAYU,03-MAR-2017,S,07-MAR-2017
INNCINEMALIV,INNCINEMALIVOO1488559729,480,S,OTHERNETBANKPAYU,03-MAR-2017,S,07-MAR-2017
INNCINEMALIV,INNCINEMALIVVA1488559770,720,S,PG,03-MAR-2017,S,07-MAR-2017
INNCINEMALIV,INNCINEMALIVAL1488560032,240,S,OTHERNETBANKPAYU,03-MAR-2017,S,07-MAR-2017
INNCINEMALIV,INNCINEMALIVOL1488560062,600,S,PG,03-MAR-2017,S,07-MAR-2017
INNCINEMALIV,INNCINEMALIVVZ1488629780,600,S,PG,04-MAR-2017,,
INNCINEMALIV,INNCINEMALIVTM1488630045,360,S,OTHERNETBANKPAYU,04-MAR-2017,,
INNCINEMALIV,INNCINEMALIVCX1488630160,240,S,PG,04-MAR-2017,,
INNCINEMALIV,INNCINEMALIVGP1488630666,600,S,PG,04-MAR-2017,,
INNCINEMALIV,INNCINEMALIVQK1488630809,240,S,PG,04-MAR-2017,,
INNCINEMALIV,INNCINEMALIVGG1488630873,240,S,PG,04-MAR-2017,,
